{"event":"details","time":1611148751,"u":"20","run":"0.10","mem":"18.07","data":"BackupBuddy v8.7.2.0 using WordPress v5.6 with PHP v7.3.26 on Linux operating system."}
{"event":"details","time":1611148751,"u":"20","run":"0.10","mem":"18.07","data":"Backup mode value setting to: `1`. Profile was: `1`. Global default is: `1`."}
{"event":"details","time":1611148751,"u":"20","run":"0.10","mem":"18.07","data":"Calculated archive file: `\/var\/www\/html\/wp-content\/uploads\/backupbuddy_backups\/backup-hellosaks_com-2021_01_20-01_19pm-db-yvnfo9ar7a.zip`."}
{"event":"startFunction","time":1611148751,"u":"20","run":"0.10","mem":"18.07","data":"{\"function\":\"pre_backup\",\"title\":\"Getting ready to backup\"}"}
{"event":"details","time":1611148751,"u":"20","run":"0.10","mem":"18.07","data":"Performing pre-backup procedures."}
{"event":"message","time":1611148751,"u":"20","run":"0.10","mem":"18.07","data":"Database only backup mode."}
{"event":"details","time":1611148751,"u":"20","run":"0.10","mem":"18.07","data":"Flushing will not be skipped (default)."}
{"event":"details","time":1611148751,"u":"20","run":"0.10","mem":"18.07","data":"Verifying directories ..."}
{"event":"details","time":1611148751,"u":"20","run":"0.10","mem":"18.07","data":"Directories verified."}
{"event":"details","time":1611148751,"u":"20","run":"0.10","mem":"18.07","data":"Backup serial generated: `yvnfo9ar7a`."}
{"event":"details","time":1611148751,"u":"20","run":"0.10","mem":"18.07","data":"Loading fileoptions data instance #40 in create mode..."}
{"event":"details","time":1611148751,"u":"20","run":"0.10","mem":"18.07","data":"Created fileoptions lock file `yvnfo9ar7a.txt.lock` with ID: 600857ff311935.03115774."}
{"event":"details","time":1611148751,"u":"20","run":"0.10","mem":"18.07","data":"Fileoptions load using 0 MB of memory."}
{"event":"details","time":1611148751,"u":"20","run":"0.10","mem":"18.07","data":"Fileoptions data loaded."}
{"event":"details","time":1611148751,"u":"20","run":"0.10","mem":"18.07","data":"Updating statistics for last backup start."}
{"event":"details","time":1611148751,"u":"20","run":"0.11","mem":"18.10","data":"Excluding additional temp directory subdir: `\/var\/www\/html\/wp-content\/uploads\/backupbuddy_temp\/eqf3y3dih0\/`."}
{"event":"details","time":1611148751,"u":"20","run":"0.11","mem":"18.10","data":"Temp directory: `\/var\/www\/html\/wp-content\/uploads\/backupbuddy_temp\/yvnfo9ar7a\/`."}
{"event":"details","time":1611148751,"u":"20","run":"0.11","mem":"18.10","data":"Backup root: `\/var\/www\/html\/wp-content\/uploads\/backupbuddy_temp\/yvnfo9ar7a\/`."}
{"event":"details","time":1611148751,"u":"20","run":"0.11","mem":"18.10","data":"wp-config.php found in normal location."}
{"event":"details","time":1611148751,"u":"20","run":"0.11","mem":"18.10","data":"Calculating mysql database tables to backup."}
{"event":"details","time":1611148751,"u":"20","run":"0.11","mem":"18.10","data":"Base database dump mode (before inclusions\/exclusions): `prefix`."}
{"event":"details","time":1611148751,"u":"20","run":"0.11","mem":"18.10","data":"Determining database tables with prefix `wp_`."}
{"event":"startAction","time":1611148751,"u":"20","run":"0.11","mem":"18.10","data":"schemaTables"}
{"event":"finishAction","time":1611148751,"u":"20","run":"0.11","mem":"18.10","data":"schemaTables"}
{"event":"details","time":1611148751,"u":"20","run":"0.11","mem":"18.10","data":"Base database tables based on settings (24 tables): `wp_revslider_static_slides_bkp,wp_revslider_navigations,wp_options,wp_usermeta,wp_commentmeta,wp_revslider_sliders,wp_revslider_navigations_bkp,wp_terms,wp_revslider_layer_animations,wp_termmeta,wp_revslider_slides_bkp,wp_users,wp_revslider_css_bkp,wp_term_taxonomy,wp_posts,wp_revslider_layer_animations_bkp,wp_revslider_css,wp_term_relationships,wp_revslider_slides,wp_comments,wp_revslider_static_slides,wp_revslider_sliders_bkp,wp_links,wp_postmeta`"}
{"event":"details","time":1611148751,"u":"20","run":"0.11","mem":"18.10","data":"Database tables after addition (24 tables): `wp_revslider_static_slides_bkp,wp_revslider_navigations,wp_options,wp_usermeta,wp_commentmeta,wp_revslider_sliders,wp_revslider_navigations_bkp,wp_terms,wp_revslider_layer_animations,wp_termmeta,wp_revslider_slides_bkp,wp_users,wp_revslider_css_bkp,wp_term_taxonomy,wp_posts,wp_revslider_layer_animations_bkp,wp_revslider_css,wp_term_relationships,wp_revslider_slides,wp_comments,wp_revslider_static_slides,wp_revslider_sliders_bkp,wp_links,wp_postmeta`"}
{"event":"details","time":1611148751,"u":"20","run":"0.11","mem":"18.10","data":"Database tables after exclusion (24 tables): `wp_revslider_static_slides_bkp,wp_revslider_navigations,wp_options,wp_usermeta,wp_commentmeta,wp_revslider_sliders,wp_revslider_navigations_bkp,wp_terms,wp_revslider_layer_animations,wp_termmeta,wp_revslider_slides_bkp,wp_users,wp_revslider_css_bkp,wp_term_taxonomy,wp_posts,wp_revslider_layer_animations_bkp,wp_revslider_css,wp_term_relationships,wp_revslider_slides,wp_comments,wp_revslider_static_slides,wp_revslider_sliders_bkp,wp_links,wp_postmeta`"}
{"event":"startSubFunction","time":1611148751,"u":"20","run":"0.11","mem":"18.11","data":"{\"function\":\"calculate_tables\",\"title\":\"Found 24 tables to backup based on settings.\",\"more\":\"Tables: wp_revslider_static_slides_bkp, wp_revslider_navigations, wp_options, wp_usermeta, wp_commentmeta, wp_revslider_sliders, wp_revslider_navigations_bkp, wp_terms, wp_revslider_layer_animations, wp_termmeta, wp_revslider_slides_bkp, wp_users, wp_revslider_css_bkp, wp_term_taxonomy, wp_posts, wp_revslider_layer_animations_bkp, wp_revslider_css, wp_term_relationships, wp_revslider_slides, wp_comments, wp_revslider_static_slides, wp_revslider_sliders_bkp, wp_links, wp_postmeta\"}"}
{"event":"details","time":1611148751,"u":"20","run":"0.11","mem":"18.14","data":"Total calculated database size: `4.97 MB`."}
{"event":"details","time":1611148751,"u":"20","run":"0.11","mem":"18.14","data":"Breaking out tables ENABLED based on settings. Tables to be broken out into individual steps: `wp_posts, wp_postmeta`."}
{"event":"details","time":1611148751,"u":"20","run":"0.11","mem":"18.15","data":"Integrity check will be performed based on settings for this profile."}
{"event":"details","time":1611148751,"u":"20","run":"0.11","mem":"18.17","data":"Fileoptions `yvnfo9ar7a.txt` saved. 8296 bytes written."}
{"event":"details","time":1611148751,"u":"20","run":"0.11","mem":"18.15","data":"Creating DAT (data) file snapshotting site & backup information."}
{"event":"startSubFunction","time":1611148751,"u":"20","run":"0.11","mem":"18.11","data":"{\"function\":\"post_count\",\"title\":\"Found 3 posts, 13 pages, and 1 comments.\"}"}
{"event":"startSubFunction","time":1611148751,"u":"20","run":"0.11","mem":"18.11","data":"{\"function\":\"post_count\",\"title\":\"Found 2 user accounts.\"}"}
{"event":"details","time":1611148751,"u":"20","run":"0.11","mem":"18.11","data":"Compensating for SSL in siteurl."}
{"event":"details","time":1611148751,"u":"20","run":"0.11","mem":"18.11","data":"DAT file contents (sans database user\/pass): Array; (;     [backupbuddy_version] => 8.7.2.0;     [wordpress_version] => 5.6;     [php_version] => 7.3.26;     [backup_time] => 1611159551;     [backup_type] => db;     [profile] => Array;         (;             [type] => db;             [title] => Database Only;             [skip_database_dump] => 0;             [mysqldump_additional_includes] => ;             [mysqldump_additional_excludes] => ;             [backup_nonwp_tables] => 0;             [excludes] => ;             [active_plugins_only] => 0;             [integrity_check] => 1;             [profile_globaltables] => 1;             [profile_globalexcludes] => 1;             [backup_mode] => 1;             [custom_root] => ;             [exclude_media] => 0;             [exclude_themes] => 0;             [exclude_plugins] => 0;             [tip] => Just your database. I like your minimalist style.;         ); ;     [default_profile] => Array;         (;             [type] => defaults;             [title] => Global Defaults;             [skip_database_dump] => 0;             [mysqldump_additional_includes] => ;             [mysqldump_additional_excludes] => ;             [backup_nonwp_tables] => 0;             [excludes] => ;             [active_plugins_only] => 0;             [integrity_check] => 1;             [profile_globaltables] => 1;             [profile_globalexcludes] => 1;             [backup_mode] => 1;             [custom_root] => ;             [exclude_media] => 0;             [exclude_themes] => 0;             [exclude_plugins] => 0;         ); ;     [serial] => yvnfo9ar7a;     [trigger] => manual;     [wp-config_in_parent] => ;     [deployment_direction] => ;     [abspath] => \/var\/www\/html\/;     [siteurl] => https:\/\/hellosaks.com;     [homeurl] => https:\/\/hellosaks.com;     [blogname] => SAKS;     [blogdescription] => S\u00f3 mais um site WordPress;     [active_plugins] => backupbuddy\/backupbuddy.php, contact-form-7\/wp-contact-form-7.php, dynamic-featured-image\/dynamic-featured-image.php, js_composer\/js_composer.php, porto-functionality\/porto-functionality.php, revslider\/revslider.php, wp-config-file-editor\/wp-config-file-editor.php;     [posts] => 3;     [pages] => 13;     [comments] => 1;     [users] => 2;     [wp_content_url] => https:\/\/hellosaks.com\/wp-content;     [wp_content_dir] => \/var\/www\/html\/wp-content;     [db_charset] => utf8mb4;     [db_collate] => utf8mb4_unicode_ci;     [db_prefix] => wp_;     [db_server] => mysql;     [db_name] => wordpress;     [db_user] => ;     [db_password] => ;     [db_exclusions] => ;     [db_inclusions] => ;     [db_version] => 5.5.5;     [breakout_tables] => Array;         (;             [0] => wp_posts;             [1] => wp_postmeta;         ); ;     [tables_sizes] => Array;         (;             [wp_commentmeta] => 49152;             [wp_comments] => 98304;             [wp_links] => 32768;             [wp_options] => 2637824;             [wp_postmeta] => 163840;             [wp_posts] => 1622016;             [wp_revslider_css] => 131072;             [wp_revslider_css_bkp] => 16384;             [wp_revslider_layer_animations] => 16384;             [wp_revslider_layer_animations_bkp] => 16384;             [wp_revslider_navigations] => 16384;             [wp_revslider_navigations_bkp] => 16384;             [wp_revslider_sliders] => 16384;             [wp_revslider_sliders_bkp] => 16384;             [wp_revslider_slides] => 16384;             [wp_revslider_slides_bkp] => 16384;             [wp_revslider_static_slides] => 16384;             [wp_revslider_static_slides_bkp] => 16384;             [wp_term_relationships] => 32768;             [wp_term_taxonomy] => 49152;             [wp_termmeta] => 49152;             [wp_terms] => 49152;             [wp_usermeta] => 49152;             [wp_users] => 65536;         ); ;     [force_single_db_file] => ;     [skip_database_dump] => 0;     [is_multisite] => ;     [is_multisite_export] => ;     [domain] => ;     [path] => ;     [upload_url] => ;     [upload_url_rewrite] => ; ); "}
{"event":"details","time":1611148751,"u":"20","run":"0.11","mem":"18.11","data":"Finished creating DAT (data) file."}
{"event":"details","time":1611148751,"u":"20","run":"0.11","mem":"18.10","data":"Deleting malware transient."}
{"event":"details","time":1611148751,"u":"21","run":"0.11","mem":"18.12","data":"Fileoptions `yvnfo9ar7a.txt` saved. 8444 bytes written."}
{"event":"details","time":1611148751,"u":"21","run":"0.11","mem":"18.10","data":"Finished pre-backup procedures."}
{"event":"milestone","time":1611148751,"u":"21","run":"0.11","mem":"18.10","data":"finish_settings"}
{"event":"finishFunction","time":1611148751,"u":"21","run":"0.11","mem":"18.10","data":"{\"function\":\"pre_backup\"}"}
{"event":"message","time":1611148751,"u":"21","run":"0.11","mem":"18.10","data":"Running in classic backup mode based on settings. Mode code: `1`."}
{"event":"details","time":1611148751,"u":"21","run":"0.11","mem":"18.12","data":"Fileoptions `yvnfo9ar7a.txt` saved. 8468 bytes written."}
{"event":"details","time":1611148751,"u":"21","run":"0.11","mem":"18.10","data":"Found next step to run: `backup_create_database_dump`."}
{"event":"details","time":1611148751,"u":"21","run":"0.11","mem":"18.10","data":"Peak memory usage: 18.168 MB"}
{"event":"details","time":1611148751,"u":"21","run":"0.11","mem":"18.10","data":"-----"}
{"event":"details","time":1611148751,"u":"21","run":"0.11","mem":"18.10","data":"Starting step function `backup_create_database_dump`. Attempt #1."}
{"event":"startFunction","time":1611148751,"u":"21","run":"0.11","mem":"18.10","data":"{\"function\":\"backup_create_database_dump\",\"title\":\"Backing up database\"}"}
{"event":"milestone","time":1611148751,"u":"21","run":"0.11","mem":"18.10","data":"start_database"}
{"event":"message","time":1611148751,"u":"21","run":"0.11","mem":"18.10","data":"Starting database backup process."}
{"event":"details","time":1611148751,"u":"21","run":"0.11","mem":"18.10","data":"PHP-based mysqldump (if applicable) max rows per select set to 1000."}
{"event":"details","time":1611148751,"u":"21","run":"0.11","mem":"18.10","data":"Database host for dumping: `mysql`"}
{"event":"details","time":1611148751,"u":"21","run":"0.11","mem":"18.10","data":"Loading mysqlbuddy library."}
{"event":"details","time":1611148751,"u":"21","run":"0.11","mem":"18.10","data":"Mysql server default directories: `\/usr\/bin\/,\/usr\/bin\/mysql\/,\/usr\/local\/bin\/`"}
{"event":"details","time":1611148751,"u":"21","run":"0.11","mem":"18.10","data":"mysqlbuddy: Force method of `1` passed."}
{"event":"message","time":1611148751,"u":"21","run":"0.11","mem":"18.10","data":"mysqlbuddy: Settings overriding automatic detection of available database dump methods. Using forced override methods: `php`."}
{"event":"message","time":1611148751,"u":"21","run":"0.11","mem":"18.10","data":"mysqlbuddy: Detected database dump methods: `php`."}
{"event":"details","time":1611148751,"u":"21","run":"0.11","mem":"18.10","data":"Max execution time chunking disabled by passing -1 to constructor. No chunking will be used for the database dump."}
{"event":"details","time":1611148751,"u":"21","run":"0.11","mem":"18.11","data":"This server's mariadb version: `10.5.8`."}
{"event":"milestone","time":1611148751,"u":"21","run":"0.11","mem":"18.11","data":"start_database"}
{"event":"message","time":1611148751,"u":"21","run":"0.11","mem":"18.11","data":"Starting database dump procedure."}
{"event":"details","time":1611148751,"u":"21","run":"0.11","mem":"18.11","data":"mysqlbuddy: Output directory: `\/var\/www\/html\/wp-content\/uploads\/backupbuddy_temp\/yvnfo9ar7a\/`."}
{"event":"details","time":1611148751,"u":"21","run":"0.11","mem":"18.11","data":"Table dump count: `22`."}
{"event":"details","time":1611148751,"u":"21","run":"0.11","mem":"18.11","data":"Preparing to dump using available method(s) by priority. Methods: `php`"}
{"event":"details","time":1611148751,"u":"21","run":"0.11","mem":"18.11","data":"mysqlbuddy: Attempting dump method `php`."}
{"event":"details","time":1611148751,"u":"21","run":"0.11","mem":"18.11","data":"Loading DB kicker for use leter in case database goes away."}
{"event":"details","time":1611148751,"u":"21","run":"0.11","mem":"18.11","data":"Database kicker loaded. Database object class: `wpdb` with database of type `mysqli`."}
{"event":"details","time":1611148751,"u":"21","run":"0.11","mem":"18.11","data":"Dumping database table `wp_revslider_static_slides_bkp`. Max rows per select: 1000. Starting at row `0`."}
{"event":"startTableDump","time":1611148751,"u":"21","run":"0.11","mem":"18.11","data":"wp_revslider_static_slides_bkp"}
{"event":"details","time":1611148751,"u":"21","run":"0.11","mem":"18.11","data":"SQL dump file `\/var\/www\/html\/wp-content\/uploads\/backupbuddy_temp\/yvnfo9ar7a\/wp_revslider_static_slides_bkp.sql`."}
{"event":"details","time":1611148751,"u":"21","run":"0.11","mem":"18.11","data":"Database max execution time chunking disabled based on -1 passed."}
{"event":"sqlFile","time":1611148751,"u":"21","run":"0.11","mem":"18.11","data":"wp_revslider_static_slides_bkp.sql"}
{"event":"details","time":1611148751,"u":"21","run":"0.11","mem":"18.11","data":"Got `0` rows from `wp_revslider_static_slides_bkp` of `1000` max."}
{"event":"details","time":1611148751,"u":"21","run":"0.11","mem":"18.12","data":"Dumped `0` rows total from `wp_revslider_static_slides_bkp`. No rows remain."}
{"event":"details","time":1611148751,"u":"21","run":"0.11","mem":"18.12","data":"Pinging mysqli."}
{"event":"details","time":1611148751,"u":"21","run":"0.12","mem":"18.12","data":"Database Server connection status verified."}
{"event":"details","time":1611148751,"u":"21","run":"0.12","mem":"18.12","data":"Finished dumping database table `wp_revslider_static_slides_bkp`."}
{"event":"finishTableDump","time":1611148751,"u":"21","run":"0.12","mem":"18.12","data":"wp_revslider_static_slides_bkp"}
{"event":"details","time":1611148751,"u":"21","run":"0.12","mem":"18.12","data":"Database SQL dump file (wp_revslider_static_slides_bkp.sql) size: 508 Bytes"}
{"event":"sqlSize","time":1611148751,"u":"21","run":"0.12","mem":"18.12","data":"508"}
{"event":"details","time":1611148751,"u":"21","run":"0.12","mem":"18.12","data":"About to flush..."}
{"event":"details","time":1611148751,"u":"21","run":"0.12","mem":"18.12","data":"Dumping database table `wp_revslider_navigations`. Max rows per select: 1000. Starting at row `0`."}
{"event":"startTableDump","time":1611148751,"u":"21","run":"0.12","mem":"18.12","data":"wp_revslider_navigations"}
{"event":"details","time":1611148751,"u":"21","run":"0.12","mem":"18.12","data":"SQL dump file `\/var\/www\/html\/wp-content\/uploads\/backupbuddy_temp\/yvnfo9ar7a\/wp_revslider_navigations.sql`."}
{"event":"details","time":1611148751,"u":"21","run":"0.12","mem":"18.12","data":"Database max execution time chunking disabled based on -1 passed."}
{"event":"sqlFile","time":1611148751,"u":"21","run":"0.12","mem":"18.12","data":"wp_revslider_navigations.sql"}
{"event":"details","time":1611148751,"u":"21","run":"0.12","mem":"18.11","data":"Got `0` rows from `wp_revslider_navigations` of `1000` max."}
{"event":"details","time":1611148751,"u":"21","run":"0.12","mem":"18.12","data":"Dumped `0` rows total from `wp_revslider_navigations`. No rows remain."}
{"event":"details","time":1611148751,"u":"21","run":"0.12","mem":"18.12","data":"Pinging mysqli."}
{"event":"details","time":1611148751,"u":"21","run":"0.12","mem":"18.12","data":"Database Server connection status verified."}
{"event":"details","time":1611148751,"u":"21","run":"0.12","mem":"18.12","data":"Finished dumping database table `wp_revslider_navigations`."}
{"event":"finishTableDump","time":1611148751,"u":"21","run":"0.12","mem":"18.12","data":"wp_revslider_navigations"}
{"event":"details","time":1611148751,"u":"21","run":"0.12","mem":"18.12","data":"Database SQL dump file (wp_revslider_navigations.sql) size: 560 Bytes"}
{"event":"sqlSize","time":1611148751,"u":"21","run":"0.12","mem":"18.12","data":"560"}
{"event":"details","time":1611148751,"u":"21","run":"0.12","mem":"18.12","data":"About to flush..."}
{"event":"details","time":1611148751,"u":"21","run":"0.12","mem":"18.12","data":"Dumping database table `wp_options`. Max rows per select: 1000. Starting at row `0`."}
{"event":"startTableDump","time":1611148751,"u":"21","run":"0.12","mem":"18.12","data":"wp_options"}
{"event":"details","time":1611148751,"u":"21","run":"0.12","mem":"18.12","data":"SQL dump file `\/var\/www\/html\/wp-content\/uploads\/backupbuddy_temp\/yvnfo9ar7a\/wp_options.sql`."}
{"event":"details","time":1611148751,"u":"21","run":"0.12","mem":"18.12","data":"Database max execution time chunking disabled based on -1 passed."}
{"event":"sqlFile","time":1611148751,"u":"21","run":"0.12","mem":"18.12","data":"wp_options.sql"}
{"event":"details","time":1611148751,"u":"22","run":"0.12","mem":"22.96","data":"Got `247` rows from `wp_options` of `1000` max."}
{"event":"details","time":1611148751,"u":"24","run":"0.15","mem":"22.96","data":"Dumped `247` rows total from `wp_options`. No rows remain."}
{"event":"details","time":1611148751,"u":"24","run":"0.15","mem":"22.96","data":"Pinging mysqli."}
{"event":"details","time":1611148751,"u":"24","run":"0.15","mem":"22.96","data":"Database Server connection status verified."}
{"event":"details","time":1611148751,"u":"24","run":"0.15","mem":"22.96","data":"Finished dumping database table `wp_options`."}
{"event":"finishTableDump","time":1611148751,"u":"24","run":"0.15","mem":"22.96","data":"wp_options"}
{"event":"details","time":1611148751,"u":"24","run":"0.15","mem":"22.96","data":"Database SQL dump file (wp_options.sql) size: 2.14 MB"}
{"event":"sqlSize","time":1611148751,"u":"24","run":"0.15","mem":"22.96","data":"2240234"}
{"event":"details","time":1611148751,"u":"24","run":"0.15","mem":"22.96","data":"About to flush..."}
{"event":"details","time":1611148751,"u":"24","run":"0.15","mem":"22.96","data":"Dumping database table `wp_usermeta`. Max rows per select: 1000. Starting at row `0`."}
{"event":"startTableDump","time":1611148751,"u":"24","run":"0.15","mem":"22.96","data":"wp_usermeta"}
{"event":"details","time":1611148751,"u":"24","run":"0.15","mem":"22.96","data":"SQL dump file `\/var\/www\/html\/wp-content\/uploads\/backupbuddy_temp\/yvnfo9ar7a\/wp_usermeta.sql`."}
{"event":"details","time":1611148751,"u":"24","run":"0.15","mem":"22.96","data":"Database max execution time chunking disabled based on -1 passed."}
{"event":"sqlFile","time":1611148751,"u":"24","run":"0.15","mem":"22.96","data":"wp_usermeta.sql"}
{"event":"details","time":1611148751,"u":"24","run":"0.15","mem":"18.16","data":"Got `46` rows from `wp_usermeta` of `1000` max."}
{"event":"details","time":1611148751,"u":"24","run":"0.15","mem":"18.17","data":"Dumped `46` rows total from `wp_usermeta`. No rows remain."}
{"event":"details","time":1611148751,"u":"24","run":"0.15","mem":"18.17","data":"Pinging mysqli."}
{"event":"details","time":1611148751,"u":"24","run":"0.15","mem":"18.17","data":"Database Server connection status verified."}
{"event":"details","time":1611148751,"u":"24","run":"0.15","mem":"18.17","data":"Finished dumping database table `wp_usermeta`."}
{"event":"finishTableDump","time":1611148751,"u":"24","run":"0.15","mem":"18.17","data":"wp_usermeta"}
{"event":"details","time":1611148751,"u":"24","run":"0.15","mem":"18.17","data":"Database SQL dump file (wp_usermeta.sql) size: 8 KB"}
{"event":"sqlSize","time":1611148751,"u":"24","run":"0.15","mem":"18.17","data":"7979"}
{"event":"details","time":1611148751,"u":"24","run":"0.15","mem":"18.17","data":"About to flush..."}
{"event":"details","time":1611148751,"u":"24","run":"0.15","mem":"18.17","data":"Dumping database table `wp_commentmeta`. Max rows per select: 1000. Starting at row `0`."}
{"event":"startTableDump","time":1611148751,"u":"24","run":"0.15","mem":"18.17","data":"wp_commentmeta"}
{"event":"details","time":1611148751,"u":"24","run":"0.15","mem":"18.17","data":"SQL dump file `\/var\/www\/html\/wp-content\/uploads\/backupbuddy_temp\/yvnfo9ar7a\/wp_commentmeta.sql`."}
{"event":"details","time":1611148751,"u":"24","run":"0.15","mem":"18.17","data":"Database max execution time chunking disabled based on -1 passed."}
{"event":"sqlFile","time":1611148751,"u":"24","run":"0.15","mem":"18.17","data":"wp_commentmeta.sql"}
{"event":"details","time":1611148751,"u":"24","run":"0.15","mem":"18.11","data":"Got `0` rows from `wp_commentmeta` of `1000` max."}
{"event":"details","time":1611148751,"u":"24","run":"0.15","mem":"18.12","data":"Dumped `0` rows total from `wp_commentmeta`. No rows remain."}
{"event":"details","time":1611148751,"u":"24","run":"0.15","mem":"18.12","data":"Pinging mysqli."}
{"event":"details","time":1611148751,"u":"24","run":"0.15","mem":"18.12","data":"Database Server connection status verified."}
{"event":"details","time":1611148751,"u":"24","run":"0.15","mem":"18.12","data":"Finished dumping database table `wp_commentmeta`."}
{"event":"finishTableDump","time":1611148751,"u":"24","run":"0.15","mem":"18.12","data":"wp_commentmeta"}
{"event":"details","time":1611148751,"u":"24","run":"0.15","mem":"18.12","data":"Database SQL dump file (wp_commentmeta.sql) size: 644 Bytes"}
{"event":"sqlSize","time":1611148751,"u":"24","run":"0.15","mem":"18.12","data":"644"}
{"event":"details","time":1611148751,"u":"24","run":"0.15","mem":"18.12","data":"About to flush..."}
{"event":"details","time":1611148751,"u":"24","run":"0.15","mem":"18.12","data":"Dumping database table `wp_revslider_sliders`. Max rows per select: 1000. Starting at row `0`."}
{"event":"startTableDump","time":1611148751,"u":"24","run":"0.15","mem":"18.12","data":"wp_revslider_sliders"}
{"event":"details","time":1611148751,"u":"24","run":"0.15","mem":"18.12","data":"SQL dump file `\/var\/www\/html\/wp-content\/uploads\/backupbuddy_temp\/yvnfo9ar7a\/wp_revslider_sliders.sql`."}
{"event":"details","time":1611148751,"u":"24","run":"0.15","mem":"18.12","data":"Database max execution time chunking disabled based on -1 passed."}
{"event":"sqlFile","time":1611148751,"u":"24","run":"0.15","mem":"18.12","data":"wp_revslider_sliders.sql"}
{"event":"details","time":1611148751,"u":"24","run":"0.15","mem":"18.12","data":"Got `1` rows from `wp_revslider_sliders` of `1000` max."}
{"event":"details","time":1611148751,"u":"24","run":"0.15","mem":"18.13","data":"Dumped `1` rows total from `wp_revslider_sliders`. No rows remain."}
{"event":"details","time":1611148751,"u":"25","run":"0.15","mem":"18.13","data":"Pinging mysqli."}
{"event":"details","time":1611148751,"u":"25","run":"0.15","mem":"18.13","data":"Database Server connection status verified."}
{"event":"details","time":1611148751,"u":"25","run":"0.15","mem":"18.13","data":"Finished dumping database table `wp_revslider_sliders`."}
{"event":"finishTableDump","time":1611148751,"u":"25","run":"0.15","mem":"18.13","data":"wp_revslider_sliders"}
{"event":"details","time":1611148751,"u":"25","run":"0.15","mem":"18.13","data":"Database SQL dump file (wp_revslider_sliders.sql) size: 10 KB"}
{"event":"sqlSize","time":1611148751,"u":"25","run":"0.15","mem":"18.13","data":"9991"}
{"event":"details","time":1611148751,"u":"25","run":"0.15","mem":"18.13","data":"About to flush..."}
{"event":"details","time":1611148751,"u":"25","run":"0.15","mem":"18.13","data":"Dumping database table `wp_revslider_navigations_bkp`. Max rows per select: 1000. Starting at row `0`."}
{"event":"startTableDump","time":1611148751,"u":"25","run":"0.15","mem":"18.13","data":"wp_revslider_navigations_bkp"}
{"event":"details","time":1611148751,"u":"25","run":"0.15","mem":"18.13","data":"SQL dump file `\/var\/www\/html\/wp-content\/uploads\/backupbuddy_temp\/yvnfo9ar7a\/wp_revslider_navigations_bkp.sql`."}
{"event":"details","time":1611148751,"u":"25","run":"0.15","mem":"18.13","data":"Database max execution time chunking disabled based on -1 passed."}
{"event":"sqlFile","time":1611148751,"u":"25","run":"0.15","mem":"18.13","data":"wp_revslider_navigations_bkp.sql"}
{"event":"details","time":1611148751,"u":"25","run":"0.15","mem":"18.12","data":"Got `0` rows from `wp_revslider_navigations_bkp` of `1000` max."}
{"event":"details","time":1611148751,"u":"25","run":"0.15","mem":"18.13","data":"Dumped `0` rows total from `wp_revslider_navigations_bkp`. No rows remain."}
{"event":"details","time":1611148751,"u":"25","run":"0.15","mem":"18.13","data":"Pinging mysqli."}
{"event":"details","time":1611148751,"u":"25","run":"0.15","mem":"18.13","data":"Database Server connection status verified."}
{"event":"details","time":1611148751,"u":"25","run":"0.15","mem":"18.13","data":"Finished dumping database table `wp_revslider_navigations_bkp`."}
{"event":"finishTableDump","time":1611148751,"u":"25","run":"0.15","mem":"18.13","data":"wp_revslider_navigations_bkp"}
{"event":"details","time":1611148751,"u":"25","run":"0.15","mem":"18.13","data":"Database SQL dump file (wp_revslider_navigations_bkp.sql) size: 572 Bytes"}
{"event":"sqlSize","time":1611148751,"u":"25","run":"0.15","mem":"18.13","data":"572"}
{"event":"details","time":1611148751,"u":"25","run":"0.15","mem":"18.13","data":"About to flush..."}
{"event":"details","time":1611148751,"u":"25","run":"0.15","mem":"18.13","data":"Dumping database table `wp_terms`. Max rows per select: 1000. Starting at row `0`."}
{"event":"startTableDump","time":1611148751,"u":"25","run":"0.15","mem":"18.13","data":"wp_terms"}
{"event":"details","time":1611148751,"u":"25","run":"0.15","mem":"18.13","data":"SQL dump file `\/var\/www\/html\/wp-content\/uploads\/backupbuddy_temp\/yvnfo9ar7a\/wp_terms.sql`."}
{"event":"details","time":1611148751,"u":"25","run":"0.15","mem":"18.13","data":"Database max execution time chunking disabled based on -1 passed."}
{"event":"sqlFile","time":1611148751,"u":"25","run":"0.15","mem":"18.13","data":"wp_terms.sql"}
{"event":"details","time":1611148751,"u":"25","run":"0.15","mem":"18.12","data":"Got `3` rows from `wp_terms` of `1000` max."}
{"event":"details","time":1611148751,"u":"25","run":"0.15","mem":"18.12","data":"Dumped `3` rows total from `wp_terms`. No rows remain."}
{"event":"details","time":1611148751,"u":"25","run":"0.15","mem":"18.12","data":"Pinging mysqli."}
{"event":"details","time":1611148751,"u":"25","run":"0.15","mem":"18.12","data":"Database Server connection status verified."}
{"event":"details","time":1611148751,"u":"25","run":"0.15","mem":"18.12","data":"Finished dumping database table `wp_terms`."}
{"event":"finishTableDump","time":1611148751,"u":"25","run":"0.15","mem":"18.12","data":"wp_terms"}
{"event":"details","time":1611148751,"u":"25","run":"0.15","mem":"18.12","data":"Database SQL dump file (wp_terms.sql) size: 818 Bytes"}
{"event":"sqlSize","time":1611148751,"u":"25","run":"0.15","mem":"18.12","data":"818"}
{"event":"details","time":1611148751,"u":"25","run":"0.15","mem":"18.12","data":"About to flush..."}
{"event":"details","time":1611148751,"u":"25","run":"0.15","mem":"18.12","data":"Dumping database table `wp_revslider_layer_animations`. Max rows per select: 1000. Starting at row `0`."}
{"event":"startTableDump","time":1611148751,"u":"25","run":"0.15","mem":"18.12","data":"wp_revslider_layer_animations"}
{"event":"details","time":1611148751,"u":"25","run":"0.15","mem":"18.12","data":"SQL dump file `\/var\/www\/html\/wp-content\/uploads\/backupbuddy_temp\/yvnfo9ar7a\/wp_revslider_layer_animations.sql`."}
{"event":"details","time":1611148751,"u":"25","run":"0.15","mem":"18.12","data":"Database max execution time chunking disabled based on -1 passed."}
{"event":"sqlFile","time":1611148751,"u":"25","run":"0.15","mem":"18.12","data":"wp_revslider_layer_animations.sql"}
{"event":"details","time":1611148751,"u":"25","run":"0.16","mem":"18.11","data":"Got `0` rows from `wp_revslider_layer_animations` of `1000` max."}
{"event":"details","time":1611148751,"u":"25","run":"0.16","mem":"18.12","data":"Dumped `0` rows total from `wp_revslider_layer_animations`. No rows remain."}
{"event":"details","time":1611148751,"u":"25","run":"0.16","mem":"18.12","data":"Pinging mysqli."}
{"event":"details","time":1611148751,"u":"25","run":"0.16","mem":"18.12","data":"Database Server connection status verified."}
{"event":"details","time":1611148751,"u":"25","run":"0.16","mem":"18.12","data":"Finished dumping database table `wp_revslider_layer_animations`."}
{"event":"finishTableDump","time":1611148751,"u":"25","run":"0.16","mem":"18.12","data":"wp_revslider_layer_animations"}
{"event":"details","time":1611148751,"u":"25","run":"0.16","mem":"18.12","data":"Database SQL dump file (wp_revslider_layer_animations.sql) size: 471 Bytes"}
{"event":"sqlSize","time":1611148751,"u":"25","run":"0.16","mem":"18.12","data":"471"}
{"event":"details","time":1611148751,"u":"25","run":"0.16","mem":"18.12","data":"About to flush..."}
{"event":"details","time":1611148751,"u":"25","run":"0.16","mem":"18.12","data":"Dumping database table `wp_termmeta`. Max rows per select: 1000. Starting at row `0`."}
{"event":"startTableDump","time":1611148751,"u":"25","run":"0.16","mem":"18.12","data":"wp_termmeta"}
{"event":"details","time":1611148751,"u":"25","run":"0.16","mem":"18.12","data":"SQL dump file `\/var\/www\/html\/wp-content\/uploads\/backupbuddy_temp\/yvnfo9ar7a\/wp_termmeta.sql`."}
{"event":"details","time":1611148751,"u":"25","run":"0.16","mem":"18.12","data":"Database max execution time chunking disabled based on -1 passed."}
{"event":"sqlFile","time":1611148751,"u":"25","run":"0.16","mem":"18.12","data":"wp_termmeta.sql"}
{"event":"details","time":1611148751,"u":"25","run":"0.16","mem":"18.11","data":"Got `0` rows from `wp_termmeta` of `1000` max."}
{"event":"details","time":1611148751,"u":"25","run":"0.16","mem":"18.12","data":"Dumped `0` rows total from `wp_termmeta`. No rows remain."}
{"event":"details","time":1611148751,"u":"25","run":"0.16","mem":"18.12","data":"Pinging mysqli."}
{"event":"details","time":1611148751,"u":"25","run":"0.16","mem":"18.12","data":"Database Server connection status verified."}
{"event":"details","time":1611148751,"u":"25","run":"0.16","mem":"18.12","data":"Finished dumping database table `wp_termmeta`."}
{"event":"finishTableDump","time":1611148751,"u":"25","run":"0.16","mem":"18.12","data":"wp_termmeta"}
{"event":"details","time":1611148751,"u":"25","run":"0.16","mem":"18.12","data":"Database SQL dump file (wp_termmeta.sql) size: 626 Bytes"}
{"event":"sqlSize","time":1611148751,"u":"25","run":"0.16","mem":"18.12","data":"626"}
{"event":"details","time":1611148751,"u":"25","run":"0.16","mem":"18.12","data":"About to flush..."}
{"event":"details","time":1611148751,"u":"25","run":"0.16","mem":"18.12","data":"Dumping database table `wp_revslider_slides_bkp`. Max rows per select: 1000. Starting at row `0`."}
{"event":"startTableDump","time":1611148751,"u":"25","run":"0.16","mem":"18.12","data":"wp_revslider_slides_bkp"}
{"event":"details","time":1611148751,"u":"25","run":"0.16","mem":"18.12","data":"SQL dump file `\/var\/www\/html\/wp-content\/uploads\/backupbuddy_temp\/yvnfo9ar7a\/wp_revslider_slides_bkp.sql`."}
{"event":"details","time":1611148751,"u":"25","run":"0.16","mem":"18.12","data":"Database max execution time chunking disabled based on -1 passed."}
{"event":"sqlFile","time":1611148751,"u":"25","run":"0.16","mem":"18.12","data":"wp_revslider_slides_bkp.sql"}
{"event":"details","time":1611148751,"u":"25","run":"0.16","mem":"18.11","data":"Got `0` rows from `wp_revslider_slides_bkp` of `1000` max."}
{"event":"details","time":1611148751,"u":"25","run":"0.16","mem":"18.12","data":"Dumped `0` rows total from `wp_revslider_slides_bkp`. No rows remain."}
{"event":"details","time":1611148751,"u":"25","run":"0.16","mem":"18.12","data":"Pinging mysqli."}
{"event":"details","time":1611148751,"u":"25","run":"0.16","mem":"18.12","data":"Database Server connection status verified."}
{"event":"details","time":1611148751,"u":"25","run":"0.16","mem":"18.12","data":"Finished dumping database table `wp_revslider_slides_bkp`."}
{"event":"finishTableDump","time":1611148751,"u":"25","run":"0.16","mem":"18.12","data":"wp_revslider_slides_bkp"}
{"event":"details","time":1611148751,"u":"25","run":"0.16","mem":"18.12","data":"Database SQL dump file (wp_revslider_slides_bkp.sql) size: 531 Bytes"}
{"event":"sqlSize","time":1611148751,"u":"25","run":"0.16","mem":"18.12","data":"531"}
{"event":"details","time":1611148751,"u":"25","run":"0.16","mem":"18.12","data":"About to flush..."}
{"event":"details","time":1611148751,"u":"25","run":"0.16","mem":"18.12","data":"Dumping database table `wp_users`. Max rows per select: 1000. Starting at row `0`."}
{"event":"startTableDump","time":1611148751,"u":"25","run":"0.16","mem":"18.12","data":"wp_users"}
{"event":"details","time":1611148751,"u":"25","run":"0.16","mem":"18.12","data":"SQL dump file `\/var\/www\/html\/wp-content\/uploads\/backupbuddy_temp\/yvnfo9ar7a\/wp_users.sql`."}
{"event":"details","time":1611148751,"u":"25","run":"0.16","mem":"18.12","data":"Database max execution time chunking disabled based on -1 passed."}
{"event":"sqlFile","time":1611148751,"u":"25","run":"0.16","mem":"18.12","data":"wp_users.sql"}
{"event":"details","time":1611148751,"u":"25","run":"0.16","mem":"18.12","data":"Got `2` rows from `wp_users` of `1000` max."}
{"event":"details","time":1611148751,"u":"25","run":"0.16","mem":"18.13","data":"Dumped `2` rows total from `wp_users`. No rows remain."}
{"event":"details","time":1611148751,"u":"25","run":"0.16","mem":"18.13","data":"Pinging mysqli."}
{"event":"details","time":1611148751,"u":"25","run":"0.16","mem":"18.13","data":"Database Server connection status verified."}
{"event":"details","time":1611148751,"u":"25","run":"0.16","mem":"18.13","data":"Finished dumping database table `wp_users`."}
{"event":"finishTableDump","time":1611148751,"u":"25","run":"0.16","mem":"18.13","data":"wp_users"}
{"event":"details","time":1611148751,"u":"25","run":"0.16","mem":"18.13","data":"Database SQL dump file (wp_users.sql) size: 1 KB"}
{"event":"sqlSize","time":1611148751,"u":"25","run":"0.16","mem":"18.13","data":"1524"}
{"event":"details","time":1611148751,"u":"25","run":"0.16","mem":"18.13","data":"About to flush..."}
{"event":"details","time":1611148751,"u":"25","run":"0.16","mem":"18.13","data":"Dumping database table `wp_revslider_css_bkp`. Max rows per select: 1000. Starting at row `0`."}
{"event":"startTableDump","time":1611148751,"u":"25","run":"0.16","mem":"18.13","data":"wp_revslider_css_bkp"}
{"event":"details","time":1611148751,"u":"25","run":"0.16","mem":"18.13","data":"SQL dump file `\/var\/www\/html\/wp-content\/uploads\/backupbuddy_temp\/yvnfo9ar7a\/wp_revslider_css_bkp.sql`."}
{"event":"details","time":1611148751,"u":"25","run":"0.16","mem":"18.13","data":"Database max execution time chunking disabled based on -1 passed."}
{"event":"sqlFile","time":1611148751,"u":"25","run":"0.16","mem":"18.13","data":"wp_revslider_css_bkp.sql"}
{"event":"details","time":1611148751,"u":"26","run":"0.16","mem":"18.20","data":"Got `47` rows from `wp_revslider_css_bkp` of `1000` max."}
{"event":"details","time":1611148751,"u":"26","run":"0.16","mem":"18.20","data":"Dumped `47` rows total from `wp_revslider_css_bkp`. No rows remain."}
{"event":"details","time":1611148751,"u":"26","run":"0.16","mem":"18.20","data":"Pinging mysqli."}
{"event":"details","time":1611148751,"u":"26","run":"0.16","mem":"18.20","data":"Database Server connection status verified."}
{"event":"details","time":1611148751,"u":"26","run":"0.16","mem":"18.20","data":"Finished dumping database table `wp_revslider_css_bkp`."}
{"event":"finishTableDump","time":1611148751,"u":"26","run":"0.16","mem":"18.20","data":"wp_revslider_css_bkp"}
{"event":"details","time":1611148751,"u":"26","run":"0.16","mem":"18.20","data":"Database SQL dump file (wp_revslider_css_bkp.sql) size: 19 KB"}
{"event":"sqlSize","time":1611148751,"u":"26","run":"0.16","mem":"18.20","data":"19325"}
{"event":"details","time":1611148751,"u":"26","run":"0.16","mem":"18.20","data":"About to flush..."}
{"event":"details","time":1611148751,"u":"26","run":"0.16","mem":"18.20","data":"Dumping database table `wp_term_taxonomy`. Max rows per select: 1000. Starting at row `0`."}
{"event":"startTableDump","time":1611148751,"u":"26","run":"0.16","mem":"18.20","data":"wp_term_taxonomy"}
{"event":"details","time":1611148751,"u":"26","run":"0.16","mem":"18.20","data":"SQL dump file `\/var\/www\/html\/wp-content\/uploads\/backupbuddy_temp\/yvnfo9ar7a\/wp_term_taxonomy.sql`."}
{"event":"details","time":1611148751,"u":"26","run":"0.16","mem":"18.20","data":"Database max execution time chunking disabled based on -1 passed."}
{"event":"sqlFile","time":1611148751,"u":"26","run":"0.16","mem":"18.20","data":"wp_term_taxonomy.sql"}
{"event":"details","time":1611148751,"u":"26","run":"0.16","mem":"18.12","data":"Got `3` rows from `wp_term_taxonomy` of `1000` max."}
{"event":"details","time":1611148751,"u":"26","run":"0.16","mem":"18.12","data":"Dumped `3` rows total from `wp_term_taxonomy`. No rows remain."}
{"event":"details","time":1611148751,"u":"26","run":"0.16","mem":"18.12","data":"Pinging mysqli."}
{"event":"details","time":1611148751,"u":"26","run":"0.16","mem":"18.12","data":"Database Server connection status verified."}
{"event":"details","time":1611148751,"u":"26","run":"0.16","mem":"18.12","data":"Finished dumping database table `wp_term_taxonomy`."}
{"event":"finishTableDump","time":1611148751,"u":"26","run":"0.16","mem":"18.12","data":"wp_term_taxonomy"}
{"event":"details","time":1611148751,"u":"26","run":"0.16","mem":"18.12","data":"Database SQL dump file (wp_term_taxonomy.sql) size: 1 KB"}
{"event":"sqlSize","time":1611148751,"u":"26","run":"0.16","mem":"18.12","data":"1026"}
{"event":"details","time":1611148751,"u":"26","run":"0.16","mem":"18.12","data":"About to flush..."}
{"event":"details","time":1611148751,"u":"26","run":"0.16","mem":"18.12","data":"Dumping database table `wp_revslider_layer_animations_bkp`. Max rows per select: 1000. Starting at row `0`."}
{"event":"startTableDump","time":1611148751,"u":"26","run":"0.16","mem":"18.12","data":"wp_revslider_layer_animations_bkp"}
{"event":"details","time":1611148751,"u":"26","run":"0.16","mem":"18.12","data":"SQL dump file `\/var\/www\/html\/wp-content\/uploads\/backupbuddy_temp\/yvnfo9ar7a\/wp_revslider_layer_animations_bkp.sql`."}
{"event":"details","time":1611148751,"u":"26","run":"0.16","mem":"18.12","data":"Database max execution time chunking disabled based on -1 passed."}
{"event":"sqlFile","time":1611148751,"u":"26","run":"0.16","mem":"18.12","data":"wp_revslider_layer_animations_bkp.sql"}
{"event":"details","time":1611148751,"u":"26","run":"0.16","mem":"18.11","data":"Got `0` rows from `wp_revslider_layer_animations_bkp` of `1000` max."}
{"event":"details","time":1611148751,"u":"26","run":"0.16","mem":"18.12","data":"Dumped `0` rows total from `wp_revslider_layer_animations_bkp`. No rows remain."}
{"event":"details","time":1611148751,"u":"26","run":"0.16","mem":"18.12","data":"Pinging mysqli."}
{"event":"details","time":1611148751,"u":"26","run":"0.16","mem":"18.12","data":"Database Server connection status verified."}
{"event":"details","time":1611148751,"u":"26","run":"0.17","mem":"18.12","data":"Finished dumping database table `wp_revslider_layer_animations_bkp`."}
{"event":"finishTableDump","time":1611148751,"u":"26","run":"0.17","mem":"18.12","data":"wp_revslider_layer_animations_bkp"}
{"event":"details","time":1611148751,"u":"26","run":"0.17","mem":"18.12","data":"Database SQL dump file (wp_revslider_layer_animations_bkp.sql) size: 483 Bytes"}
{"event":"sqlSize","time":1611148751,"u":"26","run":"0.17","mem":"18.12","data":"483"}
{"event":"details","time":1611148751,"u":"26","run":"0.17","mem":"18.12","data":"About to flush..."}
{"event":"details","time":1611148751,"u":"26","run":"0.17","mem":"18.12","data":"Dumping database table `wp_revslider_css`. Max rows per select: 1000. Starting at row `0`."}
{"event":"startTableDump","time":1611148751,"u":"26","run":"0.17","mem":"18.12","data":"wp_revslider_css"}
{"event":"details","time":1611148751,"u":"26","run":"0.17","mem":"18.12","data":"SQL dump file `\/var\/www\/html\/wp-content\/uploads\/backupbuddy_temp\/yvnfo9ar7a\/wp_revslider_css.sql`."}
{"event":"details","time":1611148751,"u":"26","run":"0.17","mem":"18.12","data":"Database max execution time chunking disabled based on -1 passed."}
{"event":"sqlFile","time":1611148751,"u":"26","run":"0.17","mem":"18.12","data":"wp_revslider_css.sql"}
{"event":"details","time":1611148751,"u":"26","run":"0.17","mem":"18.41","data":"Got `109` rows from `wp_revslider_css` of `1000` max."}
{"event":"details","time":1611148751,"u":"26","run":"0.17","mem":"18.42","data":"Dumped `109` rows total from `wp_revslider_css`. No rows remain."}
{"event":"details","time":1611148751,"u":"26","run":"0.17","mem":"18.42","data":"Pinging mysqli."}
{"event":"details","time":1611148751,"u":"26","run":"0.17","mem":"18.42","data":"Database Server connection status verified."}
{"event":"details","time":1611148751,"u":"26","run":"0.17","mem":"18.42","data":"Finished dumping database table `wp_revslider_css`."}
{"event":"finishTableDump","time":1611148751,"u":"26","run":"0.17","mem":"18.42","data":"wp_revslider_css"}
{"event":"details","time":1611148751,"u":"26","run":"0.17","mem":"18.42","data":"Database SQL dump file (wp_revslider_css.sql) size: 110 KB"}
{"event":"sqlSize","time":1611148751,"u":"26","run":"0.17","mem":"18.42","data":"112837"}
{"event":"details","time":1611148751,"u":"26","run":"0.17","mem":"18.42","data":"About to flush..."}
{"event":"details","time":1611148751,"u":"26","run":"0.17","mem":"18.42","data":"Dumping database table `wp_term_relationships`. Max rows per select: 1000. Starting at row `0`."}
{"event":"startTableDump","time":1611148751,"u":"26","run":"0.17","mem":"18.42","data":"wp_term_relationships"}
{"event":"details","time":1611148751,"u":"26","run":"0.17","mem":"18.42","data":"SQL dump file `\/var\/www\/html\/wp-content\/uploads\/backupbuddy_temp\/yvnfo9ar7a\/wp_term_relationships.sql`."}
{"event":"details","time":1611148751,"u":"26","run":"0.17","mem":"18.42","data":"Database max execution time chunking disabled based on -1 passed."}
{"event":"sqlFile","time":1611148751,"u":"26","run":"0.17","mem":"18.42","data":"wp_term_relationships.sql"}
{"event":"details","time":1611148751,"u":"26","run":"0.17","mem":"18.13","data":"Got `13` rows from `wp_term_relationships` of `1000` max."}
{"event":"details","time":1611148751,"u":"26","run":"0.17","mem":"18.13","data":"Dumped `13` rows total from `wp_term_relationships`. No rows remain."}
{"event":"details","time":1611148751,"u":"26","run":"0.17","mem":"18.13","data":"Pinging mysqli."}
{"event":"details","time":1611148751,"u":"26","run":"0.17","mem":"18.13","data":"Database Server connection status verified."}
{"event":"details","time":1611148751,"u":"26","run":"0.17","mem":"18.13","data":"Finished dumping database table `wp_term_relationships`."}
{"event":"finishTableDump","time":1611148751,"u":"27","run":"0.17","mem":"18.13","data":"wp_term_relationships"}
{"event":"details","time":1611148751,"u":"27","run":"0.17","mem":"18.13","data":"Database SQL dump file (wp_term_relationships.sql) size: 1 KB"}
{"event":"sqlSize","time":1611148751,"u":"27","run":"0.17","mem":"18.13","data":"1363"}
{"event":"details","time":1611148751,"u":"27","run":"0.17","mem":"18.13","data":"About to flush..."}
{"event":"details","time":1611148751,"u":"27","run":"0.17","mem":"18.13","data":"Dumping database table `wp_revslider_slides`. Max rows per select: 1000. Starting at row `0`."}
{"event":"startTableDump","time":1611148751,"u":"27","run":"0.17","mem":"18.13","data":"wp_revslider_slides"}
{"event":"details","time":1611148751,"u":"27","run":"0.17","mem":"18.13","data":"SQL dump file `\/var\/www\/html\/wp-content\/uploads\/backupbuddy_temp\/yvnfo9ar7a\/wp_revslider_slides.sql`."}
{"event":"details","time":1611148751,"u":"27","run":"0.17","mem":"18.13","data":"Database max execution time chunking disabled based on -1 passed."}
{"event":"sqlFile","time":1611148751,"u":"27","run":"0.17","mem":"18.13","data":"wp_revslider_slides.sql"}
{"event":"details","time":1611148751,"u":"27","run":"0.17","mem":"18.12","data":"Got `1` rows from `wp_revslider_slides` of `1000` max."}
{"event":"details","time":1611148751,"u":"27","run":"0.17","mem":"18.12","data":"Dumped `1` rows total from `wp_revslider_slides`. No rows remain."}
{"event":"details","time":1611148751,"u":"27","run":"0.17","mem":"18.12","data":"Pinging mysqli."}
{"event":"details","time":1611148751,"u":"27","run":"0.17","mem":"18.12","data":"Database Server connection status verified."}
{"event":"details","time":1611148751,"u":"27","run":"0.17","mem":"18.12","data":"Finished dumping database table `wp_revslider_slides`."}
{"event":"finishTableDump","time":1611148751,"u":"27","run":"0.17","mem":"18.12","data":"wp_revslider_slides"}
{"event":"details","time":1611148751,"u":"27","run":"0.17","mem":"18.12","data":"Database SQL dump file (wp_revslider_slides.sql) size: 4 KB"}
{"event":"sqlSize","time":1611148751,"u":"27","run":"0.17","mem":"18.12","data":"3948"}
{"event":"details","time":1611148751,"u":"27","run":"0.17","mem":"18.12","data":"About to flush..."}
{"event":"details","time":1611148751,"u":"27","run":"0.17","mem":"18.12","data":"Dumping database table `wp_comments`. Max rows per select: 1000. Starting at row `0`."}
{"event":"startTableDump","time":1611148751,"u":"27","run":"0.17","mem":"18.12","data":"wp_comments"}
{"event":"details","time":1611148751,"u":"27","run":"0.17","mem":"18.12","data":"SQL dump file `\/var\/www\/html\/wp-content\/uploads\/backupbuddy_temp\/yvnfo9ar7a\/wp_comments.sql`."}
{"event":"details","time":1611148751,"u":"27","run":"0.17","mem":"18.12","data":"Database max execution time chunking disabled based on -1 passed."}
{"event":"sqlFile","time":1611148751,"u":"27","run":"0.17","mem":"18.12","data":"wp_comments.sql"}
{"event":"details","time":1611148751,"u":"27","run":"0.17","mem":"18.12","data":"Got `1` rows from `wp_comments` of `1000` max."}
{"event":"details","time":1611148751,"u":"27","run":"0.17","mem":"18.14","data":"Dumped `1` rows total from `wp_comments`. No rows remain."}
{"event":"details","time":1611148751,"u":"27","run":"0.17","mem":"18.14","data":"Pinging mysqli."}
{"event":"details","time":1611148751,"u":"27","run":"0.17","mem":"18.14","data":"Database Server connection status verified."}
{"event":"details","time":1611148751,"u":"27","run":"0.17","mem":"18.13","data":"Finished dumping database table `wp_comments`."}
{"event":"finishTableDump","time":1611148751,"u":"27","run":"0.17","mem":"18.13","data":"wp_comments"}
{"event":"details","time":1611148751,"u":"27","run":"0.17","mem":"18.13","data":"Database SQL dump file (wp_comments.sql) size: 2 KB"}
{"event":"sqlSize","time":1611148751,"u":"27","run":"0.17","mem":"18.13","data":"2069"}
{"event":"details","time":1611148751,"u":"27","run":"0.17","mem":"18.13","data":"About to flush..."}
{"event":"details","time":1611148751,"u":"27","run":"0.17","mem":"18.14","data":"Dumping database table `wp_revslider_static_slides`. Max rows per select: 1000. Starting at row `0`."}
{"event":"startTableDump","time":1611148751,"u":"27","run":"0.17","mem":"18.13","data":"wp_revslider_static_slides"}
{"event":"details","time":1611148751,"u":"27","run":"0.17","mem":"18.14","data":"SQL dump file `\/var\/www\/html\/wp-content\/uploads\/backupbuddy_temp\/yvnfo9ar7a\/wp_revslider_static_slides.sql`."}
{"event":"details","time":1611148751,"u":"27","run":"0.17","mem":"18.13","data":"Database max execution time chunking disabled based on -1 passed."}
{"event":"sqlFile","time":1611148751,"u":"27","run":"0.17","mem":"18.14","data":"wp_revslider_static_slides.sql"}
{"event":"details","time":1611148751,"u":"27","run":"0.18","mem":"18.12","data":"Got `1` rows from `wp_revslider_static_slides` of `1000` max."}
{"event":"details","time":1611148751,"u":"27","run":"0.18","mem":"18.12","data":"Dumped `1` rows total from `wp_revslider_static_slides`. No rows remain."}
{"event":"details","time":1611148751,"u":"27","run":"0.18","mem":"18.12","data":"Pinging mysqli."}
{"event":"details","time":1611148751,"u":"27","run":"0.18","mem":"18.12","data":"Database Server connection status verified."}
{"event":"details","time":1611148751,"u":"27","run":"0.18","mem":"18.12","data":"Finished dumping database table `wp_revslider_static_slides`."}
{"event":"finishTableDump","time":1611148751,"u":"27","run":"0.18","mem":"18.12","data":"wp_revslider_static_slides"}
{"event":"details","time":1611148751,"u":"27","run":"0.18","mem":"18.12","data":"Database SQL dump file (wp_revslider_static_slides.sql) size: 601 Bytes"}
{"event":"sqlSize","time":1611148751,"u":"27","run":"0.18","mem":"18.12","data":"601"}
{"event":"details","time":1611148751,"u":"27","run":"0.18","mem":"18.12","data":"About to flush..."}
{"event":"details","time":1611148751,"u":"27","run":"0.18","mem":"18.12","data":"Dumping database table `wp_revslider_sliders_bkp`. Max rows per select: 1000. Starting at row `0`."}
{"event":"startTableDump","time":1611148751,"u":"27","run":"0.18","mem":"18.12","data":"wp_revslider_sliders_bkp"}
{"event":"details","time":1611148751,"u":"27","run":"0.18","mem":"18.12","data":"SQL dump file `\/var\/www\/html\/wp-content\/uploads\/backupbuddy_temp\/yvnfo9ar7a\/wp_revslider_sliders_bkp.sql`."}
{"event":"details","time":1611148751,"u":"27","run":"0.18","mem":"18.12","data":"Database max execution time chunking disabled based on -1 passed."}
{"event":"sqlFile","time":1611148751,"u":"27","run":"0.18","mem":"18.12","data":"wp_revslider_sliders_bkp.sql"}
{"event":"details","time":1611148751,"u":"27","run":"0.18","mem":"18.11","data":"Got `0` rows from `wp_revslider_sliders_bkp` of `1000` max."}
{"event":"details","time":1611148751,"u":"27","run":"0.18","mem":"18.12","data":"Dumped `0` rows total from `wp_revslider_sliders_bkp`. No rows remain."}
{"event":"details","time":1611148751,"u":"27","run":"0.18","mem":"18.12","data":"Pinging mysqli."}
{"event":"details","time":1611148751,"u":"27","run":"0.18","mem":"18.12","data":"Database Server connection status verified."}
{"event":"details","time":1611148751,"u":"27","run":"0.18","mem":"18.12","data":"Finished dumping database table `wp_revslider_sliders_bkp`."}
{"event":"finishTableDump","time":1611148751,"u":"27","run":"0.18","mem":"18.12","data":"wp_revslider_sliders_bkp"}
{"event":"details","time":1611148751,"u":"27","run":"0.18","mem":"18.12","data":"Database SQL dump file (wp_revslider_sliders_bkp.sql) size: 537 Bytes"}
{"event":"sqlSize","time":1611148751,"u":"27","run":"0.18","mem":"18.12","data":"537"}
{"event":"details","time":1611148751,"u":"27","run":"0.18","mem":"18.12","data":"About to flush..."}
{"event":"details","time":1611148751,"u":"27","run":"0.18","mem":"18.12","data":"Dumping database table `wp_links`. Max rows per select: 1000. Starting at row `0`."}
{"event":"startTableDump","time":1611148751,"u":"27","run":"0.18","mem":"18.12","data":"wp_links"}
{"event":"details","time":1611148751,"u":"27","run":"0.18","mem":"18.12","data":"SQL dump file `\/var\/www\/html\/wp-content\/uploads\/backupbuddy_temp\/yvnfo9ar7a\/wp_links.sql`."}
{"event":"details","time":1611148751,"u":"27","run":"0.18","mem":"18.12","data":"Database max execution time chunking disabled based on -1 passed."}
{"event":"sqlFile","time":1611148751,"u":"27","run":"0.18","mem":"18.12","data":"wp_links.sql"}
{"event":"details","time":1611148751,"u":"27","run":"0.18","mem":"18.11","data":"Got `0` rows from `wp_links` of `1000` max."}
{"event":"details","time":1611148751,"u":"27","run":"0.18","mem":"18.13","data":"Dumped `0` rows total from `wp_links`. No rows remain."}
{"event":"details","time":1611148751,"u":"27","run":"0.18","mem":"18.13","data":"Pinging mysqli."}
{"event":"details","time":1611148751,"u":"27","run":"0.18","mem":"18.13","data":"Database Server connection status verified."}
{"event":"details","time":1611148751,"u":"27","run":"0.18","mem":"18.13","data":"Finished dumping database table `wp_links`."}
{"event":"finishTableDump","time":1611148751,"u":"27","run":"0.18","mem":"18.13","data":"wp_links"}
{"event":"details","time":1611148751,"u":"27","run":"0.18","mem":"18.13","data":"Database SQL dump file (wp_links.sql) size: 1 KB"}
{"event":"sqlSize","time":1611148751,"u":"27","run":"0.18","mem":"18.13","data":"1236"}
{"event":"details","time":1611148751,"u":"27","run":"0.18","mem":"18.13","data":"About to flush..."}
{"event":"details","time":1611148751,"u":"27","run":"0.18","mem":"18.13","data":"Finished PHP based SQL dump method. Ran for 0.065 sec."}
{"event":"details","time":1611148751,"u":"27","run":"0.18","mem":"18.13","data":"mysqlbuddy: Dump method `php` completed successfully."}
{"event":"milestone","time":1611148751,"u":"27","run":"0.18","mem":"18.13","data":"finish_database"}
{"event":"message","time":1611148751,"u":"27","run":"0.18","mem":"18.13","data":"Database dump procedure succeeded."}
{"event":"details","time":1611148751,"u":"27","run":"0.18","mem":"18.15","data":"Fileoptions `yvnfo9ar7a.txt` saved. 8496 bytes written."}
{"event":"details","time":1611148751,"u":"27","run":"0.18","mem":"18.13","data":"Finished function `backup_create_database_dump`. Peak memory usage: 24.514 MB with BackupBuddy v8.7.2.0"}
{"event":"finishFunction","time":1611148751,"u":"27","run":"0.18","mem":"18.13","data":"{\"function\":\"backup_create_database_dump\"}"}
{"event":"details","time":1611148751,"u":"27","run":"0.18","mem":"18.13","data":"-----"}
{"event":"details","time":1611148751,"u":"27","run":"0.18","mem":"18.13","data":"Classic mode; skipping cron & triggering next step."}
{"event":"details","time":1611148751,"u":"27","run":"0.18","mem":"18.15","data":"Fileoptions `yvnfo9ar7a.txt` saved. 8520 bytes written."}
{"event":"details","time":1611148751,"u":"27","run":"0.18","mem":"18.13","data":"Found next step to run: `backup_create_database_dump`."}
{"event":"details","time":1611148751,"u":"27","run":"0.18","mem":"18.13","data":"Peak memory usage: 24.514 MB"}
{"event":"details","time":1611148751,"u":"27","run":"0.18","mem":"18.13","data":"-----"}
{"event":"details","time":1611148751,"u":"27","run":"0.18","mem":"18.13","data":"Starting step function `backup_create_database_dump`. Attempt #1."}
{"event":"startFunction","time":1611148751,"u":"27","run":"0.18","mem":"18.13","data":"{\"function\":\"backup_create_database_dump\",\"title\":\"Backing up database\"}"}
{"event":"milestone","time":1611148751,"u":"27","run":"0.18","mem":"18.13","data":"start_database"}
{"event":"message","time":1611148751,"u":"27","run":"0.18","mem":"18.13","data":"Starting database backup process."}
{"event":"details","time":1611148751,"u":"27","run":"0.18","mem":"18.13","data":"PHP-based mysqldump (if applicable) max rows per select set to 1000."}
{"event":"details","time":1611148751,"u":"27","run":"0.18","mem":"18.13","data":"Database host for dumping: `mysql`"}
{"event":"details","time":1611148751,"u":"27","run":"0.18","mem":"18.13","data":"Loading mysqlbuddy library."}
{"event":"details","time":1611148751,"u":"27","run":"0.18","mem":"18.13","data":"Mysql server default directories: `\/usr\/bin\/,\/usr\/bin\/mysql\/,\/usr\/local\/bin\/`"}
{"event":"details","time":1611148751,"u":"28","run":"0.18","mem":"18.13","data":"mysqlbuddy: Force method of `1` passed."}
{"event":"message","time":1611148751,"u":"28","run":"0.18","mem":"18.13","data":"mysqlbuddy: Settings overriding automatic detection of available database dump methods. Using forced override methods: `php`."}
{"event":"message","time":1611148751,"u":"28","run":"0.18","mem":"18.13","data":"mysqlbuddy: Detected database dump methods: `php`."}
{"event":"details","time":1611148751,"u":"28","run":"0.18","mem":"18.13","data":"Max execution time chunking disabled by passing -1 to constructor. No chunking will be used for the database dump."}
{"event":"details","time":1611148751,"u":"28","run":"0.18","mem":"18.13","data":"This server's mariadb version: `10.5.8`."}
{"event":"milestone","time":1611148751,"u":"28","run":"0.18","mem":"18.12","data":"start_database"}
{"event":"message","time":1611148751,"u":"28","run":"0.18","mem":"18.12","data":"Starting database dump procedure."}
{"event":"details","time":1611148751,"u":"28","run":"0.18","mem":"18.13","data":"mysqlbuddy: Output directory: `\/var\/www\/html\/wp-content\/uploads\/backupbuddy_temp\/yvnfo9ar7a\/`."}
{"event":"details","time":1611148751,"u":"28","run":"0.18","mem":"18.12","data":"Dumping single table `wp_posts`."}
{"event":"details","time":1611148751,"u":"28","run":"0.18","mem":"18.12","data":"Preparing to dump using available method(s) by priority. Methods: `php`"}
{"event":"details","time":1611148751,"u":"28","run":"0.18","mem":"18.12","data":"mysqlbuddy: Attempting dump method `php`."}
{"event":"details","time":1611148751,"u":"28","run":"0.18","mem":"18.13","data":"Loading DB kicker for use leter in case database goes away."}
{"event":"details","time":1611148751,"u":"28","run":"0.18","mem":"18.13","data":"Database kicker loaded. Database object class: `wpdb` with database of type `mysqli`."}
{"event":"details","time":1611148751,"u":"28","run":"0.18","mem":"18.13","data":"Dumping database table `wp_posts`. Max rows per select: 1000. Starting at row `0`."}
{"event":"startTableDump","time":1611148751,"u":"28","run":"0.18","mem":"18.13","data":"wp_posts"}
{"event":"details","time":1611148751,"u":"28","run":"0.18","mem":"18.13","data":"SQL dump file `\/var\/www\/html\/wp-content\/uploads\/backupbuddy_temp\/yvnfo9ar7a\/wp_posts.sql`."}
{"event":"details","time":1611148751,"u":"28","run":"0.18","mem":"18.13","data":"Database max execution time chunking disabled based on -1 passed."}
{"event":"sqlFile","time":1611148751,"u":"28","run":"0.18","mem":"18.13","data":"wp_posts.sql"}
{"event":"details","time":1611148751,"u":"28","run":"0.19","mem":"20.56","data":"Got `180` rows from `wp_posts` of `1000` max."}
{"event":"details","time":1611148751,"u":"29","run":"0.20","mem":"20.59","data":"Dumped `180` rows total from `wp_posts`. No rows remain."}
{"event":"details","time":1611148751,"u":"29","run":"0.20","mem":"20.59","data":"Pinging mysqli."}
{"event":"details","time":1611148751,"u":"29","run":"0.20","mem":"20.59","data":"Database Server connection status verified."}
{"event":"details","time":1611148751,"u":"29","run":"0.20","mem":"20.59","data":"Finished dumping database table `wp_posts`."}
{"event":"finishTableDump","time":1611148751,"u":"29","run":"0.20","mem":"20.59","data":"wp_posts"}
{"event":"details","time":1611148751,"u":"29","run":"0.20","mem":"20.60","data":"Database SQL dump file (wp_posts.sql) size: 730 KB"}
{"event":"sqlSize","time":1611148751,"u":"29","run":"0.20","mem":"20.59","data":"747675"}
{"event":"details","time":1611148751,"u":"29","run":"0.20","mem":"20.59","data":"About to flush..."}
{"event":"details","time":1611148751,"u":"29","run":"0.20","mem":"20.60","data":"Finished PHP based SQL dump method. Ran for 0.014 sec."}
{"event":"details","time":1611148751,"u":"29","run":"0.20","mem":"20.35","data":"mysqlbuddy: Dump method `php` completed successfully."}
{"event":"milestone","time":1611148751,"u":"29","run":"0.20","mem":"20.35","data":"finish_database"}
{"event":"message","time":1611148751,"u":"29","run":"0.20","mem":"20.35","data":"Database dump procedure succeeded."}
{"event":"details","time":1611148751,"u":"29","run":"0.20","mem":"20.37","data":"Fileoptions `yvnfo9ar7a.txt` saved. 8540 bytes written."}
{"event":"details","time":1611148751,"u":"29","run":"0.20","mem":"20.35","data":"Finished function `backup_create_database_dump`. Peak memory usage: 24.514 MB with BackupBuddy v8.7.2.0"}
{"event":"finishFunction","time":1611148751,"u":"29","run":"0.20","mem":"20.35","data":"{\"function\":\"backup_create_database_dump\"}"}
{"event":"details","time":1611148751,"u":"29","run":"0.20","mem":"20.35","data":"-----"}
{"event":"details","time":1611148751,"u":"29","run":"0.20","mem":"20.35","data":"Classic mode; skipping cron & triggering next step."}
{"event":"details","time":1611148751,"u":"29","run":"0.20","mem":"20.37","data":"Fileoptions `yvnfo9ar7a.txt` saved. 8560 bytes written."}
{"event":"details","time":1611148751,"u":"29","run":"0.20","mem":"20.35","data":"Found next step to run: `backup_create_database_dump`."}
{"event":"details","time":1611148751,"u":"29","run":"0.20","mem":"20.35","data":"Peak memory usage: 24.514 MB"}
{"event":"details","time":1611148751,"u":"29","run":"0.20","mem":"20.35","data":"-----"}
{"event":"details","time":1611148751,"u":"29","run":"0.20","mem":"20.35","data":"Starting step function `backup_create_database_dump`. Attempt #1."}
{"event":"startFunction","time":1611148751,"u":"29","run":"0.20","mem":"20.35","data":"{\"function\":\"backup_create_database_dump\",\"title\":\"Backing up database\"}"}
{"event":"milestone","time":1611148751,"u":"29","run":"0.20","mem":"20.35","data":"start_database"}
{"event":"message","time":1611148751,"u":"29","run":"0.20","mem":"20.35","data":"Starting database backup process."}
{"event":"details","time":1611148751,"u":"29","run":"0.20","mem":"20.35","data":"PHP-based mysqldump (if applicable) max rows per select set to 1000."}
{"event":"details","time":1611148751,"u":"29","run":"0.20","mem":"20.35","data":"Database host for dumping: `mysql`"}
{"event":"details","time":1611148751,"u":"29","run":"0.20","mem":"20.35","data":"Loading mysqlbuddy library."}
{"event":"details","time":1611148751,"u":"29","run":"0.20","mem":"20.35","data":"Mysql server default directories: `\/usr\/bin\/,\/usr\/bin\/mysql\/,\/usr\/local\/bin\/`"}
{"event":"details","time":1611148751,"u":"29","run":"0.20","mem":"20.35","data":"mysqlbuddy: Force method of `1` passed."}
{"event":"message","time":1611148751,"u":"29","run":"0.20","mem":"20.35","data":"mysqlbuddy: Settings overriding automatic detection of available database dump methods. Using forced override methods: `php`."}
{"event":"message","time":1611148751,"u":"29","run":"0.20","mem":"20.35","data":"mysqlbuddy: Detected database dump methods: `php`."}
{"event":"details","time":1611148751,"u":"29","run":"0.20","mem":"20.35","data":"Max execution time chunking disabled by passing -1 to constructor. No chunking will be used for the database dump."}
{"event":"details","time":1611148751,"u":"29","run":"0.20","mem":"20.35","data":"This server's mariadb version: `10.5.8`."}
{"event":"milestone","time":1611148751,"u":"29","run":"0.20","mem":"20.35","data":"start_database"}
{"event":"message","time":1611148751,"u":"29","run":"0.20","mem":"20.35","data":"Starting database dump procedure."}
{"event":"details","time":1611148751,"u":"29","run":"0.20","mem":"20.35","data":"mysqlbuddy: Output directory: `\/var\/www\/html\/wp-content\/uploads\/backupbuddy_temp\/yvnfo9ar7a\/`."}
{"event":"details","time":1611148751,"u":"29","run":"0.20","mem":"20.35","data":"Dumping single table `wp_postmeta`."}
{"event":"details","time":1611148751,"u":"29","run":"0.20","mem":"20.35","data":"Preparing to dump using available method(s) by priority. Methods: `php`"}
{"event":"details","time":1611148751,"u":"29","run":"0.20","mem":"20.35","data":"mysqlbuddy: Attempting dump method `php`."}
{"event":"details","time":1611148751,"u":"29","run":"0.20","mem":"20.35","data":"Loading DB kicker for use leter in case database goes away."}
{"event":"details","time":1611148751,"u":"29","run":"0.20","mem":"20.35","data":"Database kicker loaded. Database object class: `wpdb` with database of type `mysqli`."}
{"event":"details","time":1611148751,"u":"29","run":"0.20","mem":"20.35","data":"Dumping database table `wp_postmeta`. Max rows per select: 1000. Starting at row `0`."}
{"event":"startTableDump","time":1611148751,"u":"29","run":"0.20","mem":"20.35","data":"wp_postmeta"}
{"event":"details","time":1611148751,"u":"29","run":"0.20","mem":"20.35","data":"SQL dump file `\/var\/www\/html\/wp-content\/uploads\/backupbuddy_temp\/yvnfo9ar7a\/wp_postmeta.sql`."}
{"event":"details","time":1611148751,"u":"29","run":"0.20","mem":"20.35","data":"Database max execution time chunking disabled based on -1 passed."}
{"event":"sqlFile","time":1611148751,"u":"29","run":"0.20","mem":"20.35","data":"wp_postmeta.sql"}
{"event":"details","time":1611148751,"u":"29","run":"0.20","mem":"18.61","data":"Got `309` rows from `wp_postmeta` of `1000` max."}
{"event":"details","time":1611148751,"u":"30","run":"0.20","mem":"18.61","data":"Dumped `309` rows total from `wp_postmeta`. No rows remain."}
{"event":"details","time":1611148751,"u":"30","run":"0.20","mem":"18.61","data":"Pinging mysqli."}
{"event":"details","time":1611148751,"u":"30","run":"0.20","mem":"18.61","data":"Database Server connection status verified."}
{"event":"details","time":1611148751,"u":"30","run":"0.20","mem":"18.61","data":"Finished dumping database table `wp_postmeta`."}
{"event":"finishTableDump","time":1611148751,"u":"30","run":"0.20","mem":"18.61","data":"wp_postmeta"}
{"event":"details","time":1611148751,"u":"30","run":"0.20","mem":"18.61","data":"Database SQL dump file (wp_postmeta.sql) size: 99 KB"}
{"event":"sqlSize","time":1611148751,"u":"30","run":"0.20","mem":"18.61","data":"100976"}
{"event":"details","time":1611148751,"u":"30","run":"0.20","mem":"18.61","data":"About to flush..."}
{"event":"details","time":1611148751,"u":"30","run":"0.20","mem":"18.61","data":"Finished PHP based SQL dump method. Ran for 0.005 sec."}
{"event":"details","time":1611148751,"u":"30","run":"0.20","mem":"18.48","data":"mysqlbuddy: Dump method `php` completed successfully."}
{"event":"milestone","time":1611148751,"u":"30","run":"0.20","mem":"18.48","data":"finish_database"}
{"event":"message","time":1611148751,"u":"30","run":"0.20","mem":"18.48","data":"Database dump procedure succeeded."}
{"event":"details","time":1611148751,"u":"30","run":"0.20","mem":"18.50","data":"Fileoptions `yvnfo9ar7a.txt` saved. 8584 bytes written."}
{"event":"details","time":1611148751,"u":"30","run":"0.20","mem":"18.48","data":"Finished function `backup_create_database_dump`. Peak memory usage: 24.514 MB with BackupBuddy v8.7.2.0"}
{"event":"finishFunction","time":1611148751,"u":"30","run":"0.20","mem":"18.48","data":"{\"function\":\"backup_create_database_dump\"}"}
{"event":"details","time":1611148751,"u":"30","run":"0.20","mem":"18.48","data":"-----"}
{"event":"details","time":1611148751,"u":"30","run":"0.20","mem":"18.48","data":"Classic mode; skipping cron & triggering next step."}
{"event":"details","time":1611148751,"u":"30","run":"0.20","mem":"18.50","data":"Fileoptions `yvnfo9ar7a.txt` saved. 8604 bytes written."}
{"event":"details","time":1611148751,"u":"30","run":"0.21","mem":"18.48","data":"Found next step to run: `backup_zip_files`."}
{"event":"details","time":1611148751,"u":"30","run":"0.21","mem":"18.48","data":"Peak memory usage: 24.514 MB"}
{"event":"details","time":1611148751,"u":"30","run":"0.21","mem":"18.48","data":"-----"}
{"event":"details","time":1611148751,"u":"30","run":"0.21","mem":"18.48","data":"Starting step function `backup_zip_files`. Attempt #1."}
{"event":"startFunction","time":1611148751,"u":"30","run":"0.21","mem":"18.48","data":"{\"function\":\"backup_zip_files\",\"title\":\"Zipping up files\"}"}
{"event":"milestone","time":1611148751,"u":"30","run":"0.21","mem":"18.48","data":"start_files"}
{"event":"details","time":1611148751,"u":"30","run":"0.21","mem":"18.48","data":"Backup root: `\/var\/www\/html\/wp-content\/uploads\/backupbuddy_temp\/yvnfo9ar7a\/`."}
{"event":"details","time":1611148751,"u":"30","run":"0.21","mem":"18.48","data":"Saving meta data to zip comment."}
{"event":"details","time":1611148751,"u":"30","run":"0.21","mem":"18.11","data":"Zip process reported: Initializing zip archive file: \/var\/www\/html\/wp-content\/uploads\/backupbuddy_backups\/temp_zip_yvnfo9ar7a\/backup-hellosaks_com-2021_01_20-01_19pm-db-yvnfo9ar7a.zip"}
{"event":"details","time":1611148751,"u":"30","run":"0.21","mem":"18.11","data":"Zip process reported: Initialized zip archive file"}
{"event":"details","time":1611148751,"u":"30","run":"0.21","mem":"18.12","data":"PCLZip class not found. Attempting to load from `\/var\/www\/html\/wp-admin\/includes\/class-pclzip.php`."}
{"event":"details","time":1611148751,"u":"30","run":"0.21","mem":"18.12","data":"PCLZIP_TEMPORARY_DIR defined: `\/var\/www\/html\/wp-content\/uploads\/backupbuddy_backups\/temp_zip_yvnfo9ar7a\/`"}
{"event":"details","time":1611148751,"u":"30","run":"0.21","mem":"18.12","data":"Verifying initialized zip archive file exists."}
{"event":"details","time":1611148751,"u":"30","run":"0.21","mem":"18.12","data":"File found (ziparchive): .itbub"}
{"event":"details","time":1611148751,"u":"30","run":"0.21","mem":"18.12","data":"Verified initialized zip archive file exists."}
{"event":"message","time":1611148751,"u":"30","run":"0.21","mem":"18.12","data":"Running standard ZIP system based on settings."}
{"event":"details","time":1611148751,"u":"30","run":"0.21","mem":"18.12","data":"Running under 64-bit PHP"}
{"event":"details","time":1611148751,"u":"30","run":"0.21","mem":"18.12","data":"Server API: fpm-fcgi"}
{"event":"details","time":1611148751,"u":"30","run":"0.21","mem":"18.12","data":"Using Best Available zip method based on settings."}
{"event":"details","time":1611148751,"u":"30","run":"0.21","mem":"18.12","data":"Creating ZIP file `\/var\/www\/html\/wp-content\/uploads\/backupbuddy_backups\/backup-hellosaks_com-2021_01_20-01_19pm-db-yvnfo9ar7a.zip`. Adding directory `\/var\/www\/html\/wp-content\/uploads\/backupbuddy_temp\/yvnfo9ar7a\/`. Excludes: \/importbuddy\/,\/importbuddy.php,\/.itbub,\/.sucuriquarantine\/,\/wp-content\/uploads\/sucuri\/,\/wp-content\/envato-backups\/,\/wp-content\/backup-db\/,\/wp-snapshots\/,\/wp-content\/ai1wm-backups\/,\/wp-content\/updraft\/,\/wp-content\/mysql.sql,\/wp-content\/uploads\/snapshots\/,\/wp-content\/backups\/,\/wp-content\/cache\/supercache\/,\/wp-content\/wfcache\/,\/wp-content\/wflogs\/,\/wp-content\/cache\/,\/wp-content\/plugins\/wordfence\/tmp\/,\/error_log,\/wp-admin\/error_log,\/logs\/,\/_wpeprivate\/,\/wp-content\/plugins\/wpengine-snapshot\/snapshots\/,\/ics-importer-cache\/,\/gt-cache\/,\/wp-config-sample.php,\/wp-content\/managewp\/,\/wp-content\/upgrade\/,\/wp-content\/uploads\/backupbuddy_backups\/,\/wp-content\/uploads\/pb_backupbuddy\/,\/wp-content\/uploads\/backupbuddy_temp\/eqf3y3dih0\/"}
{"event":"details","time":1611148751,"u":"30","run":"0.21","mem":"18.13","data":"Trying pclzip method for ZIP."}
{"event":"details","time":1611148751,"u":"30","run":"0.21","mem":"18.13","data":"Zip process reported: Temporary working directory available: `\/var\/www\/html\/wp-content\/uploads\/backupbuddy_backups\/temp_zip_yvnfo9ar7a\/`"}
{"event":"message","time":1611148751,"u":"30","run":"0.21","mem":"18.13","data":"Using Compatibility Mode."}
{"event":"message","time":1611148751,"u":"30","run":"0.21","mem":"18.13","data":"If your backup times out in Compatibility Mode try disabling zip compression in Settings."}
{"event":"details","time":1611148751,"u":"30","run":"0.21","mem":"18.14","data":"Calculating directories\/files to exclude from backup (relative to site root)."}
{"event":"details","time":1611148751,"u":"30","run":"0.21","mem":"18.14","data":"Excluding: \/importbuddy\/"}
{"event":"details","time":1611148751,"u":"30","run":"0.21","mem":"18.14","data":"Excluding: \/importbuddy.php"}
{"event":"details","time":1611148751,"u":"30","run":"0.21","mem":"18.14","data":"Excluding: \/.itbub"}
{"event":"details","time":1611148751,"u":"30","run":"0.21","mem":"18.14","data":"Excluding: \/.sucuriquarantine\/"}
{"event":"details","time":1611148751,"u":"30","run":"0.21","mem":"18.14","data":"Excluding: \/wp-content\/uploads\/sucuri\/"}
{"event":"details","time":1611148751,"u":"30","run":"0.21","mem":"18.14","data":"Excluding: \/wp-content\/envato-backups\/"}
{"event":"details","time":1611148751,"u":"30","run":"0.21","mem":"18.14","data":"Excluding: \/wp-content\/backup-db\/"}
{"event":"details","time":1611148751,"u":"30","run":"0.21","mem":"18.14","data":"Excluding: \/wp-snapshots\/"}
{"event":"details","time":1611148751,"u":"30","run":"0.21","mem":"18.14","data":"Excluding: \/wp-content\/ai1wm-backups\/"}
{"event":"details","time":1611148751,"u":"30","run":"0.21","mem":"18.14","data":"Excluding: \/wp-content\/updraft\/"}
{"event":"details","time":1611148751,"u":"30","run":"0.21","mem":"18.14","data":"Excluding: \/wp-content\/mysql.sql"}
{"event":"details","time":1611148751,"u":"30","run":"0.21","mem":"18.14","data":"Excluding: \/wp-content\/uploads\/snapshots\/"}
{"event":"details","time":1611148751,"u":"30","run":"0.21","mem":"18.14","data":"Excluding: \/wp-content\/backups\/"}
{"event":"details","time":1611148751,"u":"30","run":"0.21","mem":"18.14","data":"Excluding: \/wp-content\/cache\/supercache\/"}
{"event":"details","time":1611148751,"u":"30","run":"0.21","mem":"18.14","data":"Excluding: \/wp-content\/wfcache\/"}
{"event":"details","time":1611148751,"u":"30","run":"0.21","mem":"18.14","data":"Excluding: \/wp-content\/wflogs\/"}
{"event":"details","time":1611148751,"u":"30","run":"0.21","mem":"18.14","data":"Excluding: \/wp-content\/cache\/"}
{"event":"details","time":1611148751,"u":"30","run":"0.21","mem":"18.14","data":"Excluding: \/wp-content\/plugins\/wordfence\/tmp\/"}
{"event":"details","time":1611148751,"u":"30","run":"0.21","mem":"18.14","data":"Excluding: \/error_log"}
{"event":"details","time":1611148751,"u":"30","run":"0.21","mem":"18.14","data":"Excluding: \/wp-admin\/error_log"}
{"event":"details","time":1611148751,"u":"30","run":"0.21","mem":"18.14","data":"Excluding: \/logs\/"}
{"event":"details","time":1611148751,"u":"30","run":"0.21","mem":"18.14","data":"Excluding: \/_wpeprivate\/"}
{"event":"details","time":1611148751,"u":"30","run":"0.21","mem":"18.14","data":"Excluding: \/wp-content\/plugins\/wpengine-snapshot\/snapshots\/"}
{"event":"details","time":1611148751,"u":"30","run":"0.21","mem":"18.14","data":"Excluding: \/ics-importer-cache\/"}
{"event":"details","time":1611148751,"u":"30","run":"0.21","mem":"18.14","data":"Excluding: \/gt-cache\/"}
{"event":"details","time":1611148751,"u":"30","run":"0.21","mem":"18.14","data":"Excluding: \/wp-config-sample.php"}
{"event":"details","time":1611148751,"u":"30","run":"0.21","mem":"18.14","data":"Excluding: \/wp-content\/managewp\/"}
{"event":"details","time":1611148751,"u":"30","run":"0.21","mem":"18.14","data":"Excluding: \/wp-content\/upgrade\/"}
{"event":"details","time":1611148751,"u":"30","run":"0.21","mem":"18.14","data":"Excluding: \/wp-content\/uploads\/backupbuddy_backups\/"}
{"event":"details","time":1611148751,"u":"30","run":"0.21","mem":"18.14","data":"Excluding: \/wp-content\/uploads\/pb_backupbuddy\/"}
{"event":"details","time":1611148751,"u":"30","run":"0.21","mem":"18.14","data":"Excluding: \/wp-content\/uploads\/backupbuddy_temp\/eqf3y3dih0\/"}
{"event":"message","time":1611148751,"u":"30","run":"0.21","mem":"18.14","data":"Excluding archives directory and additional directories defined in settings. 31 total."}
{"event":"details","time":1611148751,"u":"30","run":"0.21","mem":"18.14","data":"Zip archive creation compression enabled based on settings."}
{"event":"details","time":1611148751,"u":"30","run":"0.21","mem":"18.14","data":"Zip archive creation symbolic links will be ignored based on settings."}
{"event":"details","time":1611148751,"u":"30","run":"0.21","mem":"18.14","data":"Zip archive creation actionable warnings will be ignored based on settings."}
{"event":"details","time":1611148751,"u":"31","run":"0.21","mem":"18.15","data":"pclzip command arguments: List: \/var\/www\/html\/wp-content\/uploads\/backupbuddy_temp\/...;77003;\/var\/www\/html\/wp-content\/uploads\/backupbuddy_temp\/yvnfo9ar7a\/;77020;5;78003;\u0000lambda_3"}
{"event":"details","time":1611148751,"u":"40","run":"0.30","mem":"18.15","data":"Zip process exit code: 0"}
{"event":"details","time":1611148751,"u":"40","run":"0.30","mem":"18.15","data":"Zip process reported: 0 warnings"}
{"event":"message","time":1611148751,"u":"40","run":"0.30","mem":"18.15","data":"Zip Archive file successfully created with no errors (any actionable warnings ignored by user settings)."}
{"event":"details","time":1611148751,"u":"40","run":"0.30","mem":"18.15","data":"Zip Archive file size: 361344 bytes, owned by user:group 33:33 with permissions 0644"}
{"event":"details","time":1611148751,"u":"40","run":"0.30","mem":"18.14","data":"The pclzip method for ZIP was successful."}
{"event":"details","time":1611148751,"u":"40","run":"0.30","mem":"18.13","data":"Moving Zip Archive file to local archive directory."}
{"event":"details","time":1611148751,"u":"40","run":"0.30","mem":"18.13","data":"Zip Archive file moved to local archive directory."}
{"event":"message","time":1611148751,"u":"40","run":"0.30","mem":"18.13","data":"Backup ZIP file successfully created."}
{"event":"details","time":1611148751,"u":"40","run":"0.30","mem":"18.13","data":"Chmod of ZIP file to 0644 succeeded."}
{"event":"details","time":1611148751,"u":"40","run":"0.30","mem":"18.13","data":"Database kicker loaded. Database object class: `wpdb` with database of type `mysqli`."}
{"event":"details","time":1611148751,"u":"40","run":"0.30","mem":"18.13","data":"Pinging mysqli."}
{"event":"details","time":1611148751,"u":"40","run":"0.31","mem":"18.13","data":"Database Server connection status verified."}
{"event":"details","time":1611148751,"u":"40","run":"0.31","mem":"18.14","data":"Fileoptions `yvnfo9ar7a.txt` saved. 8636 bytes written."}
{"event":"details","time":1611148751,"u":"40","run":"0.31","mem":"18.12","data":"Finished function `backup_zip_files`. Peak memory usage: 24.514 MB with BackupBuddy v8.7.2.0"}
{"event":"finishFunction","time":1611148751,"u":"40","run":"0.31","mem":"18.12","data":"{\"function\":\"backup_zip_files\"}"}
{"event":"details","time":1611148751,"u":"40","run":"0.31","mem":"18.12","data":"-----"}
{"event":"details","time":1611148751,"u":"40","run":"0.31","mem":"18.12","data":"Classic mode; skipping cron & triggering next step."}
{"event":"details","time":1611148751,"u":"40","run":"0.31","mem":"18.14","data":"Fileoptions `yvnfo9ar7a.txt` saved. 8656 bytes written."}
{"event":"details","time":1611148751,"u":"40","run":"0.31","mem":"18.13","data":"Found next step to run: `integrity_check`."}
{"event":"details","time":1611148751,"u":"40","run":"0.31","mem":"18.13","data":"Peak memory usage: 24.514 MB"}
{"event":"details","time":1611148751,"u":"40","run":"0.31","mem":"18.13","data":"-----"}
{"event":"details","time":1611148751,"u":"40","run":"0.31","mem":"18.13","data":"Starting step function `integrity_check`. Attempt #1."}
{"event":"startFunction","time":1611148751,"u":"40","run":"0.31","mem":"18.13","data":"{\"function\":\"integrity_check\",\"title\":\"Verifying backup file integrity\"}"}
{"event":"milestone","time":1611148751,"u":"40","run":"0.31","mem":"18.13","data":"start_integrity"}
{"event":"message","time":1611148751,"u":"40","run":"0.31","mem":"18.13","data":"Scanning and verifying backup file integrity."}
{"event":"details","time":1611148751,"u":"40","run":"0.31","mem":"18.13","data":"Starting integrity check on `\/var\/www\/html\/wp-content\/uploads\/backupbuddy_backups\/backup-hellosaks_com-2021_01_20-01_19pm-db-yvnfo9ar7a.zip`."}
{"event":"details","time":1611148751,"u":"40","run":"0.31","mem":"18.13","data":"Started backup_integrity_check() function for `yvnfo9ar7a` for file `\/var\/www\/html\/wp-content\/uploads\/backupbuddy_backups\/backup-hellosaks_com-2021_01_20-01_19pm-db-yvnfo9ar7a.zip`."}
{"event":"details","time":1611148751,"u":"40","run":"0.31","mem":"18.13","data":"Determining backup type of file `backup-hellosaks_com-2021_01_20-01_19pm-db-yvnfo9ar7a.zip`"}
{"event":"details","time":1611148751,"u":"40","run":"0.31","mem":"18.13","data":"Detecting backup type if possible."}
{"event":"details","time":1611148751,"u":"40","run":"0.31","mem":"18.13","data":"Detected backup type as `db` via filename."}
{"event":"details","time":1611148751,"u":"40","run":"0.31","mem":"18.13","data":"Resetting backup integrity stats for backup with serial `yvnfo9ar7a`."}
{"event":"details","time":1611148751,"u":"40","run":"0.31","mem":"18.13","data":"Verifying comment in zip archive."}
{"event":"details","time":1611148751,"u":"40","run":"0.31","mem":"18.13","data":"ZipArchive retrieved comment in file \/var\/www\/html\/wp-content\/uploads\/backupbuddy_backups\/backup-hellosaks_com-2021_01_20-01_19pm-db-yvnfo9ar7a.zip"}
{"event":"details","time":1611148751,"u":"40","run":"0.31","mem":"18.13","data":"NOTE: It is normal to see several \"File not found\" messages in the next several log lines."}
{"event":"details","time":1611148751,"u":"40","run":"0.31","mem":"18.13","data":"Verifying DAT file in zip archive."}
{"event":"details","time":1611148751,"u":"40","run":"0.31","mem":"18.13","data":"File found (ziparchive): backupbuddy_dat.php"}
{"event":"details","time":1611148751,"u":"40","run":"0.31","mem":"18.13","data":"Verifying database SQL file in zip archive."}
{"event":"details","time":1611148751,"u":"40","run":"0.31","mem":"18.13","data":"BackupBuddy v5.0+ format database detected."}
{"event":"details","time":1611148751,"u":"40","run":"0.31","mem":"18.13","data":"Forcing to a single db_1.sql file was NOT enabled for this backup."}
{"event":"details","time":1611148751,"u":"40","run":"0.31","mem":"18.13","data":"Database-only type backup."}
{"event":"details","time":1611148751,"u":"40","run":"0.31","mem":"18.13","data":"File not found (ziparchive): db_1.sql"}
{"event":"details","time":1611148751,"u":"40","run":"0.31","mem":"18.13","data":"PHP based database dump type."}
{"event":"details","time":1611148751,"u":"40","run":"0.31","mem":"18.13","data":"File found (ziparchive): wp_commentmeta.sql"}
{"event":"details","time":1611148751,"u":"40","run":"0.31","mem":"18.13","data":"File found (ziparchive): wp_comments.sql"}
{"event":"details","time":1611148751,"u":"40","run":"0.31","mem":"18.13","data":"File found (ziparchive): wp_links.sql"}
{"event":"details","time":1611148751,"u":"40","run":"0.31","mem":"18.13","data":"File found (ziparchive): wp_options.sql"}
{"event":"details","time":1611148751,"u":"40","run":"0.31","mem":"18.13","data":"File found (ziparchive): wp_postmeta.sql"}
{"event":"details","time":1611148751,"u":"40","run":"0.31","mem":"18.13","data":"File found (ziparchive): wp_posts.sql"}
{"event":"details","time":1611148751,"u":"40","run":"0.31","mem":"18.13","data":"File found (ziparchive): wp_revslider_css.sql"}
{"event":"details","time":1611148751,"u":"40","run":"0.31","mem":"18.13","data":"File found (ziparchive): wp_revslider_css_bkp.sql"}
{"event":"details","time":1611148751,"u":"41","run":"0.31","mem":"18.13","data":"File found (ziparchive): wp_revslider_layer_animations.sql"}
{"event":"details","time":1611148751,"u":"41","run":"0.31","mem":"18.13","data":"File found (ziparchive): wp_revslider_layer_animations_bkp.sql"}
{"event":"details","time":1611148751,"u":"41","run":"0.31","mem":"18.13","data":"File found (ziparchive): wp_revslider_navigations.sql"}
{"event":"details","time":1611148751,"u":"41","run":"0.31","mem":"18.13","data":"File found (ziparchive): wp_revslider_navigations_bkp.sql"}
{"event":"details","time":1611148751,"u":"41","run":"0.31","mem":"18.13","data":"File found (ziparchive): wp_revslider_sliders.sql"}
{"event":"details","time":1611148751,"u":"41","run":"0.31","mem":"18.13","data":"File found (ziparchive): wp_revslider_sliders_bkp.sql"}
{"event":"details","time":1611148751,"u":"41","run":"0.31","mem":"18.13","data":"File found (ziparchive): wp_revslider_slides.sql"}
{"event":"details","time":1611148751,"u":"41","run":"0.31","mem":"18.13","data":"File found (ziparchive): wp_revslider_slides_bkp.sql"}
{"event":"details","time":1611148751,"u":"41","run":"0.31","mem":"18.13","data":"File found (ziparchive): wp_revslider_static_slides.sql"}
{"event":"details","time":1611148751,"u":"41","run":"0.31","mem":"18.13","data":"File found (ziparchive): wp_revslider_static_slides_bkp.sql"}
{"event":"details","time":1611148751,"u":"41","run":"0.31","mem":"18.13","data":"File found (ziparchive): wp_term_relationships.sql"}
{"event":"details","time":1611148751,"u":"41","run":"0.31","mem":"18.13","data":"File found (ziparchive): wp_term_taxonomy.sql"}
{"event":"details","time":1611148751,"u":"41","run":"0.31","mem":"18.13","data":"File found (ziparchive): wp_termmeta.sql"}
{"event":"details","time":1611148751,"u":"41","run":"0.31","mem":"18.13","data":"File found (ziparchive): wp_terms.sql"}
{"event":"details","time":1611148751,"u":"41","run":"0.31","mem":"18.13","data":"File found (ziparchive): wp_usermeta.sql"}
{"event":"details","time":1611148751,"u":"41","run":"0.32","mem":"18.13","data":"File found (ziparchive): wp_users.sql"}
{"event":"details","time":1611148751,"u":"41","run":"0.32","mem":"18.13","data":"Retrieving zip scan log."}
{"event":"details","time":1611148751,"u":"41","run":"0.32","mem":"18.13","data":"Calculating integrity scan status,"}
{"event":"details","time":1611148751,"u":"41","run":"0.32","mem":"18.13","data":"Status: `Pass`. Description: ``."}
{"event":"details","time":1611148751,"u":"41","run":"0.32","mem":"18.13","data":"Getting file details such as size, timestamp, etc."}
{"event":"details","time":1611148751,"u":"41","run":"0.32","mem":"18.13","data":"Saving backup file integrity check details."}
{"event":"details","time":1611148751,"u":"41","run":"0.32","mem":"18.15","data":"Fileoptions `yvnfo9ar7a.txt` saved. 9260 bytes written."}
{"event":"milestone","time":1611148751,"u":"41","run":"0.32","mem":"18.13","data":"finish_integrity"}
{"event":"details","time":1611148751,"u":"41","run":"0.32","mem":"18.15","data":"Fileoptions `yvnfo9ar7a.txt` saved. 9292 bytes written."}
{"event":"details","time":1611148751,"u":"41","run":"0.32","mem":"18.13","data":"Finished function `integrity_check`. Peak memory usage: 24.514 MB with BackupBuddy v8.7.2.0"}
{"event":"finishFunction","time":1611148751,"u":"41","run":"0.32","mem":"18.13","data":"{\"function\":\"integrity_check\"}"}
{"event":"details","time":1611148751,"u":"41","run":"0.32","mem":"18.13","data":"-----"}
{"event":"details","time":1611148751,"u":"41","run":"0.32","mem":"18.13","data":"Classic mode; skipping cron & triggering next step."}
{"event":"details","time":1611148751,"u":"41","run":"0.32","mem":"18.15","data":"Fileoptions `yvnfo9ar7a.txt` saved. 9312 bytes written."}
{"event":"details","time":1611148751,"u":"41","run":"0.32","mem":"18.13","data":"Found next step to run: `post_backup`."}
{"event":"details","time":1611148751,"u":"41","run":"0.32","mem":"18.13","data":"Peak memory usage: 24.514 MB"}
{"event":"details","time":1611148751,"u":"41","run":"0.32","mem":"18.13","data":"-----"}
{"event":"details","time":1611148751,"u":"41","run":"0.32","mem":"18.13","data":"Starting step function `post_backup`. Attempt #1."}
{"event":"startFunction","time":1611148751,"u":"41","run":"0.32","mem":"18.13","data":"{\"function\":\"post_backup\",\"title\":\"Cleaning up\"}"}
{"event":"message","time":1611148751,"u":"41","run":"0.32","mem":"18.13","data":"Cleaning up after backup."}
{"event":"details","time":1611148751,"u":"41","run":"0.32","mem":"18.13","data":"Removing temp data directory."}
{"event":"details","time":1611148751,"u":"41","run":"0.32","mem":"18.13","data":"Removing temp zip directory."}
{"event":"details","time":1611148751,"u":"41","run":"0.32","mem":"18.13","data":"Trimming old archives (if needed)."}
{"event":"details","time":1611148751,"u":"41","run":"0.32","mem":"18.13","data":"Trimmed 0 old archives based on settings archive limits."}
{"event":"details","time":1611148751,"u":"41","run":"0.32","mem":"18.20","data":"Building data file..."}
{"event":"details","time":1611148751,"u":"41","run":"0.32","mem":"18.21","data":"ziparchive listed file contents (\/var\/www\/html\/wp-content\/uploads\/backupbuddy_backups\/backup-hellosaks_com-2021_01_20-01_19pm-db-yvnfo9ar7a.zip)"}
{"event":"details","time":1611148751,"u":"41","run":"0.32","mem":"18.22","data":"Zip Archive file size: 361344 bytes, owned by user:group 33:33 with permissions 0644"}
{"event":"details","time":1611148751,"u":"41","run":"0.32","mem":"18.22","data":"Compressing data file..."}
{"event":"details","time":1611148751,"u":"41","run":"0.32","mem":"18.22","data":"Generating data file..."}
{"event":"details","time":1611148751,"u":"41","run":"0.32","mem":"18.21","data":"Data file created successfully."}
{"event":"details","time":1611148751,"u":"41","run":"0.32","mem":"18.21","data":"Backup data file created successfully."}
{"event":"details","time":1611148751,"u":"41","run":"0.32","mem":"18.23","data":"Fileoptions `yvnfo9ar7a.txt` saved. 9356 bytes written."}
{"event":"details","time":1611148751,"u":"41","run":"0.32","mem":"18.21","data":"Final ZIP file size: 353 KB"}
{"event":"archiveSize","time":1611148751,"u":"41","run":"0.32","mem":"18.21","data":"353 KB"}
{"event":"details","time":1611148751,"u":"42","run":"0.32","mem":"18.21","data":"Updating statistics for last backup completed and number of edits since last backup."}
{"event":"details","time":1611148751,"u":"42","run":"0.32","mem":"18.21","data":"Cleaning up any old temporary zip directories in: `\/var\/www\/html\/wp-content\/uploads\/backupbuddy_temp\/`. If no recent backups then the temp directory will also be purged."}
{"event":"message","time":1611148751,"u":"42","run":"0.32","mem":"18.21","data":"Finished cleaning up."}
{"event":"archiveInfo","time":1611148751,"u":"42","run":"0.33","mem":"18.21","data":"{\"file\":\"backup-hellosaks_com-2021_01_20-01_19pm-db-yvnfo9ar7a.zip\",\"url\":\"https:\\\/\\\/hellosaks.com\\\/wp-admin\\\/admin-ajax.php?action=pb_backupbuddy_backupbuddy&function=download_archive&backupbuddy_backup=backup-hellosaks_com-2021_01_20-01_19pm-db-yvnfo9ar7a.zip\"}"}
{"event":"details","time":1611148751,"u":"42","run":"0.33","mem":"18.22","data":"Fileoptions `yvnfo9ar7a.txt` saved. 9392 bytes written."}
{"event":"details","time":1611148751,"u":"42","run":"0.33","mem":"18.20","data":"Finished function `post_backup`. Peak memory usage: 24.514 MB with BackupBuddy v8.7.2.0"}
{"event":"finishFunction","time":1611148751,"u":"42","run":"0.33","mem":"18.20","data":"{\"function\":\"post_backup\"}"}
{"event":"details","time":1611148751,"u":"42","run":"0.33","mem":"18.20","data":"-----"}
{"event":"details","time":1611148751,"u":"42","run":"0.33","mem":"18.20","data":"No more backup steps remain. Finishing..."}
{"event":"details","time":1611148751,"u":"42","run":"0.33","mem":"18.22","data":"Fileoptions `yvnfo9ar7a.txt` saved. 9412 bytes written."}
{"event":"startFunction","time":1611148751,"u":"42","run":"0.33","mem":"18.20","data":"{\"function\":\"backup_success\",\"title\":\"Backup completed successfully.\"}"}
{"event":"finishFunction","time":1611148751,"u":"42","run":"0.33","mem":"18.20","data":"{\"function\":\"backup_success\"}"}
{"event":"details","time":1611148751,"u":"42","run":"0.33","mem":"18.20","data":"Closing & unlocking fileoptions."}
{"event":"details","time":1611148751,"u":"42","run":"0.33","mem":"18.21","data":"Completed step function `post_backup`."}
{"event":"details","time":1611148751,"u":"42","run":"0.33","mem":"18.21","data":"Completed step function `integrity_check`."}
{"event":"details","time":1611148751,"u":"42","run":"0.33","mem":"18.21","data":"Completed step function `backup_zip_files`."}
{"event":"details","time":1611148751,"u":"42","run":"0.33","mem":"18.21","data":"Completed step function `backup_create_database_dump`."}
{"event":"details","time":1611148751,"u":"42","run":"0.33","mem":"18.21","data":"Completed step function `backup_create_database_dump`."}
{"event":"details","time":1611148751,"u":"42","run":"0.33","mem":"18.21","data":"Completed step function `backup_create_database_dump`."}
{"event":"details","time":1611148753,"u":"88","run":"0.09","mem":"17.37","data":"Loading fileoptions data instance #29..."}
{"event":"details","time":1611148753,"u":"88","run":"0.09","mem":"17.39","data":"Fileoptions load using 0.02 MB of memory."}
{"event":"details","time":1611148753,"u":"88","run":"0.09","mem":"17.39","data":"--- New PHP process."}
{"event":"details","time":1611148753,"u":"88","run":"0.09","mem":"17.39","data":"Completed backup final ZIP file size: 353 KB"}
{"event":"archiveSize","time":1611148753,"u":"88","run":"0.09","mem":"17.39","data":"353 KB"}
{"event":"message","time":1611148753,"u":"88","run":"0.09","mem":"17.39","data":"Backup successfully completed in 0 seconds with BackupBuddy v8.7.2.0. Trigger: `manual`."}
{"event":"milestone","time":1611148753,"u":"88","run":"0.09","mem":"17.39","data":"finish_backup"}
{"event":"message","time":1611148753,"u":"88","run":"0.09","mem":"17.63","data":"Pong! Server replied."}
