{"event":"details","time":1611223327,"u":"29","run":"0.22","mem":"18.08","data":"BackupBuddy v8.7.2.0 using WordPress v5.6 with PHP v7.3.26 on Linux operating system."}
{"event":"details","time":1611223327,"u":"29","run":"0.22","mem":"18.08","data":"Backup mode value setting to: `1`. Profile was: `1`. Global default is: `1`."}
{"event":"details","time":1611223327,"u":"29","run":"0.22","mem":"18.08","data":"Calculated archive file: `\/var\/www\/html\/wp-content\/uploads\/backupbuddy_backups\/backup-hellosaks_com-2021_01_21-10_02am-themes-pbqfsjz6r9.zip`."}
{"event":"startFunction","time":1611223327,"u":"29","run":"0.22","mem":"18.08","data":"{\"function\":\"pre_backup\",\"title\":\"Getting ready to backup\"}"}
{"event":"details","time":1611223327,"u":"29","run":"0.22","mem":"18.08","data":"Performing pre-backup procedures."}
{"event":"message","time":1611223327,"u":"29","run":"0.22","mem":"18.08","data":"Themes only backup mode."}
{"event":"details","time":1611223327,"u":"29","run":"0.22","mem":"18.08","data":"Flushing will not be skipped (default)."}
{"event":"details","time":1611223327,"u":"29","run":"0.22","mem":"18.08","data":"Verifying directories ..."}
{"event":"details","time":1611223327,"u":"29","run":"0.22","mem":"18.08","data":"Temporary directory invalid. Updating from `\/var\/www\/html\/wp-content\/uploads\/backupbuddy_temp\/` to default."}
{"event":"details","time":1611223327,"u":"30","run":"0.23","mem":"18.11","data":"Directories verified."}
{"event":"details","time":1611223327,"u":"30","run":"0.23","mem":"18.11","data":"Backup serial generated: `pbqfsjz6r9`."}
{"event":"details","time":1611223327,"u":"30","run":"0.23","mem":"18.11","data":"Loading fileoptions data instance #40 in create mode..."}
{"event":"details","time":1611223327,"u":"30","run":"0.23","mem":"18.12","data":"Created fileoptions lock file `pbqfsjz6r9.txt.lock` with ID: 60097b4f49eeb1.11783740."}
{"event":"details","time":1611223327,"u":"30","run":"0.23","mem":"18.12","data":"Fileoptions load using 0 MB of memory."}
{"event":"details","time":1611223327,"u":"30","run":"0.23","mem":"18.12","data":"Fileoptions data loaded."}
{"event":"details","time":1611223327,"u":"30","run":"0.23","mem":"18.12","data":"Updating statistics for last backup start."}
{"event":"details","time":1611223327,"u":"30","run":"0.23","mem":"18.12","data":"Temp directory: `\/var\/www\/html\/wp-content\/uploads\/backupbuddy_temp\/pbqfsjz6r9\/`."}
{"event":"details","time":1611223327,"u":"30","run":"0.23","mem":"18.12","data":"Backup root: `\/var\/www\/html\/wp-content\/themes\/`."}
{"event":"message","time":1611223327,"u":"30","run":"0.23","mem":"18.12","data":"Skipping database dump based on settings \/ profile type. Backup type: `themes`."}
{"event":"details","time":1611223327,"u":"30","run":"0.23","mem":"18.12","data":"Integrity check will be performed based on settings for this profile."}
{"event":"details","time":1611223327,"u":"30","run":"0.23","mem":"18.13","data":"Fileoptions `pbqfsjz6r9.txt` saved. 4072 bytes written."}
{"event":"details","time":1611223327,"u":"30","run":"0.23","mem":"18.13","data":"Creating DAT (data) file snapshotting site & backup information."}
{"event":"startSubFunction","time":1611223327,"u":"31","run":"0.23","mem":"18.12","data":"{\"function\":\"post_count\",\"title\":\"Found 3 posts, 13 pages, and 1 comments.\"}"}
{"event":"startSubFunction","time":1611223327,"u":"31","run":"0.23","mem":"18.12","data":"{\"function\":\"post_count\",\"title\":\"Found 2 user accounts.\"}"}
{"event":"details","time":1611223327,"u":"31","run":"0.23","mem":"18.12","data":"Compensating for SSL in siteurl."}
{"event":"details","time":1611223327,"u":"31","run":"0.23","mem":"18.12","data":"DAT file contents (sans database user\/pass): Array; (;     [backupbuddy_version] => 8.7.2.0;     [wordpress_version] => 5.6;     [php_version] => 7.3.26;     [backup_time] => 1611234127;     [backup_type] => themes;     [profile] => Array;         (;             [type] => themes;             [title] => Themes Only;             [skip_database_dump] => 0;             [mysqldump_additional_includes] => ;             [mysqldump_additional_excludes] => ;             [backup_nonwp_tables] => 0;             [excludes] => ;             [active_plugins_only] => 0;             [integrity_check] => 1;             [profile_globaltables] => 1;             [profile_globalexcludes] => 1;             [backup_mode] => 1;             [custom_root] => ;             [exclude_media] => 0;             [exclude_themes] => 0;             [exclude_plugins] => 0;             [tip] => Just your themes.;         ); ;     [default_profile] => Array;         (;             [type] => defaults;             [title] => Global Defaults;             [skip_database_dump] => 0;             [mysqldump_additional_includes] => ;             [mysqldump_additional_excludes] => ;             [backup_nonwp_tables] => 0;             [excludes] => ;             [active_plugins_only] => 0;             [integrity_check] => 1;             [profile_globaltables] => 1;             [profile_globalexcludes] => 1;             [backup_mode] => 1;             [custom_root] => ;             [exclude_media] => 0;             [exclude_themes] => 0;             [exclude_plugins] => 0;         ); ;     [serial] => pbqfsjz6r9;     [trigger] => manual;     [wp-config_in_parent] => ;     [deployment_direction] => ;     [abspath] => \/var\/www\/html\/;     [siteurl] => https:\/\/hellosaks.com;     [homeurl] => https:\/\/hellosaks.com;     [blogname] => SAKS;     [blogdescription] => Guarde. Invista. Aumente.;     [active_plugins] => backupbuddy\/backupbuddy.php, contact-form-7\/wp-contact-form-7.php, dynamic-featured-image\/dynamic-featured-image.php, js_composer\/js_composer.php, porto-functionality\/porto-functionality.php, revslider\/revslider.php, wp-config-file-editor\/wp-config-file-editor.php;     [posts] => 3;     [pages] => 13;     [comments] => 1;     [users] => 2;     [wp_content_url] => https:\/\/hellosaks.com\/wp-content;     [wp_content_dir] => \/var\/www\/html\/wp-content;     [db_charset] => utf8mb4;     [db_collate] => utf8mb4_unicode_ci;     [db_prefix] => wp_;     [db_server] => mysql;     [db_name] => wordpress;     [db_user] => ;     [db_password] => ;     [db_exclusions] => ;     [db_inclusions] => ;     [db_version] => 5.5.5;     [breakout_tables] => Array;         (;         ); ;     [tables_sizes] => Array;         (;         ); ;     [force_single_db_file] => ;     [skip_database_dump] => 0;     [is_multisite] => ;     [is_multisite_export] => ;     [domain] => ;     [path] => ;     [upload_url] => ;     [upload_url_rewrite] => ; ); "}
{"event":"details","time":1611223327,"u":"31","run":"0.23","mem":"18.12","data":"Finished creating DAT (data) file."}
{"event":"details","time":1611223327,"u":"31","run":"0.23","mem":"18.11","data":"Deleting malware transient."}
{"event":"details","time":1611223327,"u":"31","run":"0.23","mem":"18.12","data":"Fileoptions `pbqfsjz6r9.txt` saved. 4220 bytes written."}
{"event":"details","time":1611223327,"u":"31","run":"0.23","mem":"18.11","data":"Finished pre-backup procedures."}
{"event":"milestone","time":1611223327,"u":"31","run":"0.23","mem":"18.11","data":"finish_settings"}
{"event":"finishFunction","time":1611223327,"u":"31","run":"0.23","mem":"18.11","data":"{\"function\":\"pre_backup\"}"}
{"event":"message","time":1611223327,"u":"31","run":"0.23","mem":"18.11","data":"Running in classic backup mode based on settings. Mode code: `1`."}
{"event":"details","time":1611223327,"u":"31","run":"0.24","mem":"18.13","data":"Fileoptions `pbqfsjz6r9.txt` saved. 4240 bytes written."}
{"event":"details","time":1611223327,"u":"31","run":"0.24","mem":"18.11","data":"Found next step to run: `backup_zip_files`."}
{"event":"details","time":1611223327,"u":"31","run":"0.24","mem":"18.11","data":"Peak memory usage: 18.486 MB"}
{"event":"details","time":1611223327,"u":"31","run":"0.24","mem":"18.11","data":"-----"}
{"event":"details","time":1611223327,"u":"31","run":"0.24","mem":"18.11","data":"Starting step function `backup_zip_files`. Attempt #1."}
{"event":"startFunction","time":1611223327,"u":"31","run":"0.24","mem":"18.11","data":"{\"function\":\"backup_zip_files\",\"title\":\"Zipping up files\"}"}
{"event":"milestone","time":1611223327,"u":"31","run":"0.24","mem":"18.11","data":"start_files"}
{"event":"details","time":1611223327,"u":"31","run":"0.24","mem":"18.11","data":"Backup root: `\/var\/www\/html\/wp-content\/themes\/`."}
{"event":"details","time":1611223327,"u":"31","run":"0.24","mem":"18.11","data":"Saving meta data to zip comment."}
{"event":"details","time":1611223327,"u":"31","run":"0.24","mem":"18.12","data":"Zip process reported: Initializing zip archive file: \/var\/www\/html\/wp-content\/uploads\/backupbuddy_backups\/temp_zip_pbqfsjz6r9\/backup-hellosaks_com-2021_01_21-10_02am-themes-pbqfsjz6r9.zip"}
{"event":"details","time":1611223327,"u":"31","run":"0.24","mem":"18.12","data":"Zip process reported: Initialized zip archive file"}
{"event":"details","time":1611223327,"u":"31","run":"0.24","mem":"18.12","data":"Verifying initialized zip archive file exists."}
{"event":"details","time":1611223327,"u":"31","run":"0.24","mem":"18.12","data":"File found (ziparchive): .itbub"}
{"event":"details","time":1611223327,"u":"31","run":"0.24","mem":"18.12","data":"Verified initialized zip archive file exists."}
{"event":"message","time":1611223327,"u":"31","run":"0.24","mem":"18.12","data":"Running standard ZIP system based on settings."}
{"event":"details","time":1611223327,"u":"31","run":"0.24","mem":"18.12","data":"Running under 64-bit PHP"}
{"event":"details","time":1611223327,"u":"31","run":"0.24","mem":"18.12","data":"Server API: fpm-fcgi"}
{"event":"details","time":1611223327,"u":"31","run":"0.24","mem":"18.12","data":"Using Best Available zip method based on settings."}
{"event":"details","time":1611223327,"u":"31","run":"0.24","mem":"18.12","data":"Creating ZIP file `\/var\/www\/html\/wp-content\/uploads\/backupbuddy_backups\/backup-hellosaks_com-2021_01_21-10_02am-themes-pbqfsjz6r9.zip`. Adding directory `\/var\/www\/html\/wp-content\/themes\/`. Excludes: "}
{"event":"details","time":1611223327,"u":"31","run":"0.24","mem":"18.12","data":"Trying pclzip method for ZIP."}
{"event":"details","time":1611223327,"u":"31","run":"0.24","mem":"18.12","data":"Zip process reported: Temporary working directory available: `\/var\/www\/html\/wp-content\/uploads\/backupbuddy_backups\/temp_zip_pbqfsjz6r9\/`"}
{"event":"message","time":1611223327,"u":"31","run":"0.24","mem":"18.12","data":"Using Compatibility Mode."}
{"event":"message","time":1611223327,"u":"31","run":"0.24","mem":"18.12","data":"If your backup times out in Compatibility Mode try disabling zip compression in Settings."}
{"event":"message","time":1611223327,"u":"31","run":"0.24","mem":"18.12","data":"Only excluding archives directory based on settings. 0 total."}
{"event":"details","time":1611223327,"u":"31","run":"0.24","mem":"18.12","data":"Zip archive creation compression enabled based on settings."}
{"event":"details","time":1611223327,"u":"31","run":"0.24","mem":"18.12","data":"Zip archive creation symbolic links will be ignored based on settings."}
{"event":"details","time":1611223327,"u":"31","run":"0.24","mem":"18.12","data":"Zip archive creation actionable warnings will be ignored based on settings."}
{"event":"details","time":1611223327,"u":"31","run":"0.24","mem":"18.13","data":"pclzip command arguments: List: \/var\/www\/html\/wp-content\/themes\/index.php,\/var\/www...;77003;\/var\/www\/html\/wp-content\/themes\/;77020;5;78003;\u0000lambda_3"}
{"event":"details","time":1611223329,"u":"47","run":"2.40","mem":"18.13","data":"Zip process exit code: 0"}
{"event":"details","time":1611223329,"u":"47","run":"2.40","mem":"18.13","data":"Zip process reported: 0 warnings"}
{"event":"message","time":1611223329,"u":"47","run":"2.40","mem":"18.13","data":"Zip Archive file successfully created with no errors (any actionable warnings ignored by user settings)."}
{"event":"details","time":1611223329,"u":"47","run":"2.40","mem":"18.14","data":"Zip Archive file size: 19679818 bytes, owned by user:group 33:33 with permissions 0644"}
{"event":"details","time":1611223329,"u":"48","run":"2.40","mem":"18.13","data":"The pclzip method for ZIP was successful."}
{"event":"details","time":1611223329,"u":"48","run":"2.40","mem":"18.13","data":"Moving Zip Archive file to local archive directory."}
{"event":"details","time":1611223329,"u":"48","run":"2.40","mem":"18.13","data":"Zip Archive file moved to local archive directory."}
{"event":"message","time":1611223329,"u":"48","run":"2.40","mem":"18.13","data":"Backup ZIP file successfully created."}
{"event":"details","time":1611223329,"u":"48","run":"2.40","mem":"18.13","data":"Chmod of ZIP file to 0644 succeeded."}
{"event":"details","time":1611223329,"u":"48","run":"2.40","mem":"18.13","data":"Database kicker loaded. Database object class: `wpdb` with database of type `mysqli`."}
{"event":"details","time":1611223329,"u":"48","run":"2.40","mem":"18.13","data":"Pinging mysqli."}
{"event":"details","time":1611223329,"u":"48","run":"2.40","mem":"18.13","data":"Database Server connection status verified."}
{"event":"details","time":1611223329,"u":"48","run":"2.40","mem":"18.14","data":"Fileoptions `pbqfsjz6r9.txt` saved. 4280 bytes written."}
{"event":"details","time":1611223329,"u":"48","run":"2.40","mem":"18.13","data":"Finished function `backup_zip_files`. Peak memory usage: 26.301 MB with BackupBuddy v8.7.2.0"}
{"event":"finishFunction","time":1611223329,"u":"48","run":"2.40","mem":"18.13","data":"{\"function\":\"backup_zip_files\"}"}
{"event":"details","time":1611223329,"u":"48","run":"2.40","mem":"18.13","data":"-----"}
{"event":"details","time":1611223329,"u":"48","run":"2.40","mem":"18.13","data":"Classic mode; skipping cron & triggering next step."}
{"event":"details","time":1611223329,"u":"48","run":"2.41","mem":"18.14","data":"Fileoptions `pbqfsjz6r9.txt` saved. 4304 bytes written."}
{"event":"details","time":1611223329,"u":"48","run":"2.41","mem":"18.13","data":"Found next step to run: `integrity_check`."}
{"event":"details","time":1611223329,"u":"48","run":"2.41","mem":"18.13","data":"Peak memory usage: 26.301 MB"}
{"event":"details","time":1611223329,"u":"48","run":"2.41","mem":"18.13","data":"-----"}
{"event":"details","time":1611223329,"u":"48","run":"2.41","mem":"18.13","data":"Starting step function `integrity_check`. Attempt #1."}
{"event":"startFunction","time":1611223329,"u":"48","run":"2.41","mem":"18.13","data":"{\"function\":\"integrity_check\",\"title\":\"Verifying backup file integrity\"}"}
{"event":"milestone","time":1611223329,"u":"48","run":"2.41","mem":"18.13","data":"start_integrity"}
{"event":"message","time":1611223329,"u":"48","run":"2.41","mem":"18.13","data":"Scanning and verifying backup file integrity."}
{"event":"details","time":1611223329,"u":"48","run":"2.41","mem":"18.13","data":"Starting integrity check on `\/var\/www\/html\/wp-content\/uploads\/backupbuddy_backups\/backup-hellosaks_com-2021_01_21-10_02am-themes-pbqfsjz6r9.zip`."}
{"event":"details","time":1611223329,"u":"48","run":"2.41","mem":"18.13","data":"Started backup_integrity_check() function for `pbqfsjz6r9` for file `\/var\/www\/html\/wp-content\/uploads\/backupbuddy_backups\/backup-hellosaks_com-2021_01_21-10_02am-themes-pbqfsjz6r9.zip`."}
{"event":"details","time":1611223329,"u":"48","run":"2.41","mem":"18.13","data":"Determining backup type of file `backup-hellosaks_com-2021_01_21-10_02am-themes-pbqfsjz6r9.zip`"}
{"event":"details","time":1611223329,"u":"48","run":"2.41","mem":"18.13","data":"Detecting backup type if possible."}
{"event":"details","time":1611223329,"u":"48","run":"2.41","mem":"18.13","data":"Detected backup type as `themes` via filename."}
{"event":"details","time":1611223329,"u":"48","run":"2.41","mem":"18.13","data":"Resetting backup integrity stats for backup with serial `pbqfsjz6r9`."}
{"event":"details","time":1611223329,"u":"48","run":"2.41","mem":"18.13","data":"Verifying comment in zip archive."}
{"event":"details","time":1611223329,"u":"49","run":"2.42","mem":"18.13","data":"ZipArchive retrieved comment in file \/var\/www\/html\/wp-content\/uploads\/backupbuddy_backups\/backup-hellosaks_com-2021_01_21-10_02am-themes-pbqfsjz6r9.zip"}
{"event":"details","time":1611223329,"u":"49","run":"2.42","mem":"18.13","data":"NOTE: It is normal to see several \"File not found\" messages in the next several log lines."}
{"event":"details","time":1611223329,"u":"51","run":"2.44","mem":"19.47","data":"ziparchive listed file contents (\/var\/www\/html\/wp-content\/uploads\/backupbuddy_backups\/backup-hellosaks_com-2021_01_21-10_02am-themes-pbqfsjz6r9.zip)"}
{"event":"details","time":1611223329,"u":"51","run":"2.44","mem":"19.47","data":"Zip Archive file size: 19679818 bytes, owned by user:group 33:33 with permissions 0644"}
{"event":"details","time":1611223329,"u":"51","run":"2.44","mem":"18.20","data":"Retrieving zip scan log."}
{"event":"details","time":1611223329,"u":"51","run":"2.44","mem":"18.20","data":"Calculating integrity scan status,"}
{"event":"details","time":1611223329,"u":"51","run":"2.44","mem":"18.20","data":"Status: `Pass`. Description: ``."}
{"event":"details","time":1611223329,"u":"51","run":"2.44","mem":"18.20","data":"Getting file details such as size, timestamp, etc."}
{"event":"details","time":1611223329,"u":"51","run":"2.44","mem":"18.20","data":"Saving backup file integrity check details."}
{"event":"details","time":1611223329,"u":"51","run":"2.44","mem":"18.21","data":"Fileoptions `pbqfsjz6r9.txt` saved. 5240 bytes written."}
{"event":"milestone","time":1611223329,"u":"51","run":"2.44","mem":"18.20","data":"finish_integrity"}
{"event":"details","time":1611223329,"u":"51","run":"2.44","mem":"18.21","data":"Fileoptions `pbqfsjz6r9.txt` saved. 5268 bytes written."}
{"event":"details","time":1611223329,"u":"51","run":"2.44","mem":"18.20","data":"Finished function `integrity_check`. Peak memory usage: 26.301 MB with BackupBuddy v8.7.2.0"}
{"event":"finishFunction","time":1611223329,"u":"51","run":"2.44","mem":"18.20","data":"{\"function\":\"integrity_check\"}"}
{"event":"details","time":1611223329,"u":"51","run":"2.44","mem":"18.20","data":"-----"}
{"event":"details","time":1611223329,"u":"51","run":"2.44","mem":"18.20","data":"Classic mode; skipping cron & triggering next step."}
{"event":"details","time":1611223329,"u":"51","run":"2.44","mem":"18.21","data":"Fileoptions `pbqfsjz6r9.txt` saved. 5292 bytes written."}
{"event":"details","time":1611223329,"u":"51","run":"2.44","mem":"18.20","data":"Found next step to run: `post_backup`."}
{"event":"details","time":1611223329,"u":"51","run":"2.44","mem":"18.20","data":"Peak memory usage: 26.301 MB"}
{"event":"details","time":1611223329,"u":"51","run":"2.44","mem":"18.20","data":"-----"}
{"event":"details","time":1611223329,"u":"51","run":"2.44","mem":"18.20","data":"Starting step function `post_backup`. Attempt #1."}
{"event":"startFunction","time":1611223329,"u":"51","run":"2.44","mem":"18.20","data":"{\"function\":\"post_backup\",\"title\":\"Cleaning up\"}"}
{"event":"message","time":1611223329,"u":"51","run":"2.44","mem":"18.20","data":"Cleaning up after backup."}
{"event":"details","time":1611223329,"u":"51","run":"2.44","mem":"18.20","data":"Removing temp data directory."}
{"event":"details","time":1611223329,"u":"51","run":"2.44","mem":"18.20","data":"Removing temp zip directory."}
{"event":"details","time":1611223329,"u":"51","run":"2.44","mem":"18.20","data":"Trimming old archives (if needed)."}
{"event":"details","time":1611223329,"u":"52","run":"2.44","mem":"18.20","data":"Trimmed 0 old archives based on settings archive limits."}
{"event":"details","time":1611223329,"u":"52","run":"2.44","mem":"18.20","data":"Building data file..."}
{"event":"details","time":1611223329,"u":"53","run":"2.46","mem":"19.54","data":"ziparchive listed file contents (\/var\/www\/html\/wp-content\/uploads\/backupbuddy_backups\/backup-hellosaks_com-2021_01_21-10_02am-themes-pbqfsjz6r9.zip)"}
{"event":"details","time":1611223329,"u":"53","run":"2.46","mem":"19.54","data":"Zip Archive file size: 19679818 bytes, owned by user:group 33:33 with permissions 0644"}
{"event":"details","time":1611223329,"u":"55","run":"2.47","mem":"19.54","data":"ziparchive listed file contents (\/var\/www\/html\/wp-content\/uploads\/backupbuddy_backups\/backup-hellosaks_com-2021_01_21-10_02am-themes-pbqfsjz6r9.zip\/porto\/style.css)"}
{"event":"details","time":1611223329,"u":"56","run":"2.49","mem":"19.54","data":"ziparchive listed file contents (\/var\/www\/html\/wp-content\/uploads\/backupbuddy_backups\/backup-hellosaks_com-2021_01_21-10_02am-themes-pbqfsjz6r9.zip\/porto-child\/style.css)"}
{"event":"details","time":1611223329,"u":"58","run":"2.50","mem":"19.76","data":"ziparchive listed file contents (\/var\/www\/html\/wp-content\/uploads\/backupbuddy_backups\/backup-hellosaks_com-2021_01_21-10_02am-themes-pbqfsjz6r9.zip\/twentynineteen\/style.css)"}
{"event":"details","time":1611223329,"u":"59","run":"2.52","mem":"19.88","data":"ziparchive listed file contents (\/var\/www\/html\/wp-content\/uploads\/backupbuddy_backups\/backup-hellosaks_com-2021_01_21-10_02am-themes-pbqfsjz6r9.zip\/twentytwenty\/style.css)"}
{"event":"details","time":1611223329,"u":"61","run":"2.53","mem":"19.81","data":"ziparchive listed file contents (\/var\/www\/html\/wp-content\/uploads\/backupbuddy_backups\/backup-hellosaks_com-2021_01_21-10_02am-themes-pbqfsjz6r9.zip\/twentytwentyone\/style.css)"}
{"event":"details","time":1611223329,"u":"61","run":"2.54","mem":"20.66","data":"Compressing data file..."}
{"event":"details","time":1611223329,"u":"61","run":"2.54","mem":"20.69","data":"Generating data file..."}
{"event":"details","time":1611223329,"u":"61","run":"2.54","mem":"19.53","data":"Data file created successfully."}
{"event":"details","time":1611223329,"u":"62","run":"2.54","mem":"19.53","data":"Backup data file created successfully."}
{"event":"details","time":1611223329,"u":"62","run":"2.54","mem":"19.55","data":"Fileoptions `pbqfsjz6r9.txt` saved. 5336 bytes written."}
{"event":"details","time":1611223329,"u":"62","run":"2.54","mem":"19.53","data":"Final ZIP file size: 18.77 MB"}
{"event":"archiveSize","time":1611223329,"u":"62","run":"2.54","mem":"19.53","data":"18.77 MB"}
{"event":"details","time":1611223329,"u":"62","run":"2.55","mem":"19.53","data":"Updating statistics for last backup completed and number of edits since last backup."}
{"event":"details","time":1611223329,"u":"62","run":"2.55","mem":"19.54","data":"Cleaning up any old temporary zip directories in: `\/var\/www\/html\/wp-content\/uploads\/backupbuddy_temp\/`. If no recent backups then the temp directory will also be purged."}
{"event":"message","time":1611223329,"u":"62","run":"2.55","mem":"19.54","data":"Finished cleaning up."}
{"event":"archiveInfo","time":1611223329,"u":"62","run":"2.55","mem":"19.54","data":"{\"file\":\"backup-hellosaks_com-2021_01_21-10_02am-themes-pbqfsjz6r9.zip\",\"url\":\"https:\\\/\\\/hellosaks.com\\\/wp-admin\\\/admin-ajax.php?action=pb_backupbuddy_backupbuddy&function=download_archive&backupbuddy_backup=backup-hellosaks_com-2021_01_21-10_02am-themes-pbqfsjz6r9.zip\"}"}
{"event":"details","time":1611223329,"u":"62","run":"2.55","mem":"19.54","data":"Fileoptions `pbqfsjz6r9.txt` saved. 5376 bytes written."}
{"event":"details","time":1611223329,"u":"62","run":"2.55","mem":"19.53","data":"Finished function `post_backup`. Peak memory usage: 26.301 MB with BackupBuddy v8.7.2.0"}
{"event":"finishFunction","time":1611223329,"u":"62","run":"2.55","mem":"19.53","data":"{\"function\":\"post_backup\"}"}
{"event":"details","time":1611223329,"u":"62","run":"2.55","mem":"19.53","data":"-----"}
{"event":"details","time":1611223329,"u":"62","run":"2.55","mem":"19.53","data":"No more backup steps remain. Finishing..."}
{"event":"details","time":1611223329,"u":"62","run":"2.55","mem":"19.54","data":"Fileoptions `pbqfsjz6r9.txt` saved. 5396 bytes written."}
{"event":"startFunction","time":1611223329,"u":"62","run":"2.55","mem":"19.53","data":"{\"function\":\"backup_success\",\"title\":\"Backup completed successfully.\"}"}
{"event":"finishFunction","time":1611223329,"u":"62","run":"2.55","mem":"19.53","data":"{\"function\":\"backup_success\"}"}
{"event":"details","time":1611223329,"u":"62","run":"2.55","mem":"19.53","data":"Closing & unlocking fileoptions."}
{"event":"details","time":1611223329,"u":"63","run":"2.55","mem":"19.54","data":"Completed step function `post_backup`."}
{"event":"details","time":1611223329,"u":"63","run":"2.55","mem":"19.54","data":"Completed step function `integrity_check`."}
{"event":"details","time":1611223329,"u":"63","run":"2.55","mem":"19.54","data":"Completed step function `backup_zip_files`."}
{"event":"details","time":1611223332,"u":"72","run":"0.08","mem":"17.38","data":"Loading fileoptions data instance #29..."}
{"event":"details","time":1611223332,"u":"72","run":"0.08","mem":"17.39","data":"Fileoptions load using 0.01 MB of memory."}
{"event":"details","time":1611223332,"u":"72","run":"0.08","mem":"17.39","data":"--- New PHP process."}
{"event":"details","time":1611223332,"u":"72","run":"0.08","mem":"17.39","data":"Completed backup final ZIP file size: 18.77 MB"}
{"event":"archiveSize","time":1611223332,"u":"72","run":"0.08","mem":"17.39","data":"18.77 MB"}
{"event":"message","time":1611223332,"u":"72","run":"0.08","mem":"17.39","data":"Backup successfully completed in 3 seconds with BackupBuddy v8.7.2.0. Trigger: `manual`."}
{"event":"milestone","time":1611223332,"u":"72","run":"0.08","mem":"17.39","data":"finish_backup"}
{"event":"message","time":1611223332,"u":"72","run":"0.08","mem":"17.45","data":"Pong! Server replied."}
