{"event":"details","time":1611091747,"u":"28","run":"0.05","mem":"11.92","data":"Starting Restore..."}
{"event":"details","time":1611091747,"u":"28","run":"0.05","mem":"11.92","data":"\u2713 Restore started."}
{"event":"details","time":1611091747,"u":"28","run":"0.05","mem":"11.92","data":"\u2713 Restore ready."}
{"event":"details","time":1611091749,"u":"42","run":"0.06","mem":"11.92","data":"Starting Unzip..."}
{"event":"details","time":1611091749,"u":"42","run":"0.06","mem":"11.92","data":"Setting temp directory to unzip..."}
{"event":"details","time":1611091749,"u":"42","run":"0.06","mem":"11.92","data":"\u2713 Temporary directory created: \/var\/www\/html\/wp-content\/uploads\/backupbuddy-restoretmp-3zbm4902qt\/"}
{"event":"details","time":1611091750,"u":"42","run":"1.06","mem":"11.92","data":"\u2713 Loading Zip Extractor Class."}
{"event":"details","time":1611091750,"u":"42","run":"1.06","mem":"12.04","data":"Generating file list..."}
{"event":"details","time":1611091750,"u":"42","run":"1.06","mem":"12.05","data":"Extracting selected files from zip."}
{"event":"details","time":1611091750,"u":"42","run":"1.06","mem":"12.05","data":"Extracting zip files..."}
{"event":"details","time":1611091751,"u":"44","run":"2.07","mem":"12.05","data":"\u2713 Zip extracted."}
{"event":"details","time":1611091755,"u":"12","run":"0.06","mem":"11.93","data":"Verifying Extraction..."}
{"event":"details","time":1611091755,"u":"12","run":"0.06","mem":"11.93","data":"\u2713 Verification complete."}
{"event":"details","time":1611091758,"u":"27","run":"0.05","mem":"11.93","data":"Setting file\/folder permissions..."}
{"event":"details","time":1611091758,"u":"27","run":"0.05","mem":"11.93","data":"\u2713 Permissions set successfully."}
{"event":"details","time":1611091761,"u":"42","run":"0.05","mem":"11.93","data":"Setting up Database Restore..."}
{"event":"details","time":1611091761,"u":"42","run":"0.05","mem":"11.93","data":"Locating database files..."}
{"event":"details","time":1611091761,"u":"43","run":"0.05","mem":"11.93","data":"\u2713 Found 24 SQL files in `\/var\/www\/html\/wp-content\/uploads\/backupbuddy-restoretmp-3zbm4902qt\/`."}
{"event":"details","time":1611091850,"u":"14","run":"1.05","mem":"11.95","data":"\u2713 All SQL files imported."}
{"event":"details","time":1611091856,"u":"43","run":"1.06","mem":"11.96","data":"Finalizing database restore..."}
{"event":"details","time":1611091881,"u":"72","run":"0.05","mem":"11.94","data":"Performing cleanup..."}
{"event":"details","time":1611091881,"u":"73","run":"0.05","mem":"11.94","data":"\u2713 Cleaned up temporary files created from zip extraction."}
{"event":"details","time":1611091881,"u":"73","run":"0.05","mem":"11.94","data":"\u2713 Cleaned up restore temporary files."}
{"event":"details","time":1611091881,"u":"73","run":"0.05","mem":"11.95","data":"Processing database cleanup queries..."}
{"event":"details","time":1611091881,"u":"73","run":"0.06","mem":"11.95","data":"\u2713 Database cleanup complete."}
{"event":"details","time":1611091881,"u":"73","run":"0.06","mem":"11.95","data":"\u2713 Cleanup complete."}
{"event":"details","time":1611091881,"u":"73","run":"0.06","mem":"11.95","data":"\u2713 Restore finished successfully."}
