{"event":"details","time":1611007621,"u":"20","run":"1.16","mem":"17.33","data":"BackupBuddy v8.7.2.0 using WordPress v5.6 with PHP v7.3.26 on Linux operating system."}
{"event":"details","time":1611007621,"u":"21","run":"1.16","mem":"17.33","data":"Backup mode value setting to: `1`. Profile was: `1`. Global default is: `1`."}
{"event":"details","time":1611007621,"u":"22","run":"1.17","mem":"17.33","data":"Calculated archive file: `\/var\/www\/html\/wp-content\/uploads\/backupbuddy_backups\/backup-localhost-2021_01_18-10_07pm-db-2h8bqi1njn.zip`."}
{"event":"startFunction","time":1611007621,"u":"22","run":"1.17","mem":"17.33","data":"{\"function\":\"pre_backup\",\"title\":\"Getting ready to backup\"}"}
{"event":"details","time":1611007621,"u":"23","run":"1.18","mem":"17.33","data":"Performing pre-backup procedures."}
{"event":"message","time":1611007621,"u":"23","run":"1.18","mem":"17.33","data":"Database only backup mode."}
{"event":"details","time":1611007621,"u":"23","run":"1.19","mem":"17.33","data":"Flushing will not be skipped (default)."}
{"event":"details","time":1611007621,"u":"23","run":"1.19","mem":"17.33","data":"Verifying directories ..."}
{"event":"details","time":1611007621,"u":"24","run":"1.20","mem":"17.33","data":"Temporary directory invalid. Updating from `\/var\/www\/html\/wp-content\/uploads\/backupbuddy_temp\/` to default."}
{"event":"details","time":1611007621,"u":"26","run":"1.22","mem":"17.39","data":"Directories verified."}
{"event":"details","time":1611007621,"u":"27","run":"1.22","mem":"17.39","data":"Backup serial generated: `2h8bqi1njn`."}
{"event":"details","time":1611007621,"u":"27","run":"1.23","mem":"17.39","data":"Loading fileoptions data instance #40 in create mode..."}
{"event":"details","time":1611007621,"u":"28","run":"1.23","mem":"17.39","data":"Created fileoptions lock file `2h8bqi1njn.txt.lock` with ID: 600630b5456999.98535747."}
{"event":"details","time":1611007621,"u":"28","run":"1.24","mem":"17.39","data":"Fileoptions load using 0 MB of memory."}
{"event":"details","time":1611007621,"u":"29","run":"1.24","mem":"17.39","data":"Fileoptions data loaded."}
{"event":"details","time":1611007621,"u":"29","run":"1.24","mem":"17.39","data":"Updating statistics for last backup start."}
{"event":"details","time":1611007621,"u":"31","run":"1.26","mem":"17.40","data":"Temp directory: `\/var\/www\/html\/wp-content\/uploads\/backupbuddy_temp\/2h8bqi1njn\/`."}
{"event":"details","time":1611007621,"u":"31","run":"1.26","mem":"17.40","data":"Backup root: `\/var\/www\/html\/wp-content\/uploads\/backupbuddy_temp\/2h8bqi1njn\/`."}
{"event":"details","time":1611007621,"u":"31","run":"1.27","mem":"17.40","data":"wp-config.php found in normal location."}
{"event":"details","time":1611007621,"u":"31","run":"1.27","mem":"17.40","data":"Calculating mysql database tables to backup."}
{"event":"details","time":1611007621,"u":"32","run":"1.27","mem":"17.40","data":"Base database dump mode (before inclusions\/exclusions): `prefix`."}
{"event":"details","time":1611007621,"u":"32","run":"1.28","mem":"17.40","data":"Determining database tables with prefix `wp_`."}
{"event":"startAction","time":1611007621,"u":"32","run":"1.28","mem":"17.40","data":"schemaTables"}
{"event":"finishAction","time":1611007621,"u":"33","run":"1.28","mem":"17.37","data":"schemaTables"}
{"event":"details","time":1611007621,"u":"33","run":"1.28","mem":"17.37","data":"Base database tables based on settings (24 tables): `wp_revslider_layer_animations,wp_revslider_sliders,wp_term_taxonomy,wp_revslider_static_slides,wp_revslider_slides_bkp,wp_posts,wp_revslider_css_bkp,wp_options,wp_terms,wp_usermeta,wp_termmeta,wp_revslider_sliders_bkp,wp_users,wp_links,wp_revslider_navigations,wp_revslider_navigations_bkp,wp_revslider_layer_animations_bkp,wp_revslider_static_slides_bkp,wp_revslider_slides,wp_commentmeta,wp_comments,wp_term_relationships,wp_revslider_css,wp_postmeta`"}
{"event":"details","time":1611007621,"u":"33","run":"1.29","mem":"17.37","data":"Database tables after addition (24 tables): `wp_revslider_layer_animations,wp_revslider_sliders,wp_term_taxonomy,wp_revslider_static_slides,wp_revslider_slides_bkp,wp_posts,wp_revslider_css_bkp,wp_options,wp_terms,wp_usermeta,wp_termmeta,wp_revslider_sliders_bkp,wp_users,wp_links,wp_revslider_navigations,wp_revslider_navigations_bkp,wp_revslider_layer_animations_bkp,wp_revslider_static_slides_bkp,wp_revslider_slides,wp_commentmeta,wp_comments,wp_term_relationships,wp_revslider_css,wp_postmeta`"}
{"event":"details","time":1611007621,"u":"33","run":"1.29","mem":"17.37","data":"Database tables after exclusion (24 tables): `wp_revslider_layer_animations,wp_revslider_sliders,wp_term_taxonomy,wp_revslider_static_slides,wp_revslider_slides_bkp,wp_posts,wp_revslider_css_bkp,wp_options,wp_terms,wp_usermeta,wp_termmeta,wp_revslider_sliders_bkp,wp_users,wp_links,wp_revslider_navigations,wp_revslider_navigations_bkp,wp_revslider_layer_animations_bkp,wp_revslider_static_slides_bkp,wp_revslider_slides,wp_commentmeta,wp_comments,wp_term_relationships,wp_revslider_css,wp_postmeta`"}
{"event":"startSubFunction","time":1611007621,"u":"34","run":"1.29","mem":"17.38","data":"{\"function\":\"calculate_tables\",\"title\":\"Found 24 tables to backup based on settings.\",\"more\":\"Tables: wp_revslider_layer_animations, wp_revslider_sliders, wp_term_taxonomy, wp_revslider_static_slides, wp_revslider_slides_bkp, wp_posts, wp_revslider_css_bkp, wp_options, wp_terms, wp_usermeta, wp_termmeta, wp_revslider_sliders_bkp, wp_users, wp_links, wp_revslider_navigations, wp_revslider_navigations_bkp, wp_revslider_layer_animations_bkp, wp_revslider_static_slides_bkp, wp_revslider_slides, wp_commentmeta, wp_comments, wp_term_relationships, wp_revslider_css, wp_postmeta\"}"}
{"event":"details","time":1611007621,"u":"34","run":"1.30","mem":"17.41","data":"Total calculated database size: `4.19 MB`."}
{"event":"details","time":1611007621,"u":"35","run":"1.30","mem":"17.41","data":"Breaking out tables ENABLED based on settings. Tables to be broken out into individual steps: `wp_posts, wp_postmeta`."}
{"event":"details","time":1611007621,"u":"35","run":"1.30","mem":"17.42","data":"Integrity check will be performed based on settings for this profile."}
{"event":"details","time":1611007621,"u":"36","run":"1.31","mem":"17.44","data":"Fileoptions `2h8bqi1njn.txt` saved. 8200 bytes written."}
{"event":"details","time":1611007621,"u":"37","run":"1.33","mem":"17.42","data":"Creating DAT (data) file snapshotting site & backup information."}
{"event":"startSubFunction","time":1611007621,"u":"38","run":"1.33","mem":"17.38","data":"{\"function\":\"post_count\",\"title\":\"Found 2 posts, 7 pages, and 1 comments.\"}"}
{"event":"startSubFunction","time":1611007621,"u":"38","run":"1.34","mem":"17.38","data":"{\"function\":\"post_count\",\"title\":\"Found 1 user accounts.\"}"}
{"event":"details","time":1611007621,"u":"39","run":"1.34","mem":"17.38","data":"DAT file contents (sans database user\/pass): Array; (;     [backupbuddy_version] => 8.7.2.0;     [wordpress_version] => 5.6;     [php_version] => 7.3.26;     [backup_time] => 1611018421;     [backup_type] => db;     [profile] => Array;         (;             [type] => db;             [title] => Database Only;             [skip_database_dump] => 0;             [mysqldump_additional_includes] => ;             [mysqldump_additional_excludes] => ;             [backup_nonwp_tables] => 0;             [excludes] => ;             [active_plugins_only] => 0;             [integrity_check] => 1;             [profile_globaltables] => 1;             [profile_globalexcludes] => 1;             [backup_mode] => 1;             [custom_root] => ;             [exclude_media] => 0;             [exclude_themes] => 0;             [exclude_plugins] => 0;             [tip] => Just your database. I like your minimalist style.;         ); ;     [default_profile] => Array;         (;             [type] => defaults;             [title] => Global Defaults;             [skip_database_dump] => 0;             [mysqldump_additional_includes] => ;             [mysqldump_additional_excludes] => ;             [backup_nonwp_tables] => 0;             [excludes] => ;             [active_plugins_only] => 0;             [integrity_check] => 1;             [profile_globaltables] => 1;             [profile_globalexcludes] => 1;             [backup_mode] => 1;             [custom_root] => ;             [exclude_media] => 0;             [exclude_themes] => 0;             [exclude_plugins] => 0;         ); ;     [serial] => 2h8bqi1njn;     [trigger] => manual;     [wp-config_in_parent] => ;     [deployment_direction] => ;     [abspath] => \/var\/www\/html\/;     [siteurl] => http:\/\/localhost;     [homeurl] => http:\/\/localhost;     [blogname] => SAKS;     [blogdescription] => S\u00f3 mais um site WordPress;     [active_plugins] => backupbuddy\/backupbuddy.php, contact-form-7\/wp-contact-form-7.php, dynamic-featured-image\/dynamic-featured-image.php, js_composer\/js_composer.php, porto-functionality\/porto-functionality.php, wp-config-file-editor\/wp-config-file-editor.php;     [posts] => 2;     [pages] => 7;     [comments] => 1;     [users] => 1;     [wp_content_url] => http:\/\/localhost\/wp-content;     [wp_content_dir] => \/var\/www\/html\/wp-content;     [db_charset] => utf8mb4;     [db_collate] => utf8mb4_unicode_ci;     [db_prefix] => wp_;     [db_server] => mysql;     [db_name] => wordpress;     [db_user] => ;     [db_password] => ;     [db_exclusions] => ;     [db_inclusions] => ;     [db_version] => 5.5.5;     [breakout_tables] => Array;         (;             [0] => wp_posts;             [1] => wp_postmeta;         ); ;     [tables_sizes] => Array;         (;             [wp_commentmeta] => 49152;             [wp_comments] => 98304;             [wp_links] => 32768;             [wp_options] => 3407872;             [wp_postmeta] => 81920;             [wp_posts] => 114688;             [wp_revslider_css] => 131072;             [wp_revslider_css_bkp] => 16384;             [wp_revslider_layer_animations] => 16384;             [wp_revslider_layer_animations_bkp] => 16384;             [wp_revslider_navigations] => 16384;             [wp_revslider_navigations_bkp] => 16384;             [wp_revslider_sliders] => 16384;             [wp_revslider_sliders_bkp] => 16384;             [wp_revslider_slides] => 16384;             [wp_revslider_slides_bkp] => 16384;             [wp_revslider_static_slides] => 16384;             [wp_revslider_static_slides_bkp] => 16384;             [wp_term_relationships] => 32768;             [wp_term_taxonomy] => 49152;             [wp_termmeta] => 49152;             [wp_terms] => 49152;             [wp_usermeta] => 49152;             [wp_users] => 65536;         ); ;     [force_single_db_file] => ;     [skip_database_dump] => 0;     [is_multisite] => ;     [is_multisite_export] => ;     [domain] => ;     [path] => ;     [upload_url] => ;     [upload_url_rewrite] => ; ); "}
{"event":"details","time":1611007621,"u":"39","run":"1.35","mem":"17.38","data":"Finished creating DAT (data) file."}
{"event":"details","time":1611007621,"u":"40","run":"1.35","mem":"17.37","data":"Deleting malware transient."}
{"event":"details","time":1611007621,"u":"40","run":"1.36","mem":"17.39","data":"Fileoptions `2h8bqi1njn.txt` saved. 8352 bytes written."}
{"event":"details","time":1611007621,"u":"41","run":"1.36","mem":"17.37","data":"Finished pre-backup procedures."}
{"event":"milestone","time":1611007621,"u":"41","run":"1.36","mem":"17.37","data":"finish_settings"}
{"event":"finishFunction","time":1611007621,"u":"41","run":"1.37","mem":"17.37","data":"{\"function\":\"pre_backup\"}"}
{"event":"message","time":1611007621,"u":"41","run":"1.37","mem":"17.37","data":"Running in classic backup mode based on settings. Mode code: `1`."}
{"event":"details","time":1611007621,"u":"42","run":"1.38","mem":"17.39","data":"Fileoptions `2h8bqi1njn.txt` saved. 8372 bytes written."}
{"event":"details","time":1611007621,"u":"43","run":"1.38","mem":"17.37","data":"Found next step to run: `backup_create_database_dump`."}
{"event":"details","time":1611007621,"u":"43","run":"1.39","mem":"17.37","data":"Peak memory usage: 17.541 MB"}
{"event":"details","time":1611007621,"u":"44","run":"1.39","mem":"17.37","data":"-----"}
{"event":"details","time":1611007621,"u":"44","run":"1.39","mem":"17.37","data":"Starting step function `backup_create_database_dump`. Attempt #1."}
{"event":"startFunction","time":1611007621,"u":"44","run":"1.40","mem":"17.37","data":"{\"function\":\"backup_create_database_dump\",\"title\":\"Backing up database\"}"}
{"event":"milestone","time":1611007621,"u":"44","run":"1.40","mem":"17.37","data":"start_database"}
{"event":"message","time":1611007621,"u":"45","run":"1.40","mem":"17.37","data":"Starting database backup process."}
{"event":"details","time":1611007621,"u":"45","run":"1.41","mem":"17.37","data":"PHP-based mysqldump (if applicable) max rows per select set to 1000."}
{"event":"details","time":1611007621,"u":"45","run":"1.41","mem":"17.37","data":"Database host for dumping: `mysql`"}
{"event":"details","time":1611007621,"u":"46","run":"1.41","mem":"17.37","data":"Loading mysqlbuddy library."}
{"event":"details","time":1611007621,"u":"46","run":"1.41","mem":"17.37","data":"Mysql server default directories: `\/usr\/bin\/,\/usr\/bin\/mysql\/,\/usr\/local\/bin\/`"}
{"event":"details","time":1611007621,"u":"46","run":"1.42","mem":"17.37","data":"mysqlbuddy: Force method of `1` passed."}
{"event":"message","time":1611007621,"u":"46","run":"1.42","mem":"17.37","data":"mysqlbuddy: Settings overriding automatic detection of available database dump methods. Using forced override methods: `php`."}
{"event":"message","time":1611007621,"u":"47","run":"1.42","mem":"17.37","data":"mysqlbuddy: Detected database dump methods: `php`."}
{"event":"details","time":1611007621,"u":"47","run":"1.43","mem":"17.37","data":"Max execution time chunking disabled by passing -1 to constructor. No chunking will be used for the database dump."}
{"event":"details","time":1611007621,"u":"47","run":"1.43","mem":"17.38","data":"This server's mariadb version: `10.5.8`."}
{"event":"milestone","time":1611007621,"u":"48","run":"1.43","mem":"17.38","data":"start_database"}
{"event":"message","time":1611007621,"u":"48","run":"1.43","mem":"17.38","data":"Starting database dump procedure."}
{"event":"details","time":1611007621,"u":"48","run":"1.43","mem":"17.38","data":"mysqlbuddy: Output directory: `\/var\/www\/html\/wp-content\/uploads\/backupbuddy_temp\/2h8bqi1njn\/`."}
{"event":"details","time":1611007621,"u":"48","run":"1.44","mem":"17.38","data":"Table dump count: `22`."}
{"event":"details","time":1611007621,"u":"49","run":"1.44","mem":"17.38","data":"Preparing to dump using available method(s) by priority. Methods: `php`"}
{"event":"details","time":1611007621,"u":"49","run":"1.44","mem":"17.38","data":"mysqlbuddy: Attempting dump method `php`."}
{"event":"details","time":1611007621,"u":"49","run":"1.44","mem":"17.38","data":"Loading DB kicker for use leter in case database goes away."}
{"event":"details","time":1611007621,"u":"49","run":"1.45","mem":"17.38","data":"Database kicker loaded. Database object class: `wpdb` with database of type `mysqli`."}
{"event":"details","time":1611007621,"u":"50","run":"1.45","mem":"17.38","data":"Dumping database table `wp_revslider_layer_animations`. Max rows per select: 1000. Starting at row `0`."}
{"event":"startTableDump","time":1611007621,"u":"50","run":"1.45","mem":"17.38","data":"wp_revslider_layer_animations"}
{"event":"details","time":1611007621,"u":"50","run":"1.46","mem":"17.38","data":"SQL dump file `\/var\/www\/html\/wp-content\/uploads\/backupbuddy_temp\/2h8bqi1njn\/wp_revslider_layer_animations.sql`."}
{"event":"details","time":1611007621,"u":"50","run":"1.46","mem":"17.38","data":"Database max execution time chunking disabled based on -1 passed."}
{"event":"sqlFile","time":1611007621,"u":"51","run":"1.46","mem":"17.38","data":"wp_revslider_layer_animations.sql"}
{"event":"details","time":1611007621,"u":"51","run":"1.47","mem":"17.38","data":"Got `0` rows from `wp_revslider_layer_animations` of `1000` max."}
{"event":"details","time":1611007621,"u":"51","run":"1.47","mem":"17.39","data":"Dumped `0` rows total from `wp_revslider_layer_animations`. No rows remain."}
{"event":"details","time":1611007621,"u":"52","run":"1.47","mem":"17.39","data":"Pinging mysqli."}
{"event":"details","time":1611007621,"u":"52","run":"1.48","mem":"17.39","data":"Database Server connection status verified."}
{"event":"details","time":1611007621,"u":"52","run":"1.48","mem":"17.39","data":"Finished dumping database table `wp_revslider_layer_animations`."}
{"event":"finishTableDump","time":1611007621,"u":"53","run":"1.48","mem":"17.39","data":"wp_revslider_layer_animations"}
{"event":"details","time":1611007621,"u":"53","run":"1.48","mem":"17.39","data":"Database SQL dump file (wp_revslider_layer_animations.sql) size: 471 Bytes"}
{"event":"sqlSize","time":1611007621,"u":"53","run":"1.49","mem":"17.39","data":"471"}
{"event":"details","time":1611007621,"u":"53","run":"1.49","mem":"17.39","data":"About to flush..."}
{"event":"details","time":1611007621,"u":"54","run":"1.49","mem":"17.39","data":"Dumping database table `wp_revslider_sliders`. Max rows per select: 1000. Starting at row `0`."}
{"event":"startTableDump","time":1611007621,"u":"54","run":"1.49","mem":"17.39","data":"wp_revslider_sliders"}
{"event":"details","time":1611007621,"u":"54","run":"1.50","mem":"17.39","data":"SQL dump file `\/var\/www\/html\/wp-content\/uploads\/backupbuddy_temp\/2h8bqi1njn\/wp_revslider_sliders.sql`."}
{"event":"details","time":1611007621,"u":"55","run":"1.51","mem":"17.39","data":"Database max execution time chunking disabled based on -1 passed."}
{"event":"sqlFile","time":1611007621,"u":"56","run":"1.51","mem":"17.39","data":"wp_revslider_sliders.sql"}
{"event":"details","time":1611007621,"u":"56","run":"1.51","mem":"17.38","data":"Got `0` rows from `wp_revslider_sliders` of `1000` max."}
{"event":"details","time":1611007621,"u":"56","run":"1.52","mem":"17.39","data":"Dumped `0` rows total from `wp_revslider_sliders`. No rows remain."}
{"event":"details","time":1611007621,"u":"56","run":"1.52","mem":"17.39","data":"Pinging mysqli."}
{"event":"details","time":1611007621,"u":"56","run":"1.52","mem":"17.39","data":"Database Server connection status verified."}
{"event":"details","time":1611007621,"u":"57","run":"1.52","mem":"17.39","data":"Finished dumping database table `wp_revslider_sliders`."}
{"event":"finishTableDump","time":1611007621,"u":"57","run":"1.53","mem":"17.39","data":"wp_revslider_sliders"}
{"event":"details","time":1611007621,"u":"57","run":"1.53","mem":"17.39","data":"Database SQL dump file (wp_revslider_sliders.sql) size: 525 Bytes"}
{"event":"sqlSize","time":1611007621,"u":"58","run":"1.53","mem":"17.39","data":"525"}
{"event":"details","time":1611007621,"u":"58","run":"1.53","mem":"17.39","data":"About to flush..."}
{"event":"details","time":1611007621,"u":"58","run":"1.54","mem":"17.39","data":"Dumping database table `wp_term_taxonomy`. Max rows per select: 1000. Starting at row `0`."}
{"event":"startTableDump","time":1611007621,"u":"58","run":"1.54","mem":"17.39","data":"wp_term_taxonomy"}
{"event":"details","time":1611007621,"u":"59","run":"1.54","mem":"17.39","data":"SQL dump file `\/var\/www\/html\/wp-content\/uploads\/backupbuddy_temp\/2h8bqi1njn\/wp_term_taxonomy.sql`."}
{"event":"details","time":1611007621,"u":"59","run":"1.54","mem":"17.39","data":"Database max execution time chunking disabled based on -1 passed."}
{"event":"sqlFile","time":1611007621,"u":"59","run":"1.55","mem":"17.39","data":"wp_term_taxonomy.sql"}
{"event":"details","time":1611007621,"u":"60","run":"1.55","mem":"17.39","data":"Got `2` rows from `wp_term_taxonomy` of `1000` max."}
{"event":"details","time":1611007621,"u":"60","run":"1.56","mem":"17.39","data":"Dumped `2` rows total from `wp_term_taxonomy`. No rows remain."}
{"event":"details","time":1611007621,"u":"60","run":"1.56","mem":"17.39","data":"Pinging mysqli."}
{"event":"details","time":1611007621,"u":"61","run":"1.56","mem":"17.39","data":"Database Server connection status verified."}
{"event":"details","time":1611007621,"u":"61","run":"1.57","mem":"17.39","data":"Finished dumping database table `wp_term_taxonomy`."}
{"event":"finishTableDump","time":1611007621,"u":"61","run":"1.57","mem":"17.39","data":"wp_term_taxonomy"}
{"event":"details","time":1611007621,"u":"62","run":"1.57","mem":"17.39","data":"Database SQL dump file (wp_term_taxonomy.sql) size: 941 Bytes"}
{"event":"sqlSize","time":1611007621,"u":"62","run":"1.57","mem":"17.39","data":"941"}
{"event":"details","time":1611007621,"u":"62","run":"1.58","mem":"17.39","data":"About to flush..."}
{"event":"details","time":1611007621,"u":"62","run":"1.58","mem":"17.39","data":"Dumping database table `wp_revslider_static_slides`. Max rows per select: 1000. Starting at row `0`."}
{"event":"startTableDump","time":1611007621,"u":"63","run":"1.58","mem":"17.39","data":"wp_revslider_static_slides"}
{"event":"details","time":1611007621,"u":"63","run":"1.58","mem":"17.39","data":"SQL dump file `\/var\/www\/html\/wp-content\/uploads\/backupbuddy_temp\/2h8bqi1njn\/wp_revslider_static_slides.sql`."}
{"event":"details","time":1611007621,"u":"63","run":"1.59","mem":"17.39","data":"Database max execution time chunking disabled based on -1 passed."}
{"event":"sqlFile","time":1611007621,"u":"64","run":"1.59","mem":"17.39","data":"wp_revslider_static_slides.sql"}
{"event":"details","time":1611007621,"u":"64","run":"1.59","mem":"17.38","data":"Got `0` rows from `wp_revslider_static_slides` of `1000` max."}
{"event":"details","time":1611007621,"u":"64","run":"1.60","mem":"17.39","data":"Dumped `0` rows total from `wp_revslider_static_slides`. No rows remain."}
{"event":"details","time":1611007621,"u":"64","run":"1.60","mem":"17.39","data":"Pinging mysqli."}
{"event":"details","time":1611007621,"u":"65","run":"1.60","mem":"17.39","data":"Database Server connection status verified."}
{"event":"details","time":1611007621,"u":"65","run":"1.61","mem":"17.39","data":"Finished dumping database table `wp_revslider_static_slides`."}
{"event":"finishTableDump","time":1611007621,"u":"65","run":"1.61","mem":"17.39","data":"wp_revslider_static_slides"}
{"event":"details","time":1611007621,"u":"66","run":"1.61","mem":"17.39","data":"Database SQL dump file (wp_revslider_static_slides.sql) size: 496 Bytes"}
{"event":"sqlSize","time":1611007621,"u":"66","run":"1.61","mem":"17.39","data":"496"}
{"event":"details","time":1611007621,"u":"66","run":"1.62","mem":"17.39","data":"About to flush..."}
{"event":"details","time":1611007621,"u":"67","run":"1.62","mem":"17.39","data":"Dumping database table `wp_revslider_slides_bkp`. Max rows per select: 1000. Starting at row `0`."}
{"event":"startTableDump","time":1611007621,"u":"67","run":"1.62","mem":"17.39","data":"wp_revslider_slides_bkp"}
{"event":"details","time":1611007621,"u":"67","run":"1.63","mem":"17.39","data":"SQL dump file `\/var\/www\/html\/wp-content\/uploads\/backupbuddy_temp\/2h8bqi1njn\/wp_revslider_slides_bkp.sql`."}
{"event":"details","time":1611007621,"u":"67","run":"1.63","mem":"17.39","data":"Database max execution time chunking disabled based on -1 passed."}
{"event":"sqlFile","time":1611007621,"u":"68","run":"1.63","mem":"17.39","data":"wp_revslider_slides_bkp.sql"}
{"event":"details","time":1611007621,"u":"68","run":"1.64","mem":"17.38","data":"Got `0` rows from `wp_revslider_slides_bkp` of `1000` max."}
{"event":"details","time":1611007621,"u":"69","run":"1.64","mem":"17.39","data":"Dumped `0` rows total from `wp_revslider_slides_bkp`. No rows remain."}
{"event":"details","time":1611007621,"u":"69","run":"1.64","mem":"17.39","data":"Pinging mysqli."}
{"event":"details","time":1611007621,"u":"69","run":"1.65","mem":"17.39","data":"Database Server connection status verified."}
{"event":"details","time":1611007621,"u":"70","run":"1.65","mem":"17.39","data":"Finished dumping database table `wp_revslider_slides_bkp`."}
{"event":"finishTableDump","time":1611007621,"u":"70","run":"1.65","mem":"17.39","data":"wp_revslider_slides_bkp"}
{"event":"details","time":1611007621,"u":"70","run":"1.66","mem":"17.39","data":"Database SQL dump file (wp_revslider_slides_bkp.sql) size: 531 Bytes"}
{"event":"sqlSize","time":1611007621,"u":"70","run":"1.66","mem":"17.39","data":"531"}
{"event":"details","time":1611007621,"u":"71","run":"1.66","mem":"17.39","data":"About to flush..."}
{"event":"details","time":1611007621,"u":"71","run":"1.66","mem":"17.39","data":"Dumping database table `wp_revslider_css_bkp`. Max rows per select: 1000. Starting at row `0`."}
{"event":"startTableDump","time":1611007621,"u":"71","run":"1.67","mem":"17.39","data":"wp_revslider_css_bkp"}
{"event":"details","time":1611007621,"u":"71","run":"1.67","mem":"17.39","data":"SQL dump file `\/var\/www\/html\/wp-content\/uploads\/backupbuddy_temp\/2h8bqi1njn\/wp_revslider_css_bkp.sql`."}
{"event":"details","time":1611007621,"u":"72","run":"1.67","mem":"17.39","data":"Database max execution time chunking disabled based on -1 passed."}
{"event":"sqlFile","time":1611007621,"u":"72","run":"1.68","mem":"17.39","data":"wp_revslider_css_bkp.sql"}
{"event":"details","time":1611007621,"u":"73","run":"1.68","mem":"17.47","data":"Got `47` rows from `wp_revslider_css_bkp` of `1000` max."}
{"event":"details","time":1611007621,"u":"73","run":"1.69","mem":"17.47","data":"Dumped `47` rows total from `wp_revslider_css_bkp`. No rows remain."}
{"event":"details","time":1611007621,"u":"74","run":"1.69","mem":"17.47","data":"Pinging mysqli."}
{"event":"details","time":1611007621,"u":"74","run":"1.69","mem":"17.47","data":"Database Server connection status verified."}
{"event":"details","time":1611007621,"u":"74","run":"1.70","mem":"17.47","data":"Finished dumping database table `wp_revslider_css_bkp`."}
{"event":"finishTableDump","time":1611007621,"u":"75","run":"1.70","mem":"17.47","data":"wp_revslider_css_bkp"}
{"event":"details","time":1611007621,"u":"75","run":"1.70","mem":"17.47","data":"Database SQL dump file (wp_revslider_css_bkp.sql) size: 19 KB"}
{"event":"sqlSize","time":1611007621,"u":"75","run":"1.71","mem":"17.47","data":"19325"}
{"event":"details","time":1611007621,"u":"75","run":"1.71","mem":"17.47","data":"About to flush..."}
{"event":"details","time":1611007621,"u":"76","run":"1.71","mem":"17.47","data":"Dumping database table `wp_options`. Max rows per select: 1000. Starting at row `0`."}
{"event":"startTableDump","time":1611007621,"u":"76","run":"1.71","mem":"17.47","data":"wp_options"}
{"event":"details","time":1611007621,"u":"76","run":"1.72","mem":"17.47","data":"SQL dump file `\/var\/www\/html\/wp-content\/uploads\/backupbuddy_temp\/2h8bqi1njn\/wp_options.sql`."}
{"event":"details","time":1611007621,"u":"76","run":"1.72","mem":"17.47","data":"Database max execution time chunking disabled based on -1 passed."}
{"event":"sqlFile","time":1611007621,"u":"77","run":"1.72","mem":"17.47","data":"wp_options.sql"}
{"event":"details","time":1611007621,"u":"78","run":"1.74","mem":"23.43","data":"Got `241` rows from `wp_options` of `1000` max."}
{"event":"details","time":1611007621,"u":"86","run":"1.82","mem":"23.43","data":"Dumped `241` rows total from `wp_options`. No rows remain."}
{"event":"details","time":1611007621,"u":"87","run":"1.82","mem":"23.43","data":"Pinging mysqli."}
{"event":"details","time":1611007621,"u":"87","run":"1.82","mem":"23.43","data":"Database Server connection status verified."}
{"event":"details","time":1611007621,"u":"87","run":"1.83","mem":"23.43","data":"Finished dumping database table `wp_options`."}
{"event":"finishTableDump","time":1611007621,"u":"87","run":"1.83","mem":"23.43","data":"wp_options"}
{"event":"details","time":1611007621,"u":"88","run":"1.83","mem":"23.43","data":"Database SQL dump file (wp_options.sql) size: 2.65 MB"}
{"event":"sqlSize","time":1611007621,"u":"88","run":"1.83","mem":"23.43","data":"2775198"}
{"event":"details","time":1611007621,"u":"88","run":"1.84","mem":"23.43","data":"About to flush..."}
{"event":"details","time":1611007621,"u":"88","run":"1.84","mem":"23.43","data":"Dumping database table `wp_terms`. Max rows per select: 1000. Starting at row `0`."}
{"event":"startTableDump","time":1611007621,"u":"89","run":"1.84","mem":"23.43","data":"wp_terms"}
{"event":"details","time":1611007621,"u":"89","run":"1.84","mem":"23.43","data":"SQL dump file `\/var\/www\/html\/wp-content\/uploads\/backupbuddy_temp\/2h8bqi1njn\/wp_terms.sql`."}
{"event":"details","time":1611007621,"u":"89","run":"1.85","mem":"23.43","data":"Database max execution time chunking disabled based on -1 passed."}
{"event":"sqlFile","time":1611007621,"u":"90","run":"1.85","mem":"23.43","data":"wp_terms.sql"}
{"event":"details","time":1611007621,"u":"90","run":"1.85","mem":"17.39","data":"Got `2` rows from `wp_terms` of `1000` max."}
{"event":"details","time":1611007621,"u":"90","run":"1.86","mem":"17.39","data":"Dumped `2` rows total from `wp_terms`. No rows remain."}
{"event":"details","time":1611007621,"u":"90","run":"1.86","mem":"17.39","data":"Pinging mysqli."}
{"event":"details","time":1611007621,"u":"91","run":"1.86","mem":"17.39","data":"Database Server connection status verified."}
{"event":"details","time":1611007621,"u":"91","run":"1.87","mem":"17.39","data":"Finished dumping database table `wp_terms`."}
{"event":"finishTableDump","time":1611007621,"u":"91","run":"1.87","mem":"17.39","data":"wp_terms"}
{"event":"details","time":1611007621,"u":"92","run":"1.87","mem":"17.39","data":"Database SQL dump file (wp_terms.sql) size: 759 Bytes"}
{"event":"sqlSize","time":1611007621,"u":"92","run":"1.87","mem":"17.39","data":"759"}
{"event":"details","time":1611007621,"u":"92","run":"1.88","mem":"17.39","data":"About to flush..."}
{"event":"details","time":1611007621,"u":"92","run":"1.88","mem":"17.39","data":"Dumping database table `wp_usermeta`. Max rows per select: 1000. Starting at row `0`."}
{"event":"startTableDump","time":1611007621,"u":"93","run":"1.88","mem":"17.39","data":"wp_usermeta"}
{"event":"details","time":1611007621,"u":"93","run":"1.88","mem":"17.39","data":"SQL dump file `\/var\/www\/html\/wp-content\/uploads\/backupbuddy_temp\/2h8bqi1njn\/wp_usermeta.sql`."}
{"event":"details","time":1611007621,"u":"93","run":"1.89","mem":"17.39","data":"Database max execution time chunking disabled based on -1 passed."}
{"event":"sqlFile","time":1611007621,"u":"94","run":"1.89","mem":"17.39","data":"wp_usermeta.sql"}
{"event":"details","time":1611007621,"u":"94","run":"1.89","mem":"17.41","data":"Got `23` rows from `wp_usermeta` of `1000` max."}
{"event":"details","time":1611007621,"u":"95","run":"1.90","mem":"17.41","data":"Dumped `23` rows total from `wp_usermeta`. No rows remain."}
{"event":"details","time":1611007621,"u":"95","run":"1.90","mem":"17.41","data":"Pinging mysqli."}
{"event":"details","time":1611007621,"u":"95","run":"1.91","mem":"17.41","data":"Database Server connection status verified."}
{"event":"details","time":1611007621,"u":"95","run":"1.91","mem":"17.41","data":"Finished dumping database table `wp_usermeta`."}
{"event":"finishTableDump","time":1611007621,"u":"96","run":"1.91","mem":"17.41","data":"wp_usermeta"}
{"event":"details","time":1611007621,"u":"96","run":"1.92","mem":"17.41","data":"Database SQL dump file (wp_usermeta.sql) size: 3 KB"}
{"event":"sqlSize","time":1611007621,"u":"96","run":"1.92","mem":"17.41","data":"3216"}
{"event":"details","time":1611007621,"u":"97","run":"1.92","mem":"17.41","data":"About to flush..."}
{"event":"details","time":1611007621,"u":"97","run":"1.93","mem":"17.41","data":"Dumping database table `wp_termmeta`. Max rows per select: 1000. Starting at row `0`."}
{"event":"startTableDump","time":1611007621,"u":"97","run":"1.93","mem":"17.41","data":"wp_termmeta"}
{"event":"details","time":1611007621,"u":"98","run":"1.93","mem":"17.41","data":"SQL dump file `\/var\/www\/html\/wp-content\/uploads\/backupbuddy_temp\/2h8bqi1njn\/wp_termmeta.sql`."}
{"event":"details","time":1611007621,"u":"98","run":"1.93","mem":"17.41","data":"Database max execution time chunking disabled based on -1 passed."}
{"event":"sqlFile","time":1611007621,"u":"98","run":"1.94","mem":"17.41","data":"wp_termmeta.sql"}
{"event":"details","time":1611007621,"u":"99","run":"1.94","mem":"17.38","data":"Got `0` rows from `wp_termmeta` of `1000` max."}
{"event":"details","time":1611007621,"u":"99","run":"1.95","mem":"17.39","data":"Dumped `0` rows total from `wp_termmeta`. No rows remain."}
{"event":"details","time":1611007621,"u":"99","run":"1.95","mem":"17.39","data":"Pinging mysqli."}
{"event":"details","time":1611007622,"u":"00","run":"1.95","mem":"17.39","data":"Database Server connection status verified."}
{"event":"details","time":1611007622,"u":"00","run":"1.96","mem":"17.39","data":"Finished dumping database table `wp_termmeta`."}
{"event":"finishTableDump","time":1611007622,"u":"00","run":"1.96","mem":"17.39","data":"wp_termmeta"}
{"event":"details","time":1611007622,"u":"01","run":"1.96","mem":"17.39","data":"Database SQL dump file (wp_termmeta.sql) size: 626 Bytes"}
{"event":"sqlSize","time":1611007622,"u":"01","run":"1.96","mem":"17.39","data":"626"}
{"event":"details","time":1611007622,"u":"01","run":"1.97","mem":"17.39","data":"About to flush..."}
{"event":"details","time":1611007622,"u":"02","run":"1.97","mem":"17.39","data":"Dumping database table `wp_revslider_sliders_bkp`. Max rows per select: 1000. Starting at row `0`."}
{"event":"startTableDump","time":1611007622,"u":"02","run":"1.97","mem":"17.39","data":"wp_revslider_sliders_bkp"}
{"event":"details","time":1611007622,"u":"02","run":"1.98","mem":"17.39","data":"SQL dump file `\/var\/www\/html\/wp-content\/uploads\/backupbuddy_temp\/2h8bqi1njn\/wp_revslider_sliders_bkp.sql`."}
{"event":"details","time":1611007622,"u":"02","run":"1.98","mem":"17.39","data":"Database max execution time chunking disabled based on -1 passed."}
{"event":"sqlFile","time":1611007622,"u":"03","run":"1.98","mem":"17.39","data":"wp_revslider_sliders_bkp.sql"}
{"event":"details","time":1611007622,"u":"03","run":"1.99","mem":"17.38","data":"Got `0` rows from `wp_revslider_sliders_bkp` of `1000` max."}
{"event":"details","time":1611007622,"u":"04","run":"1.99","mem":"17.39","data":"Dumped `0` rows total from `wp_revslider_sliders_bkp`. No rows remain."}
{"event":"details","time":1611007622,"u":"04","run":"1.99","mem":"17.39","data":"Pinging mysqli."}
{"event":"details","time":1611007622,"u":"04","run":"2.00","mem":"17.39","data":"Database Server connection status verified."}
{"event":"details","time":1611007622,"u":"05","run":"2.00","mem":"17.39","data":"Finished dumping database table `wp_revslider_sliders_bkp`."}
{"event":"finishTableDump","time":1611007622,"u":"05","run":"2.00","mem":"17.39","data":"wp_revslider_sliders_bkp"}
{"event":"details","time":1611007622,"u":"05","run":"2.01","mem":"17.39","data":"Database SQL dump file (wp_revslider_sliders_bkp.sql) size: 537 Bytes"}
{"event":"sqlSize","time":1611007622,"u":"06","run":"2.01","mem":"17.39","data":"537"}
{"event":"details","time":1611007622,"u":"06","run":"2.01","mem":"17.39","data":"About to flush..."}
{"event":"details","time":1611007622,"u":"06","run":"2.02","mem":"17.39","data":"Dumping database table `wp_users`. Max rows per select: 1000. Starting at row `0`."}
{"event":"startTableDump","time":1611007622,"u":"06","run":"2.02","mem":"17.39","data":"wp_users"}
{"event":"details","time":1611007622,"u":"07","run":"2.02","mem":"17.39","data":"SQL dump file `\/var\/www\/html\/wp-content\/uploads\/backupbuddy_temp\/2h8bqi1njn\/wp_users.sql`."}
{"event":"details","time":1611007622,"u":"07","run":"2.03","mem":"17.39","data":"Database max execution time chunking disabled based on -1 passed."}
{"event":"sqlFile","time":1611007622,"u":"08","run":"2.03","mem":"17.39","data":"wp_users.sql"}
{"event":"details","time":1611007622,"u":"08","run":"2.03","mem":"17.39","data":"Got `1` rows from `wp_users` of `1000` max."}
{"event":"details","time":1611007622,"u":"08","run":"2.04","mem":"17.40","data":"Dumped `1` rows total from `wp_users`. No rows remain."}
{"event":"details","time":1611007622,"u":"09","run":"2.04","mem":"17.40","data":"Pinging mysqli."}
{"event":"details","time":1611007622,"u":"09","run":"2.04","mem":"17.40","data":"Database Server connection status verified."}
{"event":"details","time":1611007622,"u":"09","run":"2.05","mem":"17.40","data":"Finished dumping database table `wp_users`."}
{"event":"finishTableDump","time":1611007622,"u":"09","run":"2.05","mem":"17.40","data":"wp_users"}
{"event":"details","time":1611007622,"u":"10","run":"2.05","mem":"17.40","data":"Database SQL dump file (wp_users.sql) size: 1 KB"}
{"event":"sqlSize","time":1611007622,"u":"10","run":"2.06","mem":"17.40","data":"1311"}
{"event":"details","time":1611007622,"u":"10","run":"2.06","mem":"17.40","data":"About to flush..."}
{"event":"details","time":1611007622,"u":"11","run":"2.06","mem":"17.40","data":"Dumping database table `wp_links`. Max rows per select: 1000. Starting at row `0`."}
{"event":"startTableDump","time":1611007622,"u":"11","run":"2.07","mem":"17.40","data":"wp_links"}
{"event":"details","time":1611007622,"u":"11","run":"2.07","mem":"17.40","data":"SQL dump file `\/var\/www\/html\/wp-content\/uploads\/backupbuddy_temp\/2h8bqi1njn\/wp_links.sql`."}
{"event":"details","time":1611007622,"u":"12","run":"2.07","mem":"17.40","data":"Database max execution time chunking disabled based on -1 passed."}
{"event":"sqlFile","time":1611007622,"u":"12","run":"2.08","mem":"17.40","data":"wp_links.sql"}
{"event":"details","time":1611007622,"u":"12","run":"2.08","mem":"17.38","data":"Got `0` rows from `wp_links` of `1000` max."}
{"event":"details","time":1611007622,"u":"13","run":"2.08","mem":"17.40","data":"Dumped `0` rows total from `wp_links`. No rows remain."}
{"event":"details","time":1611007622,"u":"13","run":"2.08","mem":"17.40","data":"Pinging mysqli."}
{"event":"details","time":1611007622,"u":"13","run":"2.09","mem":"17.40","data":"Database Server connection status verified."}
{"event":"details","time":1611007622,"u":"14","run":"2.09","mem":"17.40","data":"Finished dumping database table `wp_links`."}
{"event":"finishTableDump","time":1611007622,"u":"14","run":"2.09","mem":"17.40","data":"wp_links"}
{"event":"details","time":1611007622,"u":"14","run":"2.10","mem":"17.40","data":"Database SQL dump file (wp_links.sql) size: 1 KB"}
{"event":"sqlSize","time":1611007622,"u":"15","run":"2.10","mem":"17.40","data":"1236"}
{"event":"details","time":1611007622,"u":"15","run":"2.10","mem":"17.40","data":"About to flush..."}
{"event":"details","time":1611007622,"u":"15","run":"2.11","mem":"17.40","data":"Dumping database table `wp_revslider_navigations`. Max rows per select: 1000. Starting at row `0`."}
{"event":"startTableDump","time":1611007622,"u":"15","run":"2.11","mem":"17.40","data":"wp_revslider_navigations"}
{"event":"details","time":1611007622,"u":"16","run":"2.11","mem":"17.40","data":"SQL dump file `\/var\/www\/html\/wp-content\/uploads\/backupbuddy_temp\/2h8bqi1njn\/wp_revslider_navigations.sql`."}
{"event":"details","time":1611007622,"u":"16","run":"2.11","mem":"17.40","data":"Database max execution time chunking disabled based on -1 passed."}
{"event":"sqlFile","time":1611007622,"u":"16","run":"2.12","mem":"17.40","data":"wp_revslider_navigations.sql"}
{"event":"details","time":1611007622,"u":"17","run":"2.12","mem":"17.38","data":"Got `0` rows from `wp_revslider_navigations` of `1000` max."}
{"event":"details","time":1611007622,"u":"17","run":"2.13","mem":"17.39","data":"Dumped `0` rows total from `wp_revslider_navigations`. No rows remain."}
{"event":"details","time":1611007622,"u":"17","run":"2.13","mem":"17.39","data":"Pinging mysqli."}
{"event":"details","time":1611007622,"u":"18","run":"2.13","mem":"17.39","data":"Database Server connection status verified."}
{"event":"details","time":1611007622,"u":"18","run":"2.13","mem":"17.39","data":"Finished dumping database table `wp_revslider_navigations`."}
{"event":"finishTableDump","time":1611007622,"u":"18","run":"2.14","mem":"17.39","data":"wp_revslider_navigations"}
{"event":"details","time":1611007622,"u":"19","run":"2.14","mem":"17.39","data":"Database SQL dump file (wp_revslider_navigations.sql) size: 560 Bytes"}
{"event":"sqlSize","time":1611007622,"u":"19","run":"2.14","mem":"17.39","data":"560"}
{"event":"details","time":1611007622,"u":"19","run":"2.15","mem":"17.39","data":"About to flush..."}
{"event":"details","time":1611007622,"u":"19","run":"2.15","mem":"17.39","data":"Dumping database table `wp_revslider_navigations_bkp`. Max rows per select: 1000. Starting at row `0`."}
{"event":"startTableDump","time":1611007622,"u":"20","run":"2.15","mem":"17.39","data":"wp_revslider_navigations_bkp"}
{"event":"details","time":1611007622,"u":"20","run":"2.15","mem":"17.39","data":"SQL dump file `\/var\/www\/html\/wp-content\/uploads\/backupbuddy_temp\/2h8bqi1njn\/wp_revslider_navigations_bkp.sql`."}
{"event":"details","time":1611007622,"u":"20","run":"2.16","mem":"17.39","data":"Database max execution time chunking disabled based on -1 passed."}
{"event":"sqlFile","time":1611007622,"u":"21","run":"2.16","mem":"17.39","data":"wp_revslider_navigations_bkp.sql"}
{"event":"details","time":1611007622,"u":"21","run":"2.16","mem":"17.38","data":"Got `0` rows from `wp_revslider_navigations_bkp` of `1000` max."}
{"event":"details","time":1611007622,"u":"21","run":"2.17","mem":"17.39","data":"Dumped `0` rows total from `wp_revslider_navigations_bkp`. No rows remain."}
{"event":"details","time":1611007622,"u":"21","run":"2.17","mem":"17.39","data":"Pinging mysqli."}
{"event":"details","time":1611007622,"u":"22","run":"2.17","mem":"17.39","data":"Database Server connection status verified."}
{"event":"details","time":1611007622,"u":"22","run":"2.18","mem":"17.39","data":"Finished dumping database table `wp_revslider_navigations_bkp`."}
{"event":"finishTableDump","time":1611007622,"u":"22","run":"2.18","mem":"17.39","data":"wp_revslider_navigations_bkp"}
{"event":"details","time":1611007622,"u":"23","run":"2.18","mem":"17.39","data":"Database SQL dump file (wp_revslider_navigations_bkp.sql) size: 572 Bytes"}
{"event":"sqlSize","time":1611007622,"u":"23","run":"2.19","mem":"17.39","data":"572"}
{"event":"details","time":1611007622,"u":"23","run":"2.19","mem":"17.39","data":"About to flush..."}
{"event":"details","time":1611007622,"u":"24","run":"2.19","mem":"17.39","data":"Dumping database table `wp_revslider_layer_animations_bkp`. Max rows per select: 1000. Starting at row `0`."}
{"event":"startTableDump","time":1611007622,"u":"24","run":"2.19","mem":"17.39","data":"wp_revslider_layer_animations_bkp"}
{"event":"details","time":1611007622,"u":"24","run":"2.20","mem":"17.39","data":"SQL dump file `\/var\/www\/html\/wp-content\/uploads\/backupbuddy_temp\/2h8bqi1njn\/wp_revslider_layer_animations_bkp.sql`."}
{"event":"details","time":1611007622,"u":"24","run":"2.20","mem":"17.39","data":"Database max execution time chunking disabled based on -1 passed."}
{"event":"sqlFile","time":1611007622,"u":"25","run":"2.20","mem":"17.39","data":"wp_revslider_layer_animations_bkp.sql"}
{"event":"details","time":1611007622,"u":"25","run":"2.21","mem":"17.38","data":"Got `0` rows from `wp_revslider_layer_animations_bkp` of `1000` max."}
{"event":"details","time":1611007622,"u":"26","run":"2.21","mem":"17.39","data":"Dumped `0` rows total from `wp_revslider_layer_animations_bkp`. No rows remain."}
{"event":"details","time":1611007622,"u":"26","run":"2.21","mem":"17.39","data":"Pinging mysqli."}
{"event":"details","time":1611007622,"u":"26","run":"2.22","mem":"17.39","data":"Database Server connection status verified."}
{"event":"details","time":1611007622,"u":"26","run":"2.22","mem":"17.39","data":"Finished dumping database table `wp_revslider_layer_animations_bkp`."}
{"event":"finishTableDump","time":1611007622,"u":"27","run":"2.22","mem":"17.39","data":"wp_revslider_layer_animations_bkp"}
{"event":"details","time":1611007622,"u":"27","run":"2.23","mem":"17.39","data":"Database SQL dump file (wp_revslider_layer_animations_bkp.sql) size: 483 Bytes"}
{"event":"sqlSize","time":1611007622,"u":"27","run":"2.23","mem":"17.39","data":"483"}
{"event":"details","time":1611007622,"u":"28","run":"2.23","mem":"17.39","data":"About to flush..."}
{"event":"details","time":1611007622,"u":"28","run":"2.24","mem":"17.39","data":"Dumping database table `wp_revslider_static_slides_bkp`. Max rows per select: 1000. Starting at row `0`."}
{"event":"startTableDump","time":1611007622,"u":"28","run":"2.24","mem":"17.39","data":"wp_revslider_static_slides_bkp"}
{"event":"details","time":1611007622,"u":"29","run":"2.24","mem":"17.39","data":"SQL dump file `\/var\/www\/html\/wp-content\/uploads\/backupbuddy_temp\/2h8bqi1njn\/wp_revslider_static_slides_bkp.sql`."}
{"event":"details","time":1611007622,"u":"29","run":"2.25","mem":"17.39","data":"Database max execution time chunking disabled based on -1 passed."}
{"event":"sqlFile","time":1611007622,"u":"30","run":"2.25","mem":"17.39","data":"wp_revslider_static_slides_bkp.sql"}
{"event":"details","time":1611007622,"u":"30","run":"2.26","mem":"17.38","data":"Got `0` rows from `wp_revslider_static_slides_bkp` of `1000` max."}
{"event":"details","time":1611007622,"u":"30","run":"2.26","mem":"17.39","data":"Dumped `0` rows total from `wp_revslider_static_slides_bkp`. No rows remain."}
{"event":"details","time":1611007622,"u":"31","run":"2.26","mem":"17.39","data":"Pinging mysqli."}
{"event":"details","time":1611007622,"u":"31","run":"2.26","mem":"17.39","data":"Database Server connection status verified."}
{"event":"details","time":1611007622,"u":"31","run":"2.27","mem":"17.39","data":"Finished dumping database table `wp_revslider_static_slides_bkp`."}
{"event":"finishTableDump","time":1611007622,"u":"31","run":"2.27","mem":"17.39","data":"wp_revslider_static_slides_bkp"}
{"event":"details","time":1611007622,"u":"32","run":"2.27","mem":"17.39","data":"Database SQL dump file (wp_revslider_static_slides_bkp.sql) size: 508 Bytes"}
{"event":"sqlSize","time":1611007622,"u":"32","run":"2.28","mem":"17.39","data":"508"}
{"event":"details","time":1611007622,"u":"32","run":"2.28","mem":"17.39","data":"About to flush..."}
{"event":"details","time":1611007622,"u":"33","run":"2.28","mem":"17.39","data":"Dumping database table `wp_revslider_slides`. Max rows per select: 1000. Starting at row `0`."}
{"event":"startTableDump","time":1611007622,"u":"33","run":"2.28","mem":"17.39","data":"wp_revslider_slides"}
{"event":"details","time":1611007622,"u":"33","run":"2.29","mem":"17.39","data":"SQL dump file `\/var\/www\/html\/wp-content\/uploads\/backupbuddy_temp\/2h8bqi1njn\/wp_revslider_slides.sql`."}
{"event":"details","time":1611007622,"u":"34","run":"2.29","mem":"17.39","data":"Database max execution time chunking disabled based on -1 passed."}
{"event":"sqlFile","time":1611007622,"u":"34","run":"2.29","mem":"17.39","data":"wp_revslider_slides.sql"}
{"event":"details","time":1611007622,"u":"34","run":"2.30","mem":"17.38","data":"Got `0` rows from `wp_revslider_slides` of `1000` max."}
{"event":"details","time":1611007622,"u":"35","run":"2.30","mem":"17.39","data":"Dumped `0` rows total from `wp_revslider_slides`. No rows remain."}
{"event":"details","time":1611007622,"u":"35","run":"2.30","mem":"17.39","data":"Pinging mysqli."}
{"event":"details","time":1611007622,"u":"35","run":"2.31","mem":"17.39","data":"Database Server connection status verified."}
{"event":"details","time":1611007622,"u":"36","run":"2.31","mem":"17.39","data":"Finished dumping database table `wp_revslider_slides`."}
{"event":"finishTableDump","time":1611007622,"u":"36","run":"2.31","mem":"17.39","data":"wp_revslider_slides"}
{"event":"details","time":1611007622,"u":"36","run":"2.32","mem":"17.39","data":"Database SQL dump file (wp_revslider_slides.sql) size: 519 Bytes"}
{"event":"sqlSize","time":1611007622,"u":"37","run":"2.32","mem":"17.39","data":"519"}
{"event":"details","time":1611007622,"u":"37","run":"2.32","mem":"17.39","data":"About to flush..."}
{"event":"details","time":1611007622,"u":"37","run":"2.33","mem":"17.39","data":"Dumping database table `wp_commentmeta`. Max rows per select: 1000. Starting at row `0`."}
{"event":"startTableDump","time":1611007622,"u":"37","run":"2.33","mem":"17.39","data":"wp_commentmeta"}
{"event":"details","time":1611007622,"u":"38","run":"2.33","mem":"17.39","data":"SQL dump file `\/var\/www\/html\/wp-content\/uploads\/backupbuddy_temp\/2h8bqi1njn\/wp_commentmeta.sql`."}
{"event":"details","time":1611007622,"u":"38","run":"2.33","mem":"17.39","data":"Database max execution time chunking disabled based on -1 passed."}
{"event":"sqlFile","time":1611007622,"u":"38","run":"2.34","mem":"17.39","data":"wp_commentmeta.sql"}
{"event":"details","time":1611007622,"u":"39","run":"2.34","mem":"17.38","data":"Got `0` rows from `wp_commentmeta` of `1000` max."}
{"event":"details","time":1611007622,"u":"39","run":"2.34","mem":"17.39","data":"Dumped `0` rows total from `wp_commentmeta`. No rows remain."}
{"event":"details","time":1611007622,"u":"39","run":"2.35","mem":"17.39","data":"Pinging mysqli."}
{"event":"details","time":1611007622,"u":"39","run":"2.35","mem":"17.39","data":"Database Server connection status verified."}
{"event":"details","time":1611007622,"u":"40","run":"2.35","mem":"17.39","data":"Finished dumping database table `wp_commentmeta`."}
{"event":"finishTableDump","time":1611007622,"u":"40","run":"2.35","mem":"17.39","data":"wp_commentmeta"}
{"event":"details","time":1611007622,"u":"40","run":"2.36","mem":"17.39","data":"Database SQL dump file (wp_commentmeta.sql) size: 644 Bytes"}
{"event":"sqlSize","time":1611007622,"u":"41","run":"2.36","mem":"17.39","data":"644"}
{"event":"details","time":1611007622,"u":"41","run":"2.36","mem":"17.39","data":"About to flush..."}
{"event":"details","time":1611007622,"u":"41","run":"2.37","mem":"17.39","data":"Dumping database table `wp_comments`. Max rows per select: 1000. Starting at row `0`."}
{"event":"startTableDump","time":1611007622,"u":"41","run":"2.37","mem":"17.39","data":"wp_comments"}
{"event":"details","time":1611007622,"u":"42","run":"2.37","mem":"17.39","data":"SQL dump file `\/var\/www\/html\/wp-content\/uploads\/backupbuddy_temp\/2h8bqi1njn\/wp_comments.sql`."}
{"event":"details","time":1611007622,"u":"42","run":"2.37","mem":"17.39","data":"Database max execution time chunking disabled based on -1 passed."}
{"event":"sqlFile","time":1611007622,"u":"43","run":"2.38","mem":"17.39","data":"wp_comments.sql"}
{"event":"details","time":1611007622,"u":"43","run":"2.38","mem":"17.39","data":"Got `1` rows from `wp_comments` of `1000` max."}
{"event":"details","time":1611007622,"u":"43","run":"2.39","mem":"17.41","data":"Dumped `1` rows total from `wp_comments`. No rows remain."}
{"event":"details","time":1611007622,"u":"44","run":"2.39","mem":"17.41","data":"Pinging mysqli."}
{"event":"details","time":1611007622,"u":"44","run":"2.39","mem":"17.41","data":"Database Server connection status verified."}
{"event":"details","time":1611007622,"u":"44","run":"2.40","mem":"17.41","data":"Finished dumping database table `wp_comments`."}
{"event":"finishTableDump","time":1611007622,"u":"44","run":"2.40","mem":"17.41","data":"wp_comments"}
{"event":"details","time":1611007622,"u":"45","run":"2.40","mem":"17.41","data":"Database SQL dump file (wp_comments.sql) size: 2 KB"}
{"event":"sqlSize","time":1611007622,"u":"45","run":"2.41","mem":"17.41","data":"2069"}
{"event":"details","time":1611007622,"u":"45","run":"2.41","mem":"17.41","data":"About to flush..."}
{"event":"details","time":1611007622,"u":"46","run":"2.41","mem":"17.41","data":"Dumping database table `wp_term_relationships`. Max rows per select: 1000. Starting at row `0`."}
{"event":"startTableDump","time":1611007622,"u":"46","run":"2.42","mem":"17.41","data":"wp_term_relationships"}
{"event":"details","time":1611007622,"u":"46","run":"2.42","mem":"17.41","data":"SQL dump file `\/var\/www\/html\/wp-content\/uploads\/backupbuddy_temp\/2h8bqi1njn\/wp_term_relationships.sql`."}
{"event":"details","time":1611007622,"u":"47","run":"2.42","mem":"17.41","data":"Database max execution time chunking disabled based on -1 passed."}
{"event":"sqlFile","time":1611007622,"u":"47","run":"2.43","mem":"17.41","data":"wp_term_relationships.sql"}
{"event":"details","time":1611007622,"u":"47","run":"2.43","mem":"17.39","data":"Got `6` rows from `wp_term_relationships` of `1000` max."}
{"event":"details","time":1611007622,"u":"48","run":"2.43","mem":"17.39","data":"Dumped `6` rows total from `wp_term_relationships`. No rows remain."}
{"event":"details","time":1611007622,"u":"48","run":"2.43","mem":"17.39","data":"Pinging mysqli."}
{"event":"details","time":1611007622,"u":"48","run":"2.43","mem":"17.39","data":"Database Server connection status verified."}
{"event":"details","time":1611007622,"u":"48","run":"2.44","mem":"17.39","data":"Finished dumping database table `wp_term_relationships`."}
{"event":"finishTableDump","time":1611007622,"u":"48","run":"2.44","mem":"17.39","data":"wp_term_relationships"}
{"event":"details","time":1611007622,"u":"49","run":"2.44","mem":"17.39","data":"Database SQL dump file (wp_term_relationships.sql) size: 937 Bytes"}
{"event":"sqlSize","time":1611007622,"u":"49","run":"2.44","mem":"17.39","data":"937"}
{"event":"details","time":1611007622,"u":"49","run":"2.45","mem":"17.39","data":"About to flush..."}
{"event":"details","time":1611007622,"u":"50","run":"2.45","mem":"17.39","data":"Dumping database table `wp_revslider_css`. Max rows per select: 1000. Starting at row `0`."}
{"event":"startTableDump","time":1611007622,"u":"50","run":"2.45","mem":"17.39","data":"wp_revslider_css"}
{"event":"details","time":1611007622,"u":"50","run":"2.45","mem":"17.39","data":"SQL dump file `\/var\/www\/html\/wp-content\/uploads\/backupbuddy_temp\/2h8bqi1njn\/wp_revslider_css.sql`."}
{"event":"details","time":1611007622,"u":"50","run":"2.46","mem":"17.39","data":"Database max execution time chunking disabled based on -1 passed."}
{"event":"sqlFile","time":1611007622,"u":"51","run":"2.46","mem":"17.39","data":"wp_revslider_css.sql"}
{"event":"details","time":1611007622,"u":"51","run":"2.46","mem":"17.68","data":"Got `109` rows from `wp_revslider_css` of `1000` max."}
{"event":"details","time":1611007622,"u":"52","run":"2.48","mem":"17.69","data":"Dumped `109` rows total from `wp_revslider_css`. No rows remain."}
{"event":"details","time":1611007622,"u":"52","run":"2.48","mem":"17.69","data":"Pinging mysqli."}
{"event":"details","time":1611007622,"u":"53","run":"2.48","mem":"17.69","data":"Database Server connection status verified."}
{"event":"details","time":1611007622,"u":"53","run":"2.48","mem":"17.69","data":"Finished dumping database table `wp_revslider_css`."}
{"event":"finishTableDump","time":1611007622,"u":"53","run":"2.49","mem":"17.69","data":"wp_revslider_css"}
{"event":"details","time":1611007622,"u":"54","run":"2.49","mem":"17.69","data":"Database SQL dump file (wp_revslider_css.sql) size: 110 KB"}
{"event":"sqlSize","time":1611007622,"u":"54","run":"2.49","mem":"17.69","data":"112837"}
{"event":"details","time":1611007622,"u":"54","run":"2.50","mem":"17.69","data":"About to flush..."}
{"event":"details","time":1611007622,"u":"54","run":"2.50","mem":"17.69","data":"Finished PHP based SQL dump method. Ran for 1.055 sec."}
{"event":"details","time":1611007622,"u":"55","run":"2.50","mem":"17.64","data":"mysqlbuddy: Dump method `php` completed successfully."}
{"event":"milestone","time":1611007622,"u":"55","run":"2.51","mem":"17.64","data":"finish_database"}
{"event":"message","time":1611007622,"u":"55","run":"2.51","mem":"17.64","data":"Database dump procedure succeeded."}
{"event":"details","time":1611007622,"u":"56","run":"2.51","mem":"17.66","data":"Fileoptions `2h8bqi1njn.txt` saved. 8400 bytes written."}
{"event":"details","time":1611007622,"u":"56","run":"2.52","mem":"17.64","data":"Finished function `backup_create_database_dump`. Peak memory usage: 24.985 MB with BackupBuddy v8.7.2.0"}
{"event":"finishFunction","time":1611007622,"u":"56","run":"2.52","mem":"17.64","data":"{\"function\":\"backup_create_database_dump\"}"}
{"event":"details","time":1611007622,"u":"57","run":"2.52","mem":"17.64","data":"-----"}
{"event":"details","time":1611007622,"u":"57","run":"2.52","mem":"17.64","data":"Classic mode; skipping cron & triggering next step."}
{"event":"details","time":1611007622,"u":"57","run":"2.53","mem":"17.66","data":"Fileoptions `2h8bqi1njn.txt` saved. 8424 bytes written."}
{"event":"details","time":1611007622,"u":"58","run":"2.53","mem":"17.64","data":"Found next step to run: `backup_create_database_dump`."}
{"event":"details","time":1611007622,"u":"58","run":"2.53","mem":"17.64","data":"Peak memory usage: 24.985 MB"}
{"event":"details","time":1611007622,"u":"58","run":"2.54","mem":"17.64","data":"-----"}
{"event":"details","time":1611007622,"u":"59","run":"2.54","mem":"17.64","data":"Starting step function `backup_create_database_dump`. Attempt #1."}
{"event":"startFunction","time":1611007622,"u":"59","run":"2.54","mem":"17.64","data":"{\"function\":\"backup_create_database_dump\",\"title\":\"Backing up database\"}"}
{"event":"milestone","time":1611007622,"u":"59","run":"2.55","mem":"17.64","data":"start_database"}
{"event":"message","time":1611007622,"u":"59","run":"2.55","mem":"17.64","data":"Starting database backup process."}
{"event":"details","time":1611007622,"u":"60","run":"2.55","mem":"17.64","data":"PHP-based mysqldump (if applicable) max rows per select set to 1000."}
{"event":"details","time":1611007622,"u":"60","run":"2.55","mem":"17.64","data":"Database host for dumping: `mysql`"}
{"event":"details","time":1611007622,"u":"60","run":"2.56","mem":"17.64","data":"Loading mysqlbuddy library."}
{"event":"details","time":1611007622,"u":"60","run":"2.56","mem":"17.64","data":"Mysql server default directories: `\/usr\/bin\/,\/usr\/bin\/mysql\/,\/usr\/local\/bin\/`"}
{"event":"details","time":1611007622,"u":"61","run":"2.56","mem":"17.64","data":"mysqlbuddy: Force method of `1` passed."}
{"event":"message","time":1611007622,"u":"61","run":"2.56","mem":"17.64","data":"mysqlbuddy: Settings overriding automatic detection of available database dump methods. Using forced override methods: `php`."}
{"event":"message","time":1611007622,"u":"61","run":"2.57","mem":"17.64","data":"mysqlbuddy: Detected database dump methods: `php`."}
{"event":"details","time":1611007622,"u":"61","run":"2.57","mem":"17.64","data":"Max execution time chunking disabled by passing -1 to constructor. No chunking will be used for the database dump."}
{"event":"details","time":1611007622,"u":"62","run":"2.57","mem":"17.64","data":"This server's mariadb version: `10.5.8`."}
{"event":"milestone","time":1611007622,"u":"62","run":"2.58","mem":"17.64","data":"start_database"}
{"event":"message","time":1611007622,"u":"62","run":"2.58","mem":"17.64","data":"Starting database dump procedure."}
{"event":"details","time":1611007622,"u":"63","run":"2.58","mem":"17.64","data":"mysqlbuddy: Output directory: `\/var\/www\/html\/wp-content\/uploads\/backupbuddy_temp\/2h8bqi1njn\/`."}
{"event":"details","time":1611007622,"u":"63","run":"2.58","mem":"17.64","data":"Dumping single table `wp_posts`."}
{"event":"details","time":1611007622,"u":"63","run":"2.59","mem":"17.64","data":"Preparing to dump using available method(s) by priority. Methods: `php`"}
{"event":"details","time":1611007622,"u":"64","run":"2.59","mem":"17.64","data":"mysqlbuddy: Attempting dump method `php`."}
{"event":"details","time":1611007622,"u":"64","run":"2.59","mem":"17.64","data":"Loading DB kicker for use leter in case database goes away."}
{"event":"details","time":1611007622,"u":"64","run":"2.60","mem":"17.64","data":"Database kicker loaded. Database object class: `wpdb` with database of type `mysqli`."}
{"event":"details","time":1611007622,"u":"64","run":"2.60","mem":"17.64","data":"Dumping database table `wp_posts`. Max rows per select: 1000. Starting at row `0`."}
{"event":"startTableDump","time":1611007622,"u":"65","run":"2.60","mem":"17.64","data":"wp_posts"}
{"event":"details","time":1611007622,"u":"65","run":"2.60","mem":"17.64","data":"SQL dump file `\/var\/www\/html\/wp-content\/uploads\/backupbuddy_temp\/2h8bqi1njn\/wp_posts.sql`."}
{"event":"details","time":1611007622,"u":"65","run":"2.61","mem":"17.64","data":"Database max execution time chunking disabled based on -1 passed."}
{"event":"sqlFile","time":1611007622,"u":"66","run":"2.61","mem":"17.64","data":"wp_posts.sql"}
{"event":"details","time":1611007622,"u":"66","run":"2.61","mem":"17.52","data":"Got `30` rows from `wp_posts` of `1000` max."}
{"event":"details","time":1611007622,"u":"66","run":"2.62","mem":"17.55","data":"Dumped `30` rows total from `wp_posts`. No rows remain."}
{"event":"details","time":1611007622,"u":"67","run":"2.62","mem":"17.55","data":"Pinging mysqli."}
{"event":"details","time":1611007622,"u":"67","run":"2.62","mem":"17.55","data":"Database Server connection status verified."}
{"event":"details","time":1611007622,"u":"67","run":"2.63","mem":"17.55","data":"Finished dumping database table `wp_posts`."}
{"event":"finishTableDump","time":1611007622,"u":"67","run":"2.63","mem":"17.55","data":"wp_posts"}
{"event":"details","time":1611007622,"u":"68","run":"2.63","mem":"17.55","data":"Database SQL dump file (wp_posts.sql) size: 24 KB"}
{"event":"sqlSize","time":1611007622,"u":"68","run":"2.64","mem":"17.55","data":"24623"}
{"event":"details","time":1611007622,"u":"68","run":"2.64","mem":"17.55","data":"About to flush..."}
{"event":"details","time":1611007622,"u":"69","run":"2.64","mem":"17.55","data":"Finished PHP based SQL dump method. Ran for 0.048 sec."}
{"event":"details","time":1611007622,"u":"69","run":"2.64","mem":"17.51","data":"mysqlbuddy: Dump method `php` completed successfully."}
{"event":"milestone","time":1611007622,"u":"69","run":"2.65","mem":"17.51","data":"finish_database"}
{"event":"message","time":1611007622,"u":"69","run":"2.65","mem":"17.51","data":"Database dump procedure succeeded."}
{"event":"details","time":1611007622,"u":"70","run":"2.65","mem":"17.53","data":"Fileoptions `2h8bqi1njn.txt` saved. 8444 bytes written."}
{"event":"details","time":1611007622,"u":"70","run":"2.66","mem":"17.51","data":"Finished function `backup_create_database_dump`. Peak memory usage: 24.985 MB with BackupBuddy v8.7.2.0"}
{"event":"finishFunction","time":1611007622,"u":"71","run":"2.66","mem":"17.51","data":"{\"function\":\"backup_create_database_dump\"}"}
{"event":"details","time":1611007622,"u":"71","run":"2.66","mem":"17.51","data":"-----"}
{"event":"details","time":1611007622,"u":"71","run":"2.67","mem":"17.51","data":"Classic mode; skipping cron & triggering next step."}
{"event":"details","time":1611007622,"u":"72","run":"2.67","mem":"17.53","data":"Fileoptions `2h8bqi1njn.txt` saved. 8464 bytes written."}
{"event":"details","time":1611007622,"u":"72","run":"2.68","mem":"17.51","data":"Found next step to run: `backup_create_database_dump`."}
{"event":"details","time":1611007622,"u":"72","run":"2.68","mem":"17.51","data":"Peak memory usage: 24.985 MB"}
{"event":"details","time":1611007622,"u":"73","run":"2.68","mem":"17.51","data":"-----"}
{"event":"details","time":1611007622,"u":"73","run":"2.68","mem":"17.51","data":"Starting step function `backup_create_database_dump`. Attempt #1."}
{"event":"startFunction","time":1611007622,"u":"73","run":"2.69","mem":"17.51","data":"{\"function\":\"backup_create_database_dump\",\"title\":\"Backing up database\"}"}
{"event":"milestone","time":1611007622,"u":"73","run":"2.69","mem":"17.51","data":"start_database"}
{"event":"message","time":1611007622,"u":"74","run":"2.69","mem":"17.51","data":"Starting database backup process."}
{"event":"details","time":1611007622,"u":"74","run":"2.69","mem":"17.51","data":"PHP-based mysqldump (if applicable) max rows per select set to 1000."}
{"event":"details","time":1611007622,"u":"74","run":"2.70","mem":"17.51","data":"Database host for dumping: `mysql`"}
{"event":"details","time":1611007622,"u":"74","run":"2.70","mem":"17.51","data":"Loading mysqlbuddy library."}
{"event":"details","time":1611007622,"u":"75","run":"2.70","mem":"17.51","data":"Mysql server default directories: `\/usr\/bin\/,\/usr\/bin\/mysql\/,\/usr\/local\/bin\/`"}
{"event":"details","time":1611007622,"u":"75","run":"2.70","mem":"17.51","data":"mysqlbuddy: Force method of `1` passed."}
{"event":"message","time":1611007622,"u":"75","run":"2.71","mem":"17.51","data":"mysqlbuddy: Settings overriding automatic detection of available database dump methods. Using forced override methods: `php`."}
{"event":"message","time":1611007622,"u":"75","run":"2.71","mem":"17.51","data":"mysqlbuddy: Detected database dump methods: `php`."}
{"event":"details","time":1611007622,"u":"76","run":"2.71","mem":"17.51","data":"Max execution time chunking disabled by passing -1 to constructor. No chunking will be used for the database dump."}
{"event":"details","time":1611007622,"u":"76","run":"2.71","mem":"17.51","data":"This server's mariadb version: `10.5.8`."}
{"event":"milestone","time":1611007622,"u":"76","run":"2.72","mem":"17.51","data":"start_database"}
{"event":"message","time":1611007622,"u":"76","run":"2.72","mem":"17.51","data":"Starting database dump procedure."}
{"event":"details","time":1611007622,"u":"77","run":"2.72","mem":"17.51","data":"mysqlbuddy: Output directory: `\/var\/www\/html\/wp-content\/uploads\/backupbuddy_temp\/2h8bqi1njn\/`."}
{"event":"details","time":1611007622,"u":"77","run":"2.72","mem":"17.51","data":"Dumping single table `wp_postmeta`."}
{"event":"details","time":1611007622,"u":"77","run":"2.73","mem":"17.51","data":"Preparing to dump using available method(s) by priority. Methods: `php`"}
{"event":"details","time":1611007622,"u":"77","run":"2.73","mem":"17.51","data":"mysqlbuddy: Attempting dump method `php`."}
{"event":"details","time":1611007622,"u":"78","run":"2.73","mem":"17.51","data":"Loading DB kicker for use leter in case database goes away."}
{"event":"details","time":1611007622,"u":"78","run":"2.73","mem":"17.51","data":"Database kicker loaded. Database object class: `wpdb` with database of type `mysqli`."}
{"event":"details","time":1611007622,"u":"78","run":"2.74","mem":"17.51","data":"Dumping database table `wp_postmeta`. Max rows per select: 1000. Starting at row `0`."}
{"event":"startTableDump","time":1611007622,"u":"78","run":"2.74","mem":"17.51","data":"wp_postmeta"}
{"event":"details","time":1611007622,"u":"79","run":"2.74","mem":"17.51","data":"SQL dump file `\/var\/www\/html\/wp-content\/uploads\/backupbuddy_temp\/2h8bqi1njn\/wp_postmeta.sql`."}
{"event":"details","time":1611007622,"u":"79","run":"2.74","mem":"17.51","data":"Database max execution time chunking disabled based on -1 passed."}
{"event":"sqlFile","time":1611007622,"u":"79","run":"2.75","mem":"17.51","data":"wp_postmeta.sql"}
{"event":"details","time":1611007622,"u":"80","run":"2.75","mem":"17.54","data":"Got `114` rows from `wp_postmeta` of `1000` max."}
{"event":"details","time":1611007622,"u":"82","run":"2.77","mem":"17.54","data":"Dumped `114` rows total from `wp_postmeta`. No rows remain."}
{"event":"details","time":1611007622,"u":"82","run":"2.77","mem":"17.54","data":"Pinging mysqli."}
{"event":"details","time":1611007622,"u":"82","run":"2.77","mem":"17.54","data":"Database Server connection status verified."}
{"event":"details","time":1611007622,"u":"82","run":"2.78","mem":"17.54","data":"Finished dumping database table `wp_postmeta`."}
{"event":"finishTableDump","time":1611007622,"u":"83","run":"2.78","mem":"17.54","data":"wp_postmeta"}
{"event":"details","time":1611007622,"u":"83","run":"2.78","mem":"17.54","data":"Database SQL dump file (wp_postmeta.sql) size: 22 KB"}
{"event":"sqlSize","time":1611007622,"u":"83","run":"2.79","mem":"17.54","data":"22432"}
{"event":"details","time":1611007622,"u":"83","run":"2.79","mem":"17.54","data":"About to flush..."}
{"event":"details","time":1611007622,"u":"84","run":"2.79","mem":"17.54","data":"Finished PHP based SQL dump method. Ran for 0.06 sec."}
{"event":"details","time":1611007622,"u":"84","run":"2.80","mem":"17.49","data":"mysqlbuddy: Dump method `php` completed successfully."}
{"event":"milestone","time":1611007622,"u":"84","run":"2.80","mem":"17.49","data":"finish_database"}
{"event":"message","time":1611007622,"u":"85","run":"2.80","mem":"17.49","data":"Database dump procedure succeeded."}
{"event":"details","time":1611007622,"u":"85","run":"2.81","mem":"17.51","data":"Fileoptions `2h8bqi1njn.txt` saved. 8488 bytes written."}
{"event":"details","time":1611007622,"u":"85","run":"2.81","mem":"17.49","data":"Finished function `backup_create_database_dump`. Peak memory usage: 24.985 MB with BackupBuddy v8.7.2.0"}
{"event":"finishFunction","time":1611007622,"u":"86","run":"2.81","mem":"17.49","data":"{\"function\":\"backup_create_database_dump\"}"}
{"event":"details","time":1611007622,"u":"86","run":"2.82","mem":"17.49","data":"-----"}
{"event":"details","time":1611007622,"u":"86","run":"2.82","mem":"17.49","data":"Classic mode; skipping cron & triggering next step."}
{"event":"details","time":1611007622,"u":"87","run":"2.82","mem":"17.51","data":"Fileoptions `2h8bqi1njn.txt` saved. 8508 bytes written."}
{"event":"details","time":1611007622,"u":"87","run":"2.83","mem":"17.49","data":"Found next step to run: `backup_zip_files`."}
{"event":"details","time":1611007622,"u":"87","run":"2.83","mem":"17.49","data":"Peak memory usage: 24.985 MB"}
{"event":"details","time":1611007622,"u":"88","run":"2.83","mem":"17.49","data":"-----"}
{"event":"details","time":1611007622,"u":"88","run":"2.83","mem":"17.49","data":"Starting step function `backup_zip_files`. Attempt #1."}
{"event":"startFunction","time":1611007622,"u":"88","run":"2.84","mem":"17.49","data":"{\"function\":\"backup_zip_files\",\"title\":\"Zipping up files\"}"}
{"event":"milestone","time":1611007622,"u":"88","run":"2.84","mem":"17.49","data":"start_files"}
{"event":"details","time":1611007622,"u":"89","run":"2.84","mem":"17.49","data":"Backup root: `\/var\/www\/html\/wp-content\/uploads\/backupbuddy_temp\/2h8bqi1njn\/`."}
{"event":"details","time":1611007622,"u":"89","run":"2.84","mem":"17.49","data":"Saving meta data to zip comment."}
{"event":"details","time":1611007622,"u":"89","run":"2.85","mem":"17.38","data":"Zip process reported: Initializing zip archive file: \/var\/www\/html\/wp-content\/uploads\/backupbuddy_backups\/temp_zip_2h8bqi1njn\/backup-localhost-2021_01_18-10_07pm-db-2h8bqi1njn.zip"}
{"event":"details","time":1611007622,"u":"90","run":"2.86","mem":"17.38","data":"Zip process reported: Initialized zip archive file"}
{"event":"details","time":1611007622,"u":"90","run":"2.86","mem":"17.39","data":"PCLZip class not found. Attempting to load from `\/var\/www\/html\/wp-admin\/includes\/class-pclzip.php`."}
{"event":"details","time":1611007622,"u":"91","run":"2.86","mem":"17.39","data":"PCLZIP_TEMPORARY_DIR defined: `\/var\/www\/html\/wp-content\/uploads\/backupbuddy_backups\/temp_zip_2h8bqi1njn\/`"}
{"event":"details","time":1611007622,"u":"91","run":"2.87","mem":"17.39","data":"Verifying initialized zip archive file exists."}
{"event":"details","time":1611007622,"u":"92","run":"2.87","mem":"17.39","data":"File found (ziparchive): .itbub"}
{"event":"details","time":1611007622,"u":"92","run":"2.88","mem":"17.39","data":"Verified initialized zip archive file exists."}
{"event":"message","time":1611007622,"u":"93","run":"2.88","mem":"17.39","data":"Running standard ZIP system based on settings."}
{"event":"details","time":1611007622,"u":"93","run":"2.88","mem":"17.39","data":"Running under 64-bit PHP"}
{"event":"details","time":1611007622,"u":"93","run":"2.89","mem":"17.39","data":"Server API: fpm-fcgi"}
{"event":"details","time":1611007622,"u":"94","run":"2.89","mem":"17.39","data":"Using Best Available zip method based on settings."}
{"event":"details","time":1611007622,"u":"94","run":"2.89","mem":"17.39","data":"Creating ZIP file `\/var\/www\/html\/wp-content\/uploads\/backupbuddy_backups\/backup-localhost-2021_01_18-10_07pm-db-2h8bqi1njn.zip`. Adding directory `\/var\/www\/html\/wp-content\/uploads\/backupbuddy_temp\/2h8bqi1njn\/`. Excludes: \/importbuddy\/,\/importbuddy.php,\/.itbub,\/.sucuriquarantine\/,\/wp-content\/uploads\/sucuri\/,\/wp-content\/envato-backups\/,\/wp-content\/backup-db\/,\/wp-snapshots\/,\/wp-content\/ai1wm-backups\/,\/wp-content\/updraft\/,\/wp-content\/mysql.sql,\/wp-content\/uploads\/snapshots\/,\/wp-content\/backups\/,\/wp-content\/cache\/supercache\/,\/wp-content\/wfcache\/,\/wp-content\/wflogs\/,\/wp-content\/cache\/,\/wp-content\/plugins\/wordfence\/tmp\/,\/error_log,\/wp-admin\/error_log,\/logs\/,\/_wpeprivate\/,\/wp-content\/plugins\/wpengine-snapshot\/snapshots\/,\/ics-importer-cache\/,\/gt-cache\/,\/wp-config-sample.php,\/wp-content\/managewp\/,\/wp-content\/upgrade\/,\/wp-content\/uploads\/backupbuddy_backups\/,\/wp-content\/uploads\/pb_backupbuddy\/"}
{"event":"details","time":1611007622,"u":"96","run":"2.92","mem":"17.40","data":"Trying pclzip method for ZIP."}
{"event":"details","time":1611007622,"u":"96","run":"2.92","mem":"17.40","data":"Zip process reported: Temporary working directory available: `\/var\/www\/html\/wp-content\/uploads\/backupbuddy_backups\/temp_zip_2h8bqi1njn\/`"}
{"event":"message","time":1611007622,"u":"97","run":"2.92","mem":"17.40","data":"Using Compatibility Mode."}
{"event":"message","time":1611007622,"u":"97","run":"2.92","mem":"17.40","data":"If your backup times out in Compatibility Mode try disabling zip compression in Settings."}
{"event":"details","time":1611007622,"u":"97","run":"2.93","mem":"17.41","data":"Calculating directories\/files to exclude from backup (relative to site root)."}
{"event":"details","time":1611007622,"u":"98","run":"2.93","mem":"17.41","data":"Excluding: \/importbuddy\/"}
{"event":"details","time":1611007622,"u":"98","run":"2.93","mem":"17.41","data":"Excluding: \/importbuddy.php"}
{"event":"details","time":1611007622,"u":"98","run":"2.94","mem":"17.41","data":"Excluding: \/.itbub"}
{"event":"details","time":1611007622,"u":"98","run":"2.94","mem":"17.41","data":"Excluding: \/.sucuriquarantine\/"}
{"event":"details","time":1611007622,"u":"99","run":"2.94","mem":"17.41","data":"Excluding: \/wp-content\/uploads\/sucuri\/"}
{"event":"details","time":1611007622,"u":"99","run":"2.94","mem":"17.41","data":"Excluding: \/wp-content\/envato-backups\/"}
{"event":"details","time":1611007622,"u":"99","run":"2.95","mem":"17.41","data":"Excluding: \/wp-content\/backup-db\/"}
{"event":"details","time":1611007622,"u":"99","run":"2.95","mem":"17.41","data":"Excluding: \/wp-snapshots\/"}
{"event":"details","time":1611007623,"u":"00","run":"2.95","mem":"17.41","data":"Excluding: \/wp-content\/ai1wm-backups\/"}
{"event":"details","time":1611007623,"u":"00","run":"2.95","mem":"17.41","data":"Excluding: \/wp-content\/updraft\/"}
{"event":"details","time":1611007623,"u":"00","run":"2.96","mem":"17.41","data":"Excluding: \/wp-content\/mysql.sql"}
{"event":"details","time":1611007623,"u":"01","run":"2.96","mem":"17.41","data":"Excluding: \/wp-content\/uploads\/snapshots\/"}
{"event":"details","time":1611007623,"u":"01","run":"2.96","mem":"17.41","data":"Excluding: \/wp-content\/backups\/"}
{"event":"details","time":1611007623,"u":"01","run":"2.97","mem":"17.41","data":"Excluding: \/wp-content\/cache\/supercache\/"}
{"event":"details","time":1611007623,"u":"01","run":"2.97","mem":"17.41","data":"Excluding: \/wp-content\/wfcache\/"}
{"event":"details","time":1611007623,"u":"02","run":"2.97","mem":"17.41","data":"Excluding: \/wp-content\/wflogs\/"}
{"event":"details","time":1611007623,"u":"02","run":"2.97","mem":"17.41","data":"Excluding: \/wp-content\/cache\/"}
{"event":"details","time":1611007623,"u":"02","run":"2.98","mem":"17.41","data":"Excluding: \/wp-content\/plugins\/wordfence\/tmp\/"}
{"event":"details","time":1611007623,"u":"02","run":"2.98","mem":"17.41","data":"Excluding: \/error_log"}
{"event":"details","time":1611007623,"u":"03","run":"2.98","mem":"17.41","data":"Excluding: \/wp-admin\/error_log"}
{"event":"details","time":1611007623,"u":"03","run":"2.98","mem":"17.41","data":"Excluding: \/logs\/"}
{"event":"details","time":1611007623,"u":"03","run":"2.98","mem":"17.41","data":"Excluding: \/_wpeprivate\/"}
{"event":"details","time":1611007623,"u":"03","run":"2.99","mem":"17.41","data":"Excluding: \/wp-content\/plugins\/wpengine-snapshot\/snapshots\/"}
{"event":"details","time":1611007623,"u":"03","run":"2.99","mem":"17.41","data":"Excluding: \/ics-importer-cache\/"}
{"event":"details","time":1611007623,"u":"04","run":"2.99","mem":"17.41","data":"Excluding: \/gt-cache\/"}
{"event":"details","time":1611007623,"u":"04","run":"2.99","mem":"17.41","data":"Excluding: \/wp-config-sample.php"}
{"event":"details","time":1611007623,"u":"04","run":"3.00","mem":"17.41","data":"Excluding: \/wp-content\/managewp\/"}
{"event":"details","time":1611007623,"u":"04","run":"3.00","mem":"17.41","data":"Excluding: \/wp-content\/upgrade\/"}
{"event":"details","time":1611007623,"u":"05","run":"3.00","mem":"17.41","data":"Excluding: \/wp-content\/uploads\/backupbuddy_backups\/"}
{"event":"details","time":1611007623,"u":"05","run":"3.00","mem":"17.41","data":"Excluding: \/wp-content\/uploads\/pb_backupbuddy\/"}
{"event":"message","time":1611007623,"u":"05","run":"3.01","mem":"17.41","data":"Excluding archives directory and additional directories defined in settings. 30 total."}
{"event":"details","time":1611007623,"u":"06","run":"3.01","mem":"17.41","data":"Zip archive creation compression enabled based on settings."}
{"event":"details","time":1611007623,"u":"06","run":"3.01","mem":"17.41","data":"Zip archive creation symbolic links will be ignored based on settings."}
{"event":"details","time":1611007623,"u":"06","run":"3.01","mem":"17.41","data":"Zip archive creation actionable warnings will be ignored based on settings."}
{"event":"details","time":1611007623,"u":"06","run":"3.02","mem":"17.42","data":"pclzip command arguments: List: \/var\/www\/html\/wp-content\/uploads\/backupbuddy_temp\/...;77003;\/var\/www\/html\/wp-content\/uploads\/backupbuddy_temp\/2h8bqi1njn\/;77020;5;78003;\u0000lambda_1"}
{"event":"details","time":1611007623,"u":"35","run":"3.31","mem":"17.42","data":"Zip process exit code: 0"}
{"event":"details","time":1611007623,"u":"35","run":"3.31","mem":"17.42","data":"Zip process reported: 0 warnings"}
{"event":"message","time":1611007623,"u":"36","run":"3.31","mem":"17.42","data":"Zip Archive file successfully created with no errors (any actionable warnings ignored by user settings)."}
{"event":"details","time":1611007623,"u":"36","run":"3.32","mem":"17.42","data":"Zip Archive file size: 415757 bytes, owned by user:group 1000:50 with permissions 0777"}
{"event":"details","time":1611007623,"u":"36","run":"3.32","mem":"17.41","data":"The pclzip method for ZIP was successful."}
{"event":"details","time":1611007623,"u":"37","run":"3.32","mem":"17.40","data":"Moving Zip Archive file to local archive directory."}
{"event":"details","time":1611007623,"u":"37","run":"3.33","mem":"17.40","data":"Zip Archive file moved to local archive directory."}
{"event":"message","time":1611007623,"u":"38","run":"3.33","mem":"17.40","data":"Backup ZIP file successfully created."}
{"event":"details","time":1611007623,"u":"38","run":"3.33","mem":"17.40","data":"Chmod of ZIP file to 0644 succeeded."}
{"event":"details","time":1611007623,"u":"38","run":"3.34","mem":"17.40","data":"Database kicker loaded. Database object class: `wpdb` with database of type `mysqli`."}
{"event":"details","time":1611007623,"u":"39","run":"3.34","mem":"17.40","data":"Pinging mysqli."}
{"event":"details","time":1611007623,"u":"39","run":"3.34","mem":"17.40","data":"Database Server connection status verified."}
{"event":"details","time":1611007623,"u":"40","run":"3.35","mem":"17.41","data":"Fileoptions `2h8bqi1njn.txt` saved. 8540 bytes written."}
{"event":"details","time":1611007623,"u":"40","run":"3.36","mem":"17.40","data":"Finished function `backup_zip_files`. Peak memory usage: 24.985 MB with BackupBuddy v8.7.2.0"}
{"event":"finishFunction","time":1611007623,"u":"40","run":"3.36","mem":"17.40","data":"{\"function\":\"backup_zip_files\"}"}
{"event":"details","time":1611007623,"u":"41","run":"3.36","mem":"17.40","data":"-----"}
{"event":"details","time":1611007623,"u":"41","run":"3.36","mem":"17.40","data":"Classic mode; skipping cron & triggering next step."}
{"event":"details","time":1611007623,"u":"42","run":"3.37","mem":"17.42","data":"Fileoptions `2h8bqi1njn.txt` saved. 8560 bytes written."}
{"event":"details","time":1611007623,"u":"42","run":"3.37","mem":"17.40","data":"Found next step to run: `integrity_check`."}
{"event":"details","time":1611007623,"u":"42","run":"3.38","mem":"17.40","data":"Peak memory usage: 24.985 MB"}
{"event":"details","time":1611007623,"u":"42","run":"3.38","mem":"17.40","data":"-----"}
{"event":"details","time":1611007623,"u":"43","run":"3.38","mem":"17.40","data":"Starting step function `integrity_check`. Attempt #1."}
{"event":"startFunction","time":1611007623,"u":"43","run":"3.38","mem":"17.40","data":"{\"function\":\"integrity_check\",\"title\":\"Verifying backup file integrity\"}"}
{"event":"milestone","time":1611007623,"u":"43","run":"3.39","mem":"17.46","data":"start_integrity"}
{"event":"message","time":1611007623,"u":"44","run":"3.39","mem":"17.46","data":"Scanning and verifying backup file integrity."}
{"event":"details","time":1611007623,"u":"44","run":"3.39","mem":"17.46","data":"Starting integrity check on `\/var\/www\/html\/wp-content\/uploads\/backupbuddy_backups\/backup-localhost-2021_01_18-10_07pm-db-2h8bqi1njn.zip`."}
{"event":"details","time":1611007623,"u":"44","run":"3.40","mem":"17.46","data":"Started backup_integrity_check() function for `2h8bqi1njn` for file `\/var\/www\/html\/wp-content\/uploads\/backupbuddy_backups\/backup-localhost-2021_01_18-10_07pm-db-2h8bqi1njn.zip`."}
{"event":"details","time":1611007623,"u":"45","run":"3.40","mem":"17.46","data":"Determining backup type of file `backup-localhost-2021_01_18-10_07pm-db-2h8bqi1njn.zip`"}
{"event":"details","time":1611007623,"u":"45","run":"3.41","mem":"17.46","data":"Detecting backup type if possible."}
{"event":"details","time":1611007623,"u":"45","run":"3.41","mem":"17.46","data":"Detected backup type as `db` via filename."}
{"event":"details","time":1611007623,"u":"46","run":"3.41","mem":"17.46","data":"Resetting backup integrity stats for backup with serial `2h8bqi1njn`."}
{"event":"details","time":1611007623,"u":"46","run":"3.41","mem":"17.46","data":"Verifying comment in zip archive."}
{"event":"details","time":1611007623,"u":"47","run":"3.42","mem":"17.46","data":"ZipArchive retrieved comment in file \/var\/www\/html\/wp-content\/uploads\/backupbuddy_backups\/backup-localhost-2021_01_18-10_07pm-db-2h8bqi1njn.zip"}
{"event":"details","time":1611007623,"u":"47","run":"3.42","mem":"17.46","data":"NOTE: It is normal to see several \"File not found\" messages in the next several log lines."}
{"event":"details","time":1611007623,"u":"47","run":"3.43","mem":"17.46","data":"Verifying DAT file in zip archive."}
{"event":"details","time":1611007623,"u":"48","run":"3.43","mem":"17.46","data":"File found (ziparchive): backupbuddy_dat.php"}
{"event":"details","time":1611007623,"u":"48","run":"3.44","mem":"17.46","data":"Verifying database SQL file in zip archive."}
{"event":"details","time":1611007623,"u":"48","run":"3.44","mem":"17.46","data":"BackupBuddy v5.0+ format database detected."}
{"event":"details","time":1611007623,"u":"49","run":"3.44","mem":"17.46","data":"Forcing to a single db_1.sql file was NOT enabled for this backup."}
{"event":"details","time":1611007623,"u":"49","run":"3.45","mem":"17.46","data":"Database-only type backup."}
{"event":"details","time":1611007623,"u":"50","run":"3.45","mem":"17.46","data":"File not found (ziparchive): db_1.sql"}
{"event":"details","time":1611007623,"u":"50","run":"3.45","mem":"17.46","data":"PHP based database dump type."}
{"event":"details","time":1611007623,"u":"51","run":"3.46","mem":"17.46","data":"File found (ziparchive): wp_commentmeta.sql"}
{"event":"details","time":1611007623,"u":"51","run":"3.47","mem":"17.46","data":"File found (ziparchive): wp_comments.sql"}
{"event":"details","time":1611007623,"u":"52","run":"3.47","mem":"17.46","data":"File found (ziparchive): wp_links.sql"}
{"event":"details","time":1611007623,"u":"52","run":"3.48","mem":"17.46","data":"File found (ziparchive): wp_options.sql"}
{"event":"details","time":1611007623,"u":"53","run":"3.49","mem":"17.46","data":"File found (ziparchive): wp_postmeta.sql"}
{"event":"details","time":1611007623,"u":"54","run":"3.49","mem":"17.46","data":"File found (ziparchive): wp_posts.sql"}
{"event":"details","time":1611007623,"u":"55","run":"3.50","mem":"17.46","data":"File found (ziparchive): wp_revslider_css.sql"}
{"event":"details","time":1611007623,"u":"55","run":"3.51","mem":"17.46","data":"File found (ziparchive): wp_revslider_css_bkp.sql"}
{"event":"details","time":1611007623,"u":"56","run":"3.51","mem":"17.46","data":"File found (ziparchive): wp_revslider_layer_animations.sql"}
{"event":"details","time":1611007623,"u":"56","run":"3.52","mem":"17.46","data":"File found (ziparchive): wp_revslider_layer_animations_bkp.sql"}
{"event":"details","time":1611007623,"u":"57","run":"3.52","mem":"17.46","data":"File found (ziparchive): wp_revslider_navigations.sql"}
{"event":"details","time":1611007623,"u":"58","run":"3.53","mem":"17.46","data":"File found (ziparchive): wp_revslider_navigations_bkp.sql"}
{"event":"details","time":1611007623,"u":"58","run":"3.54","mem":"17.46","data":"File found (ziparchive): wp_revslider_sliders.sql"}
{"event":"details","time":1611007623,"u":"59","run":"3.54","mem":"17.46","data":"File found (ziparchive): wp_revslider_sliders_bkp.sql"}
{"event":"details","time":1611007623,"u":"59","run":"3.54","mem":"17.46","data":"File found (ziparchive): wp_revslider_slides.sql"}
{"event":"details","time":1611007623,"u":"59","run":"3.55","mem":"17.46","data":"File found (ziparchive): wp_revslider_slides_bkp.sql"}
{"event":"details","time":1611007623,"u":"60","run":"3.55","mem":"17.46","data":"File found (ziparchive): wp_revslider_static_slides.sql"}
{"event":"details","time":1611007623,"u":"60","run":"3.56","mem":"17.46","data":"File found (ziparchive): wp_revslider_static_slides_bkp.sql"}
{"event":"details","time":1611007623,"u":"61","run":"3.56","mem":"17.46","data":"File found (ziparchive): wp_term_relationships.sql"}
{"event":"details","time":1611007623,"u":"61","run":"3.57","mem":"17.46","data":"File found (ziparchive): wp_term_taxonomy.sql"}
{"event":"details","time":1611007623,"u":"62","run":"3.57","mem":"17.46","data":"File found (ziparchive): wp_termmeta.sql"}
{"event":"details","time":1611007623,"u":"62","run":"3.58","mem":"17.46","data":"File found (ziparchive): wp_terms.sql"}
{"event":"details","time":1611007623,"u":"63","run":"3.58","mem":"17.46","data":"File found (ziparchive): wp_usermeta.sql"}
{"event":"details","time":1611007623,"u":"63","run":"3.59","mem":"17.46","data":"File found (ziparchive): wp_users.sql"}
{"event":"details","time":1611007623,"u":"64","run":"3.59","mem":"17.46","data":"Retrieving zip scan log."}
{"event":"details","time":1611007623,"u":"64","run":"3.59","mem":"17.46","data":"Calculating integrity scan status,"}
{"event":"details","time":1611007623,"u":"64","run":"3.60","mem":"17.46","data":"Status: `Pass`. Description: ``."}
{"event":"details","time":1611007623,"u":"64","run":"3.60","mem":"17.46","data":"Getting file details such as size, timestamp, etc."}
{"event":"details","time":1611007623,"u":"65","run":"3.60","mem":"17.46","data":"Saving backup file integrity check details."}
{"event":"details","time":1611007623,"u":"65","run":"3.61","mem":"17.48","data":"Fileoptions `2h8bqi1njn.txt` saved. 9160 bytes written."}
{"event":"milestone","time":1611007623,"u":"66","run":"3.61","mem":"17.46","data":"finish_integrity"}
{"event":"details","time":1611007623,"u":"66","run":"3.62","mem":"17.48","data":"Fileoptions `2h8bqi1njn.txt` saved. 9192 bytes written."}
{"event":"details","time":1611007623,"u":"67","run":"3.62","mem":"17.46","data":"Finished function `integrity_check`. Peak memory usage: 24.985 MB with BackupBuddy v8.7.2.0"}
{"event":"finishFunction","time":1611007623,"u":"67","run":"3.62","mem":"17.46","data":"{\"function\":\"integrity_check\"}"}
{"event":"details","time":1611007623,"u":"67","run":"3.63","mem":"17.46","data":"-----"}
{"event":"details","time":1611007623,"u":"68","run":"3.63","mem":"17.46","data":"Classic mode; skipping cron & triggering next step."}
{"event":"details","time":1611007623,"u":"68","run":"3.64","mem":"17.48","data":"Fileoptions `2h8bqi1njn.txt` saved. 9212 bytes written."}
{"event":"details","time":1611007623,"u":"69","run":"3.64","mem":"17.46","data":"Found next step to run: `post_backup`."}
{"event":"details","time":1611007623,"u":"69","run":"3.64","mem":"17.46","data":"Peak memory usage: 24.985 MB"}
{"event":"details","time":1611007623,"u":"69","run":"3.65","mem":"17.46","data":"-----"}
{"event":"details","time":1611007623,"u":"69","run":"3.65","mem":"17.46","data":"Starting step function `post_backup`. Attempt #1."}
{"event":"startFunction","time":1611007623,"u":"70","run":"3.65","mem":"17.46","data":"{\"function\":\"post_backup\",\"title\":\"Cleaning up\"}"}
{"event":"message","time":1611007623,"u":"70","run":"3.65","mem":"17.46","data":"Cleaning up after backup."}
{"event":"details","time":1611007623,"u":"70","run":"3.66","mem":"17.46","data":"Removing temp data directory."}
{"event":"details","time":1611007624,"u":"26","run":"4.21","mem":"17.46","data":"Removing temp zip directory."}
{"event":"details","time":1611007624,"u":"27","run":"4.22","mem":"17.46","data":"Trimming old archives (if needed)."}
{"event":"details","time":1611007624,"u":"27","run":"4.23","mem":"17.47","data":"Trimmed 0 old archives based on settings archive limits."}
{"event":"details","time":1611007624,"u":"28","run":"4.23","mem":"17.47","data":"Building data file..."}
{"event":"details","time":1611007624,"u":"28","run":"4.24","mem":"17.49","data":"ziparchive listed file contents (\/var\/www\/html\/wp-content\/uploads\/backupbuddy_backups\/backup-localhost-2021_01_18-10_07pm-db-2h8bqi1njn.zip)"}
{"event":"details","time":1611007624,"u":"29","run":"4.24","mem":"17.49","data":"Zip Archive file size: 415757 bytes, owned by user:group 1000:50 with permissions 0777"}
{"event":"details","time":1611007624,"u":"29","run":"4.25","mem":"17.49","data":"Compressing data file..."}
{"event":"details","time":1611007624,"u":"30","run":"4.25","mem":"17.49","data":"Generating data file..."}
{"event":"details","time":1611007624,"u":"30","run":"4.26","mem":"17.48","data":"Data file created successfully."}
{"event":"details","time":1611007624,"u":"31","run":"4.26","mem":"17.48","data":"Backup data file created successfully."}
{"event":"details","time":1611007624,"u":"32","run":"4.27","mem":"17.50","data":"Fileoptions `2h8bqi1njn.txt` saved. 9256 bytes written."}
{"event":"details","time":1611007624,"u":"32","run":"4.28","mem":"17.48","data":"Final ZIP file size: 406 KB"}
{"event":"archiveSize","time":1611007624,"u":"32","run":"4.28","mem":"17.48","data":"406 KB"}
{"event":"details","time":1611007624,"u":"33","run":"4.28","mem":"17.48","data":"Updating statistics for last backup completed and number of edits since last backup."}
{"event":"details","time":1611007624,"u":"33","run":"4.29","mem":"17.42","data":"Cleaning up any old temporary zip directories in: `\/var\/www\/html\/wp-content\/uploads\/backupbuddy_temp\/`. If no recent backups then the temp directory will also be purged."}
{"event":"message","time":1611007624,"u":"35","run":"4.31","mem":"17.42","data":"Finished cleaning up."}
{"event":"archiveInfo","time":1611007624,"u":"36","run":"4.31","mem":"17.43","data":"{\"file\":\"backup-localhost-2021_01_18-10_07pm-db-2h8bqi1njn.zip\",\"url\":\"http:\\\/\\\/localhost\\\/wp-admin\\\/admin-ajax.php?action=pb_backupbuddy_backupbuddy&function=download_archive&backupbuddy_backup=backup-localhost-2021_01_18-10_07pm-db-2h8bqi1njn.zip\"}"}
{"event":"details","time":1611007624,"u":"37","run":"4.32","mem":"17.44","data":"Fileoptions `2h8bqi1njn.txt` saved. 9292 bytes written."}
{"event":"details","time":1611007624,"u":"37","run":"4.32","mem":"17.42","data":"Finished function `post_backup`. Peak memory usage: 24.985 MB with BackupBuddy v8.7.2.0"}
{"event":"finishFunction","time":1611007624,"u":"37","run":"4.33","mem":"17.42","data":"{\"function\":\"post_backup\"}"}
{"event":"details","time":1611007624,"u":"37","run":"4.33","mem":"17.42","data":"-----"}
{"event":"details","time":1611007624,"u":"38","run":"4.33","mem":"17.42","data":"No more backup steps remain. Finishing..."}
{"event":"details","time":1611007624,"u":"38","run":"4.34","mem":"17.44","data":"Fileoptions `2h8bqi1njn.txt` saved. 9316 bytes written."}
{"event":"startFunction","time":1611007624,"u":"39","run":"4.34","mem":"17.42","data":"{\"function\":\"backup_success\",\"title\":\"Backup completed successfully.\"}"}
{"event":"finishFunction","time":1611007624,"u":"39","run":"4.34","mem":"17.42","data":"{\"function\":\"backup_success\"}"}
{"event":"details","time":1611007624,"u":"39","run":"4.35","mem":"17.43","data":"Closing & unlocking fileoptions."}
{"event":"details","time":1611007624,"u":"40","run":"4.35","mem":"17.42","data":"Completed step function `post_backup`."}
{"event":"details","time":1611007624,"u":"40","run":"4.36","mem":"17.42","data":"Completed step function `integrity_check`."}
{"event":"details","time":1611007624,"u":"41","run":"4.36","mem":"17.42","data":"Completed step function `backup_zip_files`."}
{"event":"details","time":1611007624,"u":"41","run":"4.36","mem":"17.42","data":"Completed step function `backup_create_database_dump`."}
{"event":"details","time":1611007624,"u":"41","run":"4.37","mem":"17.42","data":"Completed step function `backup_create_database_dump`."}
{"event":"details","time":1611007624,"u":"42","run":"4.37","mem":"17.42","data":"Completed step function `backup_create_database_dump`."}
{"event":"details","time":1611007627,"u":"35","run":"0.57","mem":"16.62","data":"Loading fileoptions data instance #29..."}
{"event":"details","time":1611007627,"u":"36","run":"0.58","mem":"16.65","data":"Fileoptions load using 0.02 MB of memory."}
{"event":"details","time":1611007627,"u":"37","run":"0.59","mem":"16.65","data":"--- New PHP process."}
{"event":"details","time":1611007627,"u":"37","run":"0.59","mem":"16.65","data":"Completed backup final ZIP file size: 406 KB"}
{"event":"archiveSize","time":1611007627,"u":"37","run":"0.59","mem":"16.65","data":"406 KB"}
{"event":"message","time":1611007627,"u":"38","run":"0.59","mem":"16.65","data":"Backup successfully completed in 3 seconds with BackupBuddy v8.7.2.0. Trigger: `manual`."}
{"event":"milestone","time":1611007627,"u":"38","run":"0.60","mem":"16.65","data":"finish_backup"}
{"event":"message","time":1611007627,"u":"39","run":"0.61","mem":"16.88","data":"Pong! Server replied."}
